Team,2021_ppg,Last3_ppg,Last1_ppg,Home_ppg,Away_ppg,2021_3ptpct,Last3_3ptpct,Last1_3ptpct,Home_3ptpct,Away_3ptpct
Arizona,91.0,89.3,84.0,95.1,83.8,28.2,26.9,32.1,31.1,22.4
Iowa,87.1,76.7,94.0,95.1,73.0,30.7,27.4,25.5,31.5,28.8
Purdue,86.5,75.7,77.0,91.8,80.0,33.8,30.4,42.9,34.8,32.3
Duke,86.1,94.0,87.0,89.8,76.3,31.0,40.4,27.6,35.9,15.7
Kansas,85.8,86.7,80.0,87.2,84.4,26.9,31.2,26.3,31.7,22.0
Gonzaga,84.1,77.0,69.0,83.8,84.4,27.9,35.1,56.5,23.9,32.7
S Dakota St,84.0,74.7,63.0,90.3,81.6,33.8,29.5,19.0,34.3,33.5
Alabama,83.4,75.3,65.0,84.0,82.6,35.0,33.2,36.9,34.5,35.6
Colorado St,82.9,75.3,66.0,89.6,74.5,34.2,37.2,50.0,30.1,40.3
St Johns,82.6,75.7,57.0,83.5,74.0,28.4,29.1,31.6,27.7,36.5
Kentucky,82.1,78.7,98.0,84.3,77.0,21.9,20.3,24.5,21.9,22.1
Auburn,82.0,81.0,74.0,82.2,81.8,35.6,39.5,36.5,36.5,34.8
DePaul,81.6,73.7,72.0,85.3,67.0,24.6,25.8,12.5,25.5,20.1
Arkansas,81.5,77.7,81.0,86.4,73.0,23.4,28.3,44.4,22.3,25.7
Cornell,81.5,80.3,60.0,87.7,77.8,38.2,44.8,40.0,44.5,33.9
Wake Forest,81.2,79.3,82.0,83.9,75.8,31.1,29.0,25.6,33.5,25.7
UCLA,81.1,71.0,67.0,90.4,69.5,31.2,33.8,40.3,32.5,29.1
Baylor,80.7,78.0,78.0,85.0,74.3,32.0,39.7,46.2,31.8,32.3
New Mexico,80.6,77.3,69.0,83.0,77.0,28.3,22.0,17.4,27.7,29.2
Illinois,80.5,90.7,106.0,87.1,69.0,38.6,49.6,50.9,38.9,38.0
Illinois St,80.2,73.7,85.0,76.2,86.3,35.2,39.4,42.4,34.1,36.5
Missouri St,80.2,83.3,106.0,81.7,78.7,35.6,36.0,45.3,30.6,40.7
Col Charlestn,80.0,74.3,59.0,85.5,73.4,33.4,28.3,20.3,34.5,31.9
U Mass,79.8,73.3,57.0,84.4,76.0,43.1,45.0,31.6,39.1,46.7
Connecticut,79.4,60.0,53.0,83.0,74.4,29.3,31.7,45.3,29.9,28.2
Princeton,79.4,85.0,89.0,84.2,75.3,40.9,41.2,33.7,37.1,44.5
N Carolina,79.4,74.3,69.0,79.2,79.6,28.9,17.5,4.3,27.8,30.2
Houston,79.3,75.0,72.0,83.9,73.0,33.1,29.3,45.8,32.7,33.7
W Illinois,79.2,83.0,71.0,81.0,77.8,43.8,43.4,42.3,44.4,43.2
Rice,79.0,80.7,85.0,79.3,78.8,41.4,48.3,42.4,40.7,41.9
Tennessee,78.5,74.7,96.0,87.0,65.8,37.1,40.2,34.4,40.8,29.7
Texas Tech,78.5,62.3,55.0,86.8,66.0,29.0,27.3,32.7,28.8,29.5
LSU,78.2,74.7,66.0,83.1,69.5,24.8,20.1,27.3,27.3,19.4
Utah State,78.2,84.0,75.0,72.3,81.6,37.0,42.9,32.0,37.4,36.8
S Methodist,78.2,81.3,77.0,81.5,69.3,35.2,32.0,31.2,35.0,36.1
Saint Louis,78.0,69.3,70.0,76.7,80.3,24.1,27.4,17.1,24.6,23.4
Loyola-Chi,78.0,75.0,69.0,90.4,65.6,40.4,42.7,73.9,37.8,43.9
Northwestern,77.8,70.0,70.0,82.0,72.5,30.9,25.7,21.4,30.7,31.0
Buffalo,77.8,68.7,64.0,87.0,76.4,33.3,35.0,18.8,44.8,31.4
Memphis,77.7,75.7,92.0,84.5,67.5,25.5,23.8,26.1,27.2,22.2
Wash State,77.7,72.3,82.0,77.6,78.0,35.1,42.9,43.9,35.7,33.3
Belmont,77.7,75.0,76.0,86.5,73.3,35.1,32.0,31.6,39.9,32.3
Murray St,77.6,84.7,87.0,86.0,72.6,30.9,35.4,37.9,27.9,33.1
Marshall,77.6,68.3,60.0,77.7,77.5,25.1,32.2,40.0,22.5,29.0
Syracuse,77.5,63.7,75.0,92.3,67.7,32.1,34.6,32.0,33.3,31.0
Hofstra,77.5,79.7,89.0,89.0,72.6,38.7,31.4,23.6,39.3,38.4
NC State,77.3,70.3,74.0,79.6,73.3,27.5,31.3,28.4,25.3,31.7
Nevada,77.1,76.0,68.0,76.5,77.6,30.3,30.3,26.5,25.5,34.0
LA Tech,77.1,71.0,57.0,82.8,72.6,29.8,25.4,36.8,29.9,29.8
Furman,77.1,66.7,66.0,77.8,76.7,42.1,48.0,63.6,34.7,46.4
Indiana,77.0,68.0,64.0,76.8,77.7,28.0,26.5,37.5,26.9,30.9
Georgetown,77.0,79.0,73.0,81.3,65.7,34.0,32.9,32.9,35.1,30.5
Xavier,77.0,83.0,80.0,79.8,68.7,31.5,25.3,18.8,32.6,27.7
UAB,76.8,71.7,59.0,80.2,71.8,27.0,27.9,20.3,26.2,28.2
Wyoming,76.6,72.7,74.0,80.0,72.3,29.2,35.8,44.6,30.0,28.0
Iona,76.5,83.0,91.0,79.3,74.9,28.9,32.5,33.0,21.8,33.2
Seton Hall,76.4,75.3,77.0,80.5,68.3,27.9,22.6,19.5,28.6,26.3
E Kentucky,76.4,72.7,81.0,77.4,75.4,44.8,31.7,29.6,38.0,51.7
Citadel,76.3,76.3,80.0,80.0,75.6,40.0,31.4,41.3,41.3,39.7
Santa Clara,76.1,66.7,80.0,81.3,64.3,29.7,34.5,33.8,27.0,37.4
Abl Christian,76.0,80.0,69.0,80.0,72.0,30.3,31.3,21.7,31.3,29.2
USC,75.9,68.7,67.0,83.2,68.7,25.4,32.0,40.3,28.3,21.8
Clemson,75.9,83.0,70.0,80.5,71.3,34.9,34.9,21.4,35.4,34.3
Ohio State,75.7,78.0,73.0,78.2,72.0,34.1,35.9,24.7,32.0,37.5
Howard,75.7,80.7,79.0,78.5,74.9,33.5,33.5,38.0,22.9,36.6
Longwood,75.6,84.7,93.0,77.6,72.3,35.7,36.6,35.5,34.8,37.3
Oklahoma,75.5,74.7,88.0,73.2,77.8,33.0,34.8,44.3,31.1,34.7
Fla Atlantic,75.4,68.3,46.0,77.3,69.0,34.5,32.2,32.6,36.0,28.3
Nebraska,75.4,63.3,68.0,75.8,74.3,26.1,26.8,30.9,25.2,28.3
BYU,75.3,80.7,89.0,74.5,75.8,31.9,48.3,53.9,28.2,34.3
Richmond,75.3,71.7,83.0,79.3,73.0,39.5,40.5,25.3,45.4,35.8
Montana St,75.2,69.3,72.0,68.0,76.0,35.5,30.3,29.2,30.9,36.0
Winthrop,75.1,70.0,61.0,85.0,70.2,38.2,30.0,34.4,38.8,37.8
Davidson,75.1,74.3,74.0,81.3,71.0,37.5,37.7,32.4,34.2,40.1
Fla Gulf Cst,75.0,77.3,85.0,76.3,73.0,42.8,41.4,49.4,39.3,48.3
Oklahoma St,74.9,76.7,61.0,75.9,73.3,21.1,24.8,14.8,26.6,11.3
San Fransco,74.9,67.3,48.0,80.3,60.7,39.7,34.2,18.8,40.2,37.9
Weber State,74.9,70.3,71.0,74.5,75.2,30.0,31.3,33.8,30.2,29.9
W Kentucky,74.8,73.3,82.0,80.3,66.5,28.5,25.9,32.9,27.4,30.5
Maryland BC,74.8,66.3,51.0,82.3,71.6,37.3,36.2,41.2,42.5,34.7
Utah,74.6,77.7,75.0,78.5,70.0,31.1,29.6,40.0,31.2,30.9
St. Thomas (MN),74.6,64.3,65.0,65.0,75.8,50.5,48.2,32.3,32.3,52.5
E Washingtn,74.4,75.0,76.0,76.0,74.3,37.2,34.7,35.5,43.4,36.4
Bucknell,74.4,73.3,82.0,74.0,74.6,34.8,36.8,29.3,37.5,33.3
Bowling Grn,74.3,75.3,73.0,77.3,72.4,31.8,33.2,37.0,36.2,29.0
Miami (OH),74.1,70.7,68.0,77.5,70.8,34.9,36.8,39.7,39.7,29.7
Drake,74.1,76.0,70.0,77.8,70.4,32.4,34.2,17.1,31.6,33.2
Florida St,74.1,74.0,97.0,80.4,67.8,30.8,32.4,43.3,27.6,34.5
Delaware,74.0,65.7,68.0,74.5,73.7,29.9,35.0,26.5,29.2,30.2
Colgate,74.0,73.7,64.0,71.0,75.3,45.0,50.2,60.9,46.5,44.4
Michigan St,74.0,78.7,80.0,81.4,67.8,29.5,39.4,33.8,28.7,30.2
Oral Roberts,73.8,72.0,71.0,78.3,71.0,49.3,45.8,59.2,58.7,43.1
Harvard,73.7,70.3,77.0,74.3,73.3,40.1,44.1,42.9,48.4,33.8
W Carolina,73.5,74.7,72.0,75.0,72.9,45.3,36.2,25.0,38.7,48.2
Michigan,73.5,84.7,87.0,73.7,73.2,27.1,29.5,24.1,24.4,30.3
Central FL,73.4,76.3,65.0,71.6,75.8,33.6,32.8,23.1,36.9,29.7
Youngs St,73.4,79.0,71.0,70.6,77.0,30.0,31.6,21.1,28.0,32.1
Geo Mason,73.3,67.0,80.0,74.4,72.3,39.8,35.8,41.3,37.9,41.5
Miss State,73.3,70.3,69.0,75.4,67.7,26.4,24.2,21.7,28.9,19.2
Texas,73.2,70.3,63.0,75.0,67.0,28.7,24.2,28.6,30.3,22.4
Middle Tenn,73.2,74.3,52.0,73.3,73.2,31.0,33.6,17.3,30.0,31.4
Fairfield,73.2,72.0,72.0,75.7,72.1,31.1,22.2,20.8,26.4,33.3
Hawaii,73.2,71.7,58.0,75.5,71.7,27.9,30.7,31.0,23.8,30.7
Dixie State,73.1,76.7,78.0,78.3,70.0,31.3,39.1,26.9,37.0,27.4
E Michigan,73.1,75.3,92.0,81.8,66.2,26.9,19.9,26.1,22.0,31.7
Toledo,73.1,68.0,69.0,74.0,72.9,26.4,27.9,43.5,24.3,27.1
Ball State,73.1,64.7,64.0,85.0,69.7,38.3,29.4,32.8,45.9,35.7
Miami (FL),73.1,76.0,72.0,81.6,66.0,24.6,28.9,20.8,27.9,21.2
Fordham,73.1,69.3,66.0,75.0,71.7,31.8,37.5,36.4,32.0,31.7
Towson,73.1,79.0,74.0,74.2,72.3,33.2,48.1,40.5,24.3,39.7
Portland,73.1,75.7,78.0,76.7,69.5,33.2,38.3,26.9,35.2,30.9
Chattanooga,73.0,74.0,76.0,70.0,74.3,30.4,29.7,31.6,31.4,30.0
Seattle,73.0,61.7,56.0,78.8,57.7,41.1,38.9,32.1,41.0,41.6
E Carolina,73.0,69.3,64.0,75.0,69.5,34.4,31.7,23.4,36.0,31.3
VA Military,73.0,74.3,70.0,64.0,74.1,45.7,43.0,55.7,32.8,47.0
St Fran (PA),72.9,67.3,48.0,93.0,70.4,22.4,23.8,37.5,38.7,19.7
Cleveland St,72.9,83.3,93.0,71.6,76.0,22.9,22.8,29.0,21.8,25.7
UCSB,72.9,72.0,71.0,78.8,65.0,21.8,23.6,29.6,23.8,18.5
Marquette,72.8,63.7,71.0,74.8,70.8,34.7,44.0,38.0,27.4,42.4
Florida,72.8,73.0,66.0,74.8,70.4,31.8,32.9,36.4,33.4,29.8
Villanova,72.6,54.0,59.0,90.7,65.9,43.9,42.6,20.3,47.4,42.1
LA Monroe,72.6,80.0,74.0,84.7,65.4,26.9,31.3,28.4,23.6,29.4
Ste F Austin,72.6,68.0,72.0,75.7,70.8,23.8,32.4,29.2,26.4,22.0
Drexel,72.6,70.3,76.0,81.0,70.1,29.4,32.7,39.5,29.6,29.3
Monmouth,72.5,69.3,69.0,80.5,70.8,26.7,27.4,17.4,33.5,25.0
SE Missouri,72.5,65.7,77.0,71.3,73.0,31.9,35.0,39.0,28.0,33.5
TX Christian,72.5,74.7,80.0,72.4,72.6,24.4,25.4,41.3,24.9,24.0
Creighton,72.5,73.0,79.0,69.3,77.0,26.2,30.1,34.2,24.7,28.1
Texas A&M,72.4,77.3,83.0,77.8,67.0,31.5,34.9,36.1,31.6,31.3
N Mex State,72.3,68.3,64.0,77.7,70.0,29.5,13.2,23.4,30.9,28.8
Texas State,72.3,72.7,67.0,69.0,73.3,23.9,22.0,31.3,30.4,21.8
S Utah,72.2,63.7,50.0,60.0,73.8,30.5,29.8,24.0,25.0,31.0
Utah Val St,72.2,63.3,62.0,74.5,71.6,22.2,30.0,43.5,14.1,24.6
Wofford,72.2,71.0,76.0,74.8,70.5,36.6,40.8,47.4,35.1,37.6
Stony Brook,72.2,79.0,64.0,74.3,68.5,37.8,35.4,23.4,37.5,38.3
Nicholls St,72.1,89.0,104.0,104.0,67.6,35.4,34.8,40.4,40.4,34.2
Samford,72.1,70.3,85.0,70.0,73.4,39.0,35.5,38.8,42.9,36.8
Tulane,72.1,78.0,72.0,74.3,70.4,31.0,30.8,29.2,32.3,29.8
TX A&M-CC,72.1,71.7,57.0,66.0,73.9,21.7,26.5,31.6,29.5,19.7
Iowa State,72.1,61.3,47.0,71.0,74.7,30.0,32.6,31.9,29.6,30.8
Minnesota,72.0,73.7,79.0,70.0,74.0,32.5,31.2,41.8,31.7,33.2
Stanford,72.0,79.0,89.0,75.3,65.3,29.6,30.4,20.2,28.5,32.1
Mercer,71.9,78.0,77.0,80.0,69.6,38.0,37.2,39.0,33.8,39.4
Quinnipiac,71.7,78.3,73.0,69.0,75.0,37.2,38.3,41.1,35.7,39.0
Washington,71.7,66.7,64.0,69.8,75.3,26.5,33.0,9.4,22.9,33.2
Yale,71.6,69.3,60.0,77.0,67.7,36.3,41.8,40.0,36.6,36.1
VA Tech,71.6,78.7,86.0,76.3,66.8,37.7,39.4,45.3,37.3,38.2
St Bonavent,71.5,65.7,49.0,78.2,63.6,27.1,27.4,36.7,25.6,29.2
Marist,71.4,69.7,84.0,70.0,72.0,31.5,28.7,28.6,31.4,31.5
Rhode Island,71.2,68.7,82.0,75.4,67.7,24.5,20.4,25.6,26.3,22.9
S Car State,71.2,73.0,90.0,82.3,67.0,29.5,28.8,36.7,31.6,28.5
Georgia St,71.1,62.0,50.0,83.0,69.2,38.0,43.5,36.0,43.4,36.9
Indiana St,71.1,68.7,67.0,68.0,71.9,32.5,30.6,22.4,28.7,33.4
N Colorado,71.0,68.7,56.0,76.3,69.0,41.1,42.2,48.2,32.8,44.6
St Josephs,71.0,73.0,73.0,74.9,64.3,37.6,38.4,32.9,37.8,37.4
Colorado,71.0,61.7,60.0,73.8,65.5,21.8,22.7,35.0,24.4,16.0
Kansas St,71.0,70.0,82.0,74.3,64.3,32.4,32.9,40.2,36.3,23.3
TN State,70.9,79.7,88.0,75.0,69.9,32.2,30.1,23.9,26.0,33.8
Charlotte,70.9,71.0,79.0,72.0,70.2,32.6,33.8,26.6,30.2,34.2
Louisville,70.8,71.0,72.0,72.5,68.8,34.7,38.0,54.2,31.7,38.4
TX-Pan Am,70.8,65.7,68.0,68.5,71.4,28.0,32.0,30.9,35.0,26.3
Lipscomb,70.8,61.3,60.0,64.5,72.4,34.3,44.0,55.0,30.2,35.2
Wright State,70.7,65.0,72.0,60.0,73.7,22.6,26.2,29.2,25.0,22.1
Oregon,70.6,78.3,70.0,80.0,54.3,29.3,29.4,34.3,31.6,23.5
Arkansas St,70.6,76.0,62.0,70.7,70.6,25.0,25.0,43.5,24.1,25.5
Florida Intl,70.6,73.0,59.0,74.5,68.0,40.4,41.1,50.8,38.3,41.9
Ohio,70.6,69.3,75.0,80.6,58.0,38.3,30.3,28.0,32.8,47.8
La Salle,70.5,75.7,70.0,75.0,63.8,35.7,42.3,38.6,37.3,32.9
Dayton,70.5,66.3,68.0,70.9,70.0,27.0,25.6,17.6,26.0,28.3
Cincinnati,70.5,71.0,77.0,73.6,65.0,29.0,26.8,27.3,26.2,34.6
Grd Canyon,70.4,67.3,49.0,76.0,62.0,35.4,34.2,36.7,38.8,29.0
Kennesaw St,70.3,72.3,84.0,79.3,64.8,31.5,34.6,32.1,30.3,32.4
IPFW,70.2,69.3,78.0,71.8,69.0,33.2,31.7,34.6,32.4,33.9
Vanderbilt,70.2,67.7,77.0,70.3,70.0,34.2,26.6,42.9,31.5,45.0
Mississippi,70.2,62.0,76.0,75.4,61.0,28.4,25.8,15.8,29.5,25.8
San Jose St,70.0,79.0,90.0,73.6,66.4,43.3,45.6,56.7,45.7,40.7
UC Davis,70.0,65.7,71.0,73.5,68.3,25.7,28.9,16.9,34.7,20.9
Oakland,69.9,77.0,72.0,80.0,68.8,27.0,27.3,37.5,26.3,27.1
Lg Beach St,69.9,61.0,62.0,76.0,68.1,21.9,24.6,24.2,31.6,18.9
Providence,69.8,64.3,57.0,75.0,59.3,28.7,26.4,26.3,25.0,38.0
Duquesne,69.5,67.3,64.0,69.5,69.4,29.8,31.2,32.8,29.5,30.3
Sacred Hrt,69.4,69.0,79.0,60.5,71.6,36.3,40.6,30.4,27.3,38.2
W Virginia,69.4,61.3,65.0,67.7,72.3,24.4,22.8,9.2,26.6,20.8
Cal Baptist,69.3,67.7,60.0,77.7,52.7,27.9,26.6,40.0,29.6,22.8
Norfolk St,69.3,63.0,58.0,91.0,66.6,20.7,27.0,41.4,23.1,20.3
Idaho,69.3,77.0,58.0,80.8,60.2,36.5,39.0,46.6,39.9,32.9
New Orleans,69.2,60.7,50.0,78.3,62.0,19.7,18.1,24.0,19.2,20.3
Tulsa,69.2,69.0,83.0,69.7,68.3,30.4,27.5,32.5,29.5,31.9
Brown,69.1,73.3,65.0,69.5,68.9,32.0,36.8,32.3,33.5,31.1
U Penn,69.1,72.3,74.0,70.5,68.8,42.4,40.1,56.8,51.1,40.8
GA Tech,68.9,56.0,53.0,68.5,70.5,27.9,25.0,28.3,27.9,27.7
S Carolina,68.9,67.3,56.0,74.8,63.0,27.4,19.3,26.8,27.3,27.6
Boise State,68.7,81.0,72.0,71.5,65.4,30.6,27.2,20.8,28.0,33.9
Maryland,68.7,63.0,70.0,68.0,70.3,27.1,30.2,34.3,25.2,31.3
TN Martin,68.7,72.7,79.0,77.0,64.5,30.6,23.4,19.0,29.9,31.0
Wisconsin,68.6,63.3,71.0,72.5,64.0,29.4,26.8,25.4,28.3,30.9
Troy,68.6,69.7,66.0,67.7,69.0,28.2,28.7,31.8,26.6,29.0
Bradley,68.5,74.0,77.0,72.6,64.4,32.4,28.4,11.7,31.4,33.5
High Point,68.5,72.7,69.0,69.5,67.5,27.4,26.1,21.7,23.7,31.1
Pepperdine,68.4,81.3,83.0,73.0,63.0,31.4,28.3,28.9,28.8,34.9
LA Lafayette,68.4,69.3,56.0,77.7,62.8,34.0,40.4,53.6,29.6,37.3
N Iowa,68.4,64.3,75.0,58.3,78.5,38.4,29.5,32.0,25.8,47.8
S Alabama,68.3,65.0,52.0,77.0,65.3,26.4,26.2,40.4,31.2,24.5
Manhattan,68.1,70.7,62.0,72.3,65.6,19.3,21.2,24.2,16.6,21.0
James Mad,68.1,66.7,79.0,64.0,71.4,28.4,31.5,26.6,31.6,26.1
UNLV,68.1,85.0,84.0,69.9,65.0,34.4,35.3,28.6,31.9,39.2
Loyola-MD,68.0,66.3,67.0,68.7,67.7,34.0,36.2,35.8,30.6,35.4
Georgia,68.0,72.7,67.0,70.7,61.7,26.5,28.9,40.3,27.3,24.3
CS Fullerton,68.0,62.7,56.0,68.7,67.7,21.1,30.3,37.5,23.3,20.0
Loyola Mymt,68.0,60.3,63.0,71.8,64.2,30.9,31.5,33.3,28.4,33.6
Boston U,67.8,72.0,79.0,70.0,66.8,33.9,37.5,41.8,34.3,33.7
Hartford,67.8,69.7,65.0,68.0,67.8,37.8,41.6,36.9,33.1,38.9
Alabama St,67.7,60.0,62.0,71.0,66.3,24.4,21.7,19.4,16.9,27.8
NC-Asheville,67.6,73.3,79.0,74.8,62.8,35.5,46.4,49.4,34.1,36.6
South Dakota,67.6,74.3,78.0,77.0,60.0,29.6,26.9,30.8,22.4,37.0
American,67.5,70.3,72.0,80.0,64.8,26.6,25.6,20.8,28.1,26.2
SE Louisiana,67.5,66.0,60.0,--,67.5,31.1,24.2,30.0,--,31.1
W Michigan,67.4,68.3,64.0,60.0,68.7,38.8,38.0,42.2,30.0,40.0
Penn State,67.3,67.3,64.0,71.7,60.8,35.7,29.7,23.4,32.8,40.7
Boston Col,67.3,66.0,57.0,71.0,60.8,23.9,21.2,26.3,24.1,23.5
Fresno St,67.2,69.7,83.0,70.5,62.3,25.9,28.7,39.8,27.0,24.1
Coastal Car,67.1,67.7,60.0,70.8,62.3,25.5,29.6,20.0,26.5,24.1
N Hampshire,67.1,62.7,62.0,75.5,63.8,39.6,44.7,43.5,29.8,44.2
NC Central,67.0,75.0,86.0,--,67.0,25.1,28.0,45.3,--,25.1
Lafayette,67.0,72.3,73.0,77.8,59.8,44.3,41.5,16.4,42.4,46.0
SIU Edward,67.0,65.0,60.0,70.0,66.3,22.4,16.9,15.0,19.3,23.2
Gard-Webb,67.0,67.3,71.0,77.8,58.4,34.8,32.7,42.3,39.5,29.8
N Kentucky,67.0,66.7,68.0,71.3,62.8,39.7,39.0,39.7,36.8,43.0
Southern,67.0,66.0,72.0,72.0,66.4,29.9,21.2,16.7,16.7,31.6
Bryant,66.9,70.7,78.0,68.5,66.5,37.2,31.1,34.6,35.0,37.8
Valparaiso,66.9,68.0,67.0,66.0,67.3,34.4,30.9,40.3,30.3,36.4
Jksnville St,66.8,59.0,59.0,66.7,66.9,38.2,25.4,30.5,39.0,37.8
UC San Diego,66.5,63.3,56.0,79.0,62.3,34.4,39.5,42.9,43.7,30.5
TX El Paso,66.4,70.3,82.0,64.5,68.3,28.8,28.4,43.9,32.6,25.3
Dartmouth,66.4,69.7,78.0,65.5,66.7,45.2,38.8,38.5,38.9,47.3
Rob Morris,66.4,67.0,74.0,72.0,64.5,31.1,38.8,36.5,29.2,31.8
Army,66.3,63.7,66.0,73.0,59.5,30.6,25.1,22.7,30.8,30.3
California,66.2,67.3,72.0,71.3,57.3,23.9,19.3,16.7,26.5,18.3
St Marys,66.2,63.7,53.0,74.0,58.3,32.5,26.7,28.3,34.5,30.0
Akron,66.1,72.7,66.0,80.0,57.8,34.6,39.9,40.9,33.8,35.3
Prairie View,66.1,76.7,60.0,--,66.1,23.7,23.5,10.0,--,23.7
Columbia,66.1,63.0,69.0,69.6,63.2,29.7,31.7,34.8,29.3,30.1
Temple,66.0,56.3,48.0,70.0,61.2,24.0,19.5,18.8,23.6,24.5
Mass Lowell,66.0,62.0,62.0,63.0,66.4,26.7,24.2,43.5,19.0,27.7
Wagner,66.0,65.0,54.0,77.0,63.3,21.8,21.5,11.1,27.3,20.2
N Arizona,66.0,67.7,59.0,67.3,65.2,32.7,35.5,20.3,34.6,31.5
Wichita St,66.0,68.3,52.0,64.7,68.3,33.5,27.8,34.6,29.8,39.6
TN Tech,65.9,68.0,63.0,75.0,62.0,24.6,26.5,33.3,25.3,24.2
Detroit,65.9,66.3,83.0,83.0,64.0,42.8,42.2,54.2,54.2,41.1
Pacific,65.9,69.0,61.0,70.6,61.2,26.4,23.2,19.7,29.7,22.5
IL-Chicago,65.9,64.3,66.0,66.3,65.7,37.4,29.5,22.7,31.7,40.4
Rutgers,65.8,61.3,63.0,65.2,66.8,23.7,29.3,19.0,21.5,27.0
Montana,65.8,68.7,66.0,69.8,62.6,29.4,21.8,13.6,28.0,30.7
Oregon St,65.7,67.3,73.0,72.0,58.2,24.1,28.2,37.0,25.0,22.7
Canisius,65.6,56.7,65.0,69.8,62.2,34.1,24.7,23.1,33.5,34.6
Missouri,65.6,73.3,83.0,68.0,62.0,21.0,15.0,14.5,16.9,27.8
E Tenn St,65.4,71.0,64.0,68.3,64.1,39.0,36.6,18.8,41.0,38.1
Coppin State,65.3,68.7,69.0,73.0,64.2,38.3,43.7,39.1,47.3,36.7
Liberty,65.2,73.7,74.0,78.3,58.7,44.0,51.6,36.5,51.1,39.2
Denver,65.1,64.3,64.0,69.0,64.2,31.0,28.0,14.1,15.2,34.8
Geo Wshgtn,65.1,73.7,67.0,65.4,64.9,27.7,31.2,17.9,28.4,27.1
GA Southern,65.0,62.7,69.0,82.0,62.6,27.1,27.1,34.8,25.6,27.4
Morehead St,64.9,69.7,63.0,65.0,64.9,36.5,37.3,23.8,46.2,33.7
NJIT,64.9,63.7,52.0,60.0,68.8,34.4,37.7,63.5,23.8,41.9
Rider,64.8,57.3,67.0,70.3,62.8,23.6,19.2,35.8,34.1,19.1
North Dakota,64.8,66.7,69.0,67.0,63.6,36.6,40.5,34.8,41.4,33.7
Lehigh,64.8,71.7,75.0,69.5,61.0,29.3,39.1,48.0,36.7,22.6
TX-San Ant,64.8,66.3,50.0,65.0,64.3,30.1,27.1,12.0,25.8,37.3
Binghamton,64.6,57.0,51.0,60.0,66.4,32.5,29.8,41.2,32.5,32.5
Navy,64.6,69.0,67.0,66.0,64.1,28.4,34.8,40.3,22.7,30.1
Northeastrn,64.5,75.0,69.0,68.0,61.7,30.8,33.3,43.5,30.0,31.6
Maryland ES,64.4,68.3,81.0,--,64.4,34.6,33.7,22.2,--,34.6
Siena,64.4,68.0,72.0,65.3,63.8,36.8,33.8,33.3,36.8,36.8
S Illinois,64.4,70.3,80.0,70.3,60.5,37.3,51.2,45.0,33.1,40.5
Elon,64.4,60.7,56.0,73.7,60.4,40.1,36.3,37.5,46.2,36.9
Notre Dame,64.4,59.7,56.0,68.0,62.2,32.6,31.8,21.4,35.3,30.9
Incar Word,64.3,64.0,55.0,67.4,60.5,34.7,28.1,27.3,33.8,36.0
Niagara,64.3,65.0,66.0,60.0,65.4,29.9,26.2,31.8,22.5,31.5
App State,64.1,67.0,67.0,68.0,62.2,35.9,31.3,35.8,38.2,34.6
Arizona St,64.1,64.7,58.0,61.8,66.0,31.1,23.2,20.7,26.2,34.8
LIU,64.0,62.3,57.0,99.0,59.0,34.6,28.9,31.6,42.4,32.7
Central Ark,63.9,70.7,70.0,70.0,63.2,27.2,26.9,12.9,30.0,26.9
McNeese St,63.9,66.0,72.0,--,63.9,27.7,30.3,29.2,--,27.7
NC A&T,63.8,64.7,57.0,--,63.8,32.1,20.1,21.1,--,32.1
Bellarmine,63.8,65.3,77.0,--,63.8,29.8,29.1,35.1,--,29.8
AR Lit Rock,63.6,62.7,55.0,62.0,64.2,24.2,33.5,54.5,29.0,22.6
St Peters,63.6,60.3,63.0,60.7,65.4,25.3,14.9,23.8,16.5,30.3
Central Mich,63.5,71.3,67.0,68.5,62.3,38.3,35.0,17.9,32.8,39.8
Austin Peay,63.5,62.0,51.0,--,63.5,40.2,38.7,35.3,--,40.2
Vermont,63.5,70.3,70.0,72.0,61.4,30.7,29.9,34.3,25.0,32.4
Campbell,63.4,62.3,66.0,66.0,62.4,32.4,35.3,40.9,38.6,29.8
San Diego St,63.4,62.3,63.0,66.7,58.5,26.0,33.7,33.3,27.0,24.4
Sam Hous St,63.4,61.7,55.0,55.0,64.6,42.0,40.5,10.9,43.6,41.8
N Dakota St,63.3,72.7,73.0,72.3,57.3,35.5,34.4,45.2,30.1,40.1
St Fran (NY),63.3,67.0,75.0,64.0,63.1,31.3,34.3,44.0,32.8,30.9
SC Upstate,63.2,59.3,52.0,71.7,59.0,34.3,37.1,34.6,37.7,32.2
NC-Grnsboro,63.0,54.0,62.0,60.0,64.7,29.9,29.6,33.9,36.3,26.5
Air Force,63.0,61.0,48.0,65.5,61.0,38.1,41.0,43.8,37.8,38.4
UMKC,63.0,58.3,56.0,64.0,62.9,32.1,29.1,32.1,32.8,32.0
Virginia,62.9,62.7,82.0,67.6,54.8,27.3,27.1,32.9,27.9,26.0
WI-Milwkee,62.9,63.0,58.0,66.2,59.6,32.9,41.3,25.9,30.8,35.2
TX Southern,62.9,66.3,70.0,--,62.9,19.1,19.6,21.4,--,19.1
North Texas,62.8,64.3,62.0,65.0,61.4,35.9,32.6,38.7,33.8,37.1
UC Irvine,62.7,61.7,61.0,70.0,59.0,27.9,27.6,19.7,30.0,26.7
Kent State,62.6,59.0,50.0,63.5,62.2,33.6,32.2,24.0,35.4,32.8
NC-Wilmgton,62.5,62.7,71.0,67.0,61.0,33.6,25.5,21.1,31.3,34.4
Central Conn,62.3,65.0,75.0,77.0,57.4,34.1,38.5,40.0,32.5,34.8
Charl South,62.3,63.3,75.0,65.5,61.2,33.7,36.3,48.0,38.9,31.9
Morgan St,62.1,58.3,60.0,--,62.1,26.0,17.1,15.0,--,26.0
San Diego,62.1,54.7,69.0,58.3,64.7,27.5,27.4,21.7,34.8,23.2
Mt St Marys,62.1,72.3,74.0,63.0,61.6,25.5,29.0,40.5,26.2,25.1
Neb Omaha,62.0,71.3,71.0,72.3,55.2,38.2,36.4,50.7,33.2,42.6
Presbyterian,62.0,63.7,49.0,65.3,60.8,26.8,25.1,6.1,24.5,27.8
NW State,62.0,59.3,49.0,66.0,60.9,26.9,25.3,24.5,29.5,26.1
Chicago St,61.7,63.7,61.0,66.6,57.7,39.3,34.6,49.2,32.4,46.0
Old Dominion,61.5,66.7,66.0,69.0,58.3,18.5,16.5,4.5,13.0,21.3
Miss Val St,61.4,76.7,73.0,78.5,56.6,28.8,26.1,32.9,22.9,31.1
Lamar,61.2,49.0,53.0,59.0,61.4,31.9,20.4,28.3,40.7,30.9
Sac State,61.1,61.0,66.0,60.0,62.0,26.6,31.1,22.7,25.0,27.8
Evansville,61.1,61.3,73.0,57.5,63.1,42.0,42.4,45.2,40.4,42.8
Portland St,60.7,64.3,66.0,56.0,62.6,25.4,26.4,22.7,18.8,27.8
Jacksonville,60.7,65.7,62.0,70.0,57.0,30.4,36.5,38.7,32.1,29.5
Stetson,60.6,59.0,67.0,56.7,63.0,34.6,23.7,31.3,42.4,30.5
Butler,60.6,60.0,48.0,65.8,54.0,38.0,28.3,25.0,40.1,34.7
VCU,60.5,69.0,66.0,58.7,62.8,24.3,20.3,18.2,20.5,28.7
N Florida,60.5,62.3,91.0,91.0,57.1,41.2,40.1,49.5,49.5,39.7
Pittsburgh,60.4,60.7,59.0,61.3,58.0,20.3,16.5,20.3,18.4,25.9
Holy Cross,60.3,61.0,59.0,57.0,61.3,27.6,27.9,20.3,28.9,27.3
Grambling St,60.2,60.7,61.0,--,60.2,27.7,23.1,19.7,--,27.7
Cal Poly,60.2,62.0,48.0,57.0,61.0,26.4,30.6,43.8,21.1,27.7
Alcorn State,60.2,56.7,62.0,--,60.2,25.9,31.8,38.7,--,25.9
F Dickinson,59.8,52.7,49.0,54.0,60.4,30.1,20.9,36.7,11.1,32.0
UC Riverside,59.8,61.7,70.0,65.0,58.0,35.8,30.8,38.6,43.8,32.8
N Alabama,59.7,57.3,44.0,64.0,58.0,35.2,34.9,40.9,32.8,36.2
Ark Pine Bl,59.4,52.7,31.0,73.0,58.0,36.8,28.5,48.4,28.8,37.8
WI-Grn Bay,59.3,59.0,64.0,68.3,54.8,27.0,18.6,18.8,27.8,26.4
S Mississippi,58.8,52.3,65.0,59.3,58.6,24.0,38.2,32.3,28.7,22.0
Wm & Mary,58.6,53.0,47.0,55.3,60.6,33.5,39.6,38.3,33.9,33.3
TX-Arlington,57.9,62.7,62.0,63.5,56.0,22.7,25.5,24.2,28.3,20.5
Albany,57.8,59.7,58.0,56.3,58.4,28.8,31.8,25.9,24.9,30.2
Beth-Cook,57.8,54.3,48.0,51.0,58.6,23.1,22.1,12.5,35.3,21.7
Delaware St,57.6,58.0,53.0,57.3,57.8,26.7,31.0,17.0,19.2,31.1
Radford,57.6,60.7,54.0,77.5,52.6,35.9,46.2,44.4,34.8,36.3
Cal St Nrdge,57.1,57.0,69.0,65.0,50.8,23.3,19.3,26.1,25.4,21.3
Jackson St,57.1,52.7,65.0,--,57.1,32.0,34.2,23.1,--,32.0
Florida A&M,56.9,60.7,66.0,55.0,57.1,17.1,19.8,18.2,5.5,18.8
S Florida,56.7,59.7,55.0,58.0,52.0,22.9,13.4,10.9,24.4,17.3
Tarleton State,56.6,61.3,65.0,61.0,55.3,23.0,21.2,27.7,22.1,23.3
N Illinois,56.3,55.3,70.0,55.0,56.5,33.7,27.1,30.0,27.3,34.5
Hampton,56.2,55.3,54.0,58.0,56.0,29.1,21.7,16.7,36.2,28.1
Idaho State,56.0,57.0,46.0,61.0,53.0,32.8,24.6,26.1,24.6,38.5
CS Bakersfld,55.3,54.7,46.0,59.0,54.6,19.0,14.6,13.0,10.2,20.9
Alab A&M,54.8,50.0,43.0,82.0,51.4,23.7,26.0,41.9,25.6,23.4
Houston Bap,54.7,60.0,73.0,70.0,47.0,23.8,18.3,12.3,19.3,27.1
Merrimack,54.3,53.3,49.0,60.8,50.6,37.7,41.3,67.3,32.1,41.5
E Illinois,51.7,50.7,54.0,57.5,50.3,34.8,33.6,27.8,28.7,36.6
Maine,50.2,50.7,47.0,56.0,49.0,24.9,27.6,31.9,10.7,28.2
IUPUI,48.8,48.0,55.0,48.3,49.0,32.1,25.0,38.2,31.0,32.7
