Team,2021_ppg,Last3_ppg,Last1_ppg,Home_ppg,Away_ppg,2021_3ptpct,Last3_3ptpct,Last1_3ptpct,Home_3ptpct,Away_3ptpct
Arizona,91.7,92.7,101.0,97.0,83.8,27.8,28.1,23.8,30.9,22.4
Purdue,87.4,75.7,82.0,91.8,80.8,33.0,26.4,18.3,34.8,29.7
Kansas,86.4,91.7,102.0,89.0,84.4,27.0,31.6,41.2,32.9,22.0
Iowa,86.4,68.7,53.0,95.1,66.0,31.3,26.2,28.3,31.5,30.3
Duke,86.0,87.0,92.0,90.1,76.3,31.4,39.1,48.9,37.1,15.7
Gonzaga,85.6,75.3,80.0,83.8,88.3,25.6,23.9,18.8,23.9,28.0
Alabama,85.2,84.0,78.0,87.8,82.6,34.9,35.7,38.5,34.2,35.6
St Johns,85.2,84.3,82.0,86.4,74.0,28.2,24.9,36.6,27.4,36.5
S Dakota St,84.0,74.7,63.0,90.3,81.6,33.8,29.5,19.0,34.3,33.5
Colorado St,82.9,75.3,66.0,89.6,74.5,34.2,37.2,50.0,30.1,40.3
Auburn,82.8,85.0,70.0,82.2,83.4,35.5,41.2,38.6,36.5,34.5
Connecticut,81.8,71.7,74.0,88.0,74.4,28.3,29.3,32.4,28.4,28.2
Arkansas,81.6,81.7,66.0,86.4,70.3,21.3,19.6,31.8,22.3,18.5
DePaul,81.6,73.7,72.0,85.3,67.0,24.6,25.8,12.5,25.5,20.1
Cornell,81.5,80.3,60.0,87.7,77.8,38.2,44.8,40.0,44.5,33.9
UCLA,81.1,71.0,67.0,90.4,69.5,31.2,33.8,40.3,32.5,29.1
Texas Tech,81.1,66.7,75.0,86.8,69.7,28.8,27.0,28.0,28.8,28.7
Wake Forest,81.1,78.7,77.0,83.9,73.7,31.6,29.2,27.3,33.5,25.8
Baylor,81.0,77.0,57.0,85.0,73.0,30.5,33.8,31.6,31.8,27.4
New Mexico,80.6,77.3,69.0,83.0,77.0,28.3,22.0,17.4,27.7,29.2
N Carolina,80.4,77.7,74.0,79.2,82.3,31.0,28.3,20.3,27.8,35.6
Kentucky,80.3,74.3,62.0,84.3,66.5,21.6,20.2,9.7,21.9,20.3
W Illinois,80.3,90.3,97.0,84.3,77.8,43.9,44.3,52.6,45.1,43.2
Col Charlestn,80.0,74.3,59.0,85.5,73.4,33.4,28.3,20.3,34.5,31.9
Houston,80.0,76.7,71.0,83.9,73.3,32.0,23.5,8.5,32.7,30.7
U Mass,79.8,73.3,57.0,84.4,76.0,43.1,45.0,31.6,39.1,46.7
Buffalo,79.7,82.7,77.0,87.0,78.5,34.9,38.7,50.6,44.8,33.1
Illinois St,79.7,71.7,81.0,74.4,86.3,34.3,41.9,48.1,32.3,36.5
LA Tech,79.6,81.0,78.0,82.8,76.5,29.2,25.9,15.4,29.9,28.4
Marshall,79.6,72.3,65.0,81.2,77.5,23.9,27.6,41.5,20.0,29.0
LSU,79.4,74.7,89.0,83.1,70.7,24.6,17.4,20.2,27.3,17.0
Princeton,79.4,85.0,89.0,84.2,75.3,40.9,41.2,33.7,37.1,44.5
Rice,79.0,80.7,85.0,79.3,78.8,41.4,48.3,42.4,40.7,41.9
Saint Louis,78.8,70.0,79.0,77.8,80.3,24.7,32.9,41.8,25.7,23.4
UAB,78.8,75.3,79.0,84.4,71.8,27.5,23.9,26.6,27.0,28.2
Utah State,78.5,82.7,95.0,72.3,82.7,37.5,46.0,47.4,37.4,37.5
Tennessee,78.5,74.7,96.0,87.0,65.8,37.1,40.2,34.4,40.8,29.7
Indiana,78.3,69.3,81.0,76.8,84.5,27.2,26.0,18.5,26.9,28.4
Nevada,78.3,82.7,79.0,79.3,77.6,30.7,32.7,34.2,25.2,34.0
Furman,78.2,71.3,61.0,77.8,78.5,40.3,46.3,49.2,34.7,43.9
S Methodist,78.2,81.3,77.0,81.5,69.3,35.2,32.0,31.2,35.0,36.1
Loyola-Chi,78.0,75.0,69.0,90.4,65.6,40.4,42.7,73.9,37.8,43.9
Illinois,78.0,84.0,79.0,84.0,69.0,36.9,46.4,60.8,36.3,38.0
Missouri St,77.8,75.0,75.0,76.8,78.7,34.3,40.0,40.0,26.6,40.7
Northwestern,77.8,70.0,70.0,82.0,72.5,30.9,25.7,21.4,30.7,31.0
Memphis,77.7,75.7,92.0,84.5,67.5,25.5,23.8,26.1,27.2,22.2
Belmont,77.7,75.0,76.0,86.5,73.3,35.1,32.0,31.6,39.9,32.3
San Fransco,77.6,72.3,71.0,80.3,67.0,41.0,40.1,33.8,40.2,44.8
NC State,77.6,68.3,72.0,79.6,73.0,27.4,33.7,33.3,25.3,32.9
Syracuse,77.5,63.7,75.0,92.3,67.7,32.1,34.6,32.0,33.3,31.0
Georgetown,77.4,88.0,85.0,82.4,65.7,34.1,35.2,24.7,35.4,30.5
Wash State,77.3,76.3,61.0,77.0,78.0,34.2,41.9,49.2,34.6,33.3
USC,76.7,73.0,66.0,83.2,69.0,24.2,30.1,13.6,28.3,18.3
Xavier,76.7,88.3,86.0,79.8,68.7,32.7,31.7,38.4,34.3,27.7
Wyoming,76.6,72.7,74.0,80.0,72.3,29.2,35.8,44.6,30.0,28.0
Clemson,76.5,84.7,89.0,82.6,71.3,36.0,39.0,43.8,37.8,34.3
Iona,76.5,83.0,91.0,79.3,74.9,28.9,32.5,33.0,21.8,33.2
Seton Hall,76.4,75.3,77.0,80.5,68.3,27.9,22.6,19.5,28.6,26.3
Citadel,76.3,76.3,80.0,80.0,75.6,40.0,31.4,41.3,41.3,39.7
Oklahoma St,76.3,73.3,98.0,75.9,77.3,21.6,30.0,27.6,26.6,10.3
Murray St,76.3,80.3,74.0,85.5,72.6,29.8,31.1,56.8,22.8,33.1
Hofstra,76.2,77.0,62.0,89.0,69.8,40.7,35.1,24.2,39.3,41.5
St Fran (PA),76.0,76.3,81.0,93.0,73.6,21.2,17.0,25.9,38.7,18.1
Abl Christian,76.0,80.0,69.0,80.0,72.0,30.3,31.3,21.7,31.3,29.2
E Kentucky,75.9,72.3,69.0,76.5,75.4,46.6,45.6,21.7,40.2,51.7
Santa Clara,75.8,69.3,60.0,81.5,64.3,29.4,28.8,40.0,26.2,37.4
Ohio State,75.7,78.0,73.0,78.2,72.0,34.1,35.9,24.7,32.0,37.5
Longwood,75.6,84.7,93.0,77.6,72.3,35.7,36.6,35.5,34.8,37.3
Oklahoma,75.5,74.7,88.0,73.2,77.8,33.0,34.8,44.3,31.1,34.7
Fla Atlantic,75.4,68.3,46.0,77.3,69.0,34.5,32.2,32.6,36.0,28.3
Nebraska,75.4,63.3,68.0,75.8,74.3,26.1,26.8,30.9,25.2,28.3
Weber State,75.3,73.3,80.0,75.7,75.2,29.6,31.4,33.8,29.1,29.9
Howard,75.3,77.7,73.0,78.5,74.2,32.9,29.6,45.2,22.9,36.4
Davidson,75.2,74.7,79.0,83.7,71.0,38.1,41.5,49.4,34.7,40.1
Montana St,75.2,69.3,72.0,68.0,76.0,35.5,30.3,29.2,30.9,36.0
Winthrop,75.1,70.0,61.0,85.0,70.2,38.2,30.0,34.4,38.8,37.8
Miami (OH),75.0,67.3,76.0,80.7,70.8,34.3,34.2,43.4,39.7,29.7
S Utah,75.0,76.7,60.0,60.0,77.1,31.0,30.0,25.0,25.0,31.7
Fla Gulf Cst,75.0,77.3,85.0,76.3,73.0,42.8,41.4,49.4,39.3,48.3
Maryland BC,74.8,66.3,51.0,82.3,71.6,37.3,36.2,41.2,42.5,34.7
Seattle,74.7,70.3,73.0,78.8,58.5,41.8,42.7,32.9,41.0,46.2
Utah,74.6,74.7,96.0,78.5,68.8,30.2,28.1,31.3,31.2,28.4
St. Thomas (MN),74.6,64.3,65.0,65.0,75.8,50.5,48.2,32.3,32.3,52.5
Richmond,74.5,68.3,72.0,79.3,71.3,41.1,43.9,54.2,45.4,37.9
E Washingtn,74.4,75.0,76.0,76.0,74.3,37.2,34.7,35.5,43.4,36.4
Ball State,74.3,75.7,50.0,85.0,70.7,38.9,35.7,42.0,45.9,36.1
Bowling Grn,74.3,75.3,73.0,77.3,72.4,31.8,33.2,37.0,36.2,29.0
Drake,74.1,76.0,70.0,77.8,70.4,32.4,34.2,17.1,31.6,33.2
Florida St,74.1,74.0,97.0,80.4,67.8,30.8,32.4,43.3,27.6,34.5
W Kentucky,74.0,74.3,71.0,80.0,66.5,27.9,22.9,29.6,26.3,30.5
Michigan St,74.0,78.7,80.0,81.4,67.8,29.5,39.4,33.8,28.7,30.2
Colgate,74.0,73.7,64.0,71.0,75.3,45.0,50.2,60.9,46.5,44.4
TX A&M-CC,74.0,77.7,71.0,75.0,73.9,20.8,25.8,25.4,28.0,19.7
Delaware,74.0,65.7,68.0,74.5,73.7,29.9,35.0,26.5,29.2,30.2
Villanova,74.0,61.3,36.0,90.7,66.9,45.8,52.2,50.0,47.4,44.9
E Carolina,73.9,69.0,82.0,75.0,71.3,35.3,46.4,40.2,36.0,33.6
St Bonavent,73.8,72.0,64.0,78.2,67.3,26.4,25.0,23.4,25.6,27.9
BYU,73.8,75.7,71.0,74.5,73.2,28.9,38.3,50.7,28.2,29.5
Oral Roberts,73.8,72.0,71.0,78.3,71.0,49.3,45.8,59.2,58.7,43.1
Harvard,73.7,70.3,77.0,74.3,73.3,40.1,44.1,42.9,48.4,33.8
Miss State,73.7,72.7,79.0,76.3,67.7,26.9,28.9,19.0,29.8,19.2
Bucknell,73.6,68.3,69.0,71.3,74.6,35.5,35.1,30.4,40.7,33.3
Florida,73.5,69.0,68.0,74.8,71.5,31.4,30.4,48.5,33.4,28.3
W Carolina,73.5,74.7,72.0,75.0,72.9,45.3,36.2,25.0,38.7,48.2
Youngs St,73.4,79.0,71.0,70.6,77.0,30.0,31.6,21.1,28.0,32.1
Central FL,73.4,76.3,65.0,71.6,75.8,33.6,32.8,23.1,36.9,29.7
Middle Tenn,73.2,74.3,52.0,73.3,73.2,31.0,33.6,17.3,30.0,31.4
Texas,73.2,70.3,63.0,75.0,67.0,28.7,24.2,28.6,30.3,22.4
Hawaii,73.2,71.7,58.0,75.5,71.7,27.9,30.7,31.0,23.8,30.7
Fairfield,73.2,72.0,72.0,75.7,72.1,31.1,22.2,20.8,26.4,33.3
Toledo,73.1,68.0,69.0,74.0,72.9,26.4,27.9,43.5,24.3,27.1
E Michigan,73.1,75.3,92.0,81.8,66.2,26.9,19.9,26.1,22.0,31.7
Miami (FL),73.1,76.0,72.0,81.6,66.0,24.6,28.9,20.8,27.9,21.2
Towson,73.1,79.0,74.0,74.2,72.3,33.2,48.1,40.5,24.3,39.7
Fordham,73.1,69.3,66.0,75.0,71.7,31.8,37.5,36.4,32.0,31.7
VA Military,73.0,74.3,70.0,64.0,74.1,45.7,43.0,55.7,32.8,47.0
Marquette,73.0,65.3,56.0,74.8,70.8,34.4,42.9,42.9,27.4,43.2
Stony Brook,73.0,84.0,87.0,76.0,68.5,39.0,42.9,48.3,39.5,38.3
UCSB,72.9,72.0,71.0,78.8,65.0,21.8,23.6,29.6,23.8,18.5
Cleveland St,72.9,83.3,93.0,71.6,76.0,22.9,22.8,29.0,21.8,25.7
Grd Canyon,72.8,75.7,62.0,76.0,66.3,35.3,37.0,38.7,38.8,27.1
Ste F Austin,72.7,68.0,69.0,75.7,70.5,23.0,32.4,30.4,26.4,20.2
Chattanooga,72.7,77.0,68.0,70.0,74.0,30.3,33.8,30.9,31.4,29.7
Portland,72.6,77.0,71.0,76.4,69.5,33.8,51.9,46.5,36.9,30.9
Washington,72.6,74.3,74.0,71.0,75.3,28.4,40.4,44.6,25.4,33.2
Geo Mason,72.6,65.7,71.0,74.4,70.8,39.7,32.0,29.6,37.9,41.5
Drexel,72.6,70.3,76.0,81.0,70.1,29.4,32.7,39.5,29.6,29.3
Monmouth,72.5,69.3,69.0,80.5,70.8,26.7,27.4,17.4,33.5,25.0
N Colorado,72.5,76.0,76.0,76.3,70.9,40.6,36.8,43.4,32.8,44.2
Dixie State,72.4,74.3,82.0,78.3,68.0,32.0,39.0,58.5,37.0,27.6
LA Monroe,72.4,77.7,82.0,90.0,65.4,26.6,33.5,40.2,21.7,29.4
N Mex State,72.3,68.3,64.0,77.7,70.0,29.5,13.2,23.4,30.9,28.8
Texas State,72.3,72.7,67.0,69.0,73.3,23.9,22.0,31.3,30.4,21.8
Utah Val St,72.2,63.3,62.0,74.5,71.6,22.2,30.0,43.5,14.1,24.6
Tulane,72.1,78.0,72.0,74.3,70.4,31.0,30.8,29.2,32.3,29.8
Iowa State,72.1,61.3,47.0,71.0,74.7,30.0,32.6,31.9,29.6,30.8
Michigan,72.1,79.7,65.0,71.0,73.2,27.5,36.4,13.8,24.5,30.3
SE Missouri,72.0,65.0,55.0,71.3,72.3,31.0,30.8,43.6,28.0,32.5
Colorado,72.0,59.7,65.0,75.7,65.5,20.8,18.4,13.8,23.2,16.0
Stanford,72.0,79.0,89.0,75.3,65.3,29.6,30.4,20.2,28.5,32.1
Minnesota,72.0,73.7,79.0,70.0,74.0,32.5,31.2,41.8,31.7,33.2
Creighton,71.9,66.0,57.0,67.7,77.0,25.4,28.8,26.3,22.9,28.1
Mercer,71.9,78.0,77.0,80.0,69.6,38.0,37.2,39.0,33.8,39.4
Wofford,71.8,75.0,59.0,74.8,69.4,35.3,36.0,66.1,35.1,35.4
TX Christian,71.7,71.7,68.0,72.4,70.8,22.3,19.5,13.2,24.9,19.1
Quinnipiac,71.7,78.3,73.0,69.0,75.0,37.2,38.3,41.1,35.7,39.0
Yale,71.6,69.3,60.0,77.0,67.7,36.3,41.8,40.0,36.6,36.1
Indiana St,71.6,71.7,70.0,69.0,71.9,33.5,39.1,34.3,34.8,33.4
Texas A&M,71.2,74.0,64.0,77.8,63.0,30.9,29.7,28.1,31.6,29.8
Rhode Island,71.2,68.7,82.0,75.4,67.7,24.5,20.4,25.6,26.3,22.9
Georgia St,71.1,62.0,50.0,83.0,69.2,38.0,43.5,36.0,43.4,36.9
TX-Pan Am,71.1,62.3,60.0,68.5,71.9,27.7,32.1,35.0,35.0,25.6
Kansas St,71.0,70.0,82.0,74.3,64.3,32.4,32.9,40.2,36.3,23.3
Providence,70.9,67.3,68.0,75.0,60.0,28.8,28.2,26.5,25.0,41.7
Lipscomb,70.8,61.3,60.0,64.5,72.4,34.3,44.0,55.0,30.2,35.2
St Josephs,70.8,66.0,68.0,74.9,61.3,38.1,40.9,35.3,37.8,39.1
Dayton,70.7,70.0,62.0,70.9,70.5,27.8,30.0,33.9,26.0,30.9
Louisville,70.7,71.3,86.0,72.5,68.0,32.7,35.0,24.4,31.7,34.2
Oregon,70.7,77.3,96.0,81.7,54.3,28.9,24.6,25.0,31.2,23.5
GA Tech,70.7,60.3,53.0,68.5,88.0,27.8,24.9,17.0,27.9,27.3
Arkansas St,70.6,76.0,62.0,70.7,70.6,25.0,25.0,43.5,24.1,25.5
Florida Intl,70.6,73.0,59.0,74.5,68.0,40.4,41.1,50.8,38.3,41.9
S Alabama,70.6,76.0,69.0,77.0,68.0,24.9,25.0,30.4,31.2,22.1
La Salle,70.6,80.3,76.0,75.0,61.7,35.4,37.3,39.5,37.3,30.8
Ohio,70.6,69.3,75.0,80.6,58.0,38.3,30.3,28.0,32.8,47.8
Cal Baptist,70.5,69.0,54.0,77.7,49.0,26.6,24.6,11.1,29.6,12.2
Wright State,70.5,69.7,48.0,48.0,73.7,21.8,21.5,18.8,18.8,22.1
Cincinnati,70.5,71.0,77.0,73.6,65.0,29.0,26.8,27.3,26.2,34.6
S Carolina,70.3,67.3,66.0,74.8,64.8,27.5,22.3,18.2,27.3,27.8
Samford,70.3,66.3,52.0,62.5,73.4,39.0,39.2,40.4,45.6,36.8
VA Tech,70.3,70.3,57.0,76.3,63.0,36.9,37.0,31.6,37.3,36.2
IPFW,70.2,69.3,78.0,71.8,69.0,33.2,31.7,34.6,32.4,33.9
Charlotte,70.0,73.3,68.0,72.0,68.4,33.3,32.7,48.5,30.2,36.0
UC Davis,70.0,65.7,71.0,73.5,68.3,25.7,28.9,16.9,34.7,20.9
Marist,70.0,68.0,61.0,70.0,70.0,31.9,32.4,34.4,31.4,32.1
Oakland,69.9,77.0,72.0,80.0,68.8,27.0,27.3,37.5,26.3,27.1
Lg Beach St,69.9,61.0,62.0,76.0,68.1,21.9,24.6,24.2,31.6,18.9
W Virginia,69.8,62.0,63.0,67.7,74.7,25.8,27.4,28.6,26.6,24.1
Mississippi,69.6,59.0,62.0,75.3,61.0,29.7,33.9,24.2,31.9,25.8
Duquesne,69.5,67.3,64.0,69.5,69.4,29.8,31.2,32.8,29.5,30.3
Vanderbilt,69.4,66.0,58.0,69.3,70.0,33.1,27.3,15.5,29.7,45.0
Sacred Hrt,69.4,69.0,79.0,60.5,71.6,36.3,40.6,30.4,27.3,38.2
Idaho,69.3,77.0,58.0,80.8,60.2,36.5,39.0,46.6,39.9,32.9
Norfolk St,69.3,63.0,58.0,91.0,66.6,20.7,27.0,41.4,23.1,20.3
S Car State,69.3,64.7,62.0,78.5,67.0,28.6,35.6,19.4,28.7,28.5
New Orleans,69.2,60.7,50.0,78.3,62.0,19.7,18.1,24.0,19.2,20.3
Tulsa,69.2,69.0,83.0,69.7,68.3,30.4,27.5,32.5,29.5,31.9
Brown,69.1,73.3,65.0,69.5,68.9,32.0,36.8,32.3,33.5,31.1
U Penn,69.1,72.3,74.0,70.5,68.8,42.4,40.1,56.8,51.1,40.8
TN State,69.0,73.7,78.0,75.0,67.3,33.3,33.9,42.3,26.0,35.7
Boise State,68.7,81.0,72.0,71.5,65.4,30.6,27.2,20.8,28.0,33.9
Maryland,68.7,63.0,70.0,68.0,70.3,27.1,30.2,34.3,25.2,31.3
TN Martin,68.7,72.7,79.0,77.0,64.5,30.6,23.4,19.0,29.9,31.0
Wisconsin,68.6,63.3,71.0,72.5,64.0,29.4,26.8,25.4,28.3,30.9
Troy,68.6,69.7,66.0,67.7,69.0,28.2,28.7,31.8,26.6,29.0
Loyola Mymt,68.6,65.0,58.0,71.8,64.5,30.6,33.8,31.0,28.4,33.7
High Point,68.4,73.0,66.0,69.7,67.5,28.2,27.4,22.7,24.4,31.1
LA Lafayette,68.4,69.3,56.0,77.7,62.8,34.0,40.4,53.6,29.6,37.3
Kennesaw St,68.3,74.0,62.0,79.3,60.0,31.4,35.1,43.5,30.3,32.5
Manhattan,68.1,70.7,62.0,72.3,65.6,19.3,21.2,24.2,16.6,21.0
Georgia,68.1,72.0,69.0,71.3,61.7,25.0,25.0,21.7,25.2,24.3
James Mad,68.1,66.7,79.0,64.0,71.4,28.4,31.5,26.6,31.6,26.1
Hartford,68.1,70.7,66.0,68.0,68.1,37.9,35.4,36.4,33.1,39.1
UNLV,68.1,85.0,84.0,69.9,65.0,34.4,35.3,28.6,31.9,39.2
CS Fullerton,68.0,62.7,56.0,68.7,67.7,21.1,30.3,37.5,23.3,20.0
Loyola-MD,68.0,66.3,67.0,68.7,67.7,34.0,36.2,35.8,30.6,35.4
San Jose St,67.8,74.3,78.0,73.6,60.5,41.3,40.4,46.2,45.7,34.7
Alabama St,67.7,60.0,62.0,71.0,66.3,24.4,21.7,19.4,16.9,27.8
Jksnville St,67.7,60.7,66.0,66.7,68.2,38.9,29.7,18.2,39.0,38.9
Nicholls St,67.6,75.3,68.0,--,67.6,34.2,31.9,22.1,--,34.2
South Dakota,67.6,74.3,78.0,77.0,60.0,29.6,26.9,30.8,22.4,37.0
Bradley,67.6,72.0,65.0,71.5,64.4,35.0,37.5,36.9,36.7,33.5
American,67.5,70.3,72.0,80.0,64.8,26.6,25.6,20.8,28.1,26.2
SE Louisiana,67.5,66.0,60.0,--,67.5,31.1,24.2,30.0,--,31.1
N Iowa,67.4,62.3,66.0,58.3,79.7,39.4,33.7,36.4,25.8,52.7
W Michigan,67.4,68.3,64.0,60.0,68.7,38.8,38.0,42.2,30.0,40.0
Wichita St,67.4,70.7,82.0,66.8,68.3,33.4,25.5,22.0,29.2,39.6
St Marys,67.4,66.0,80.0,74.0,59.4,32.8,28.8,30.0,34.5,30.3
Penn State,67.3,67.3,64.0,71.7,60.8,35.7,29.7,23.4,32.8,40.7
Boston Col,67.3,66.0,57.0,71.0,60.8,23.9,21.2,26.3,24.1,23.5
Pepperdine,67.2,78.3,79.0,71.3,63.0,31.6,29.4,38.0,28.7,34.9
N Hampshire,67.1,62.7,62.0,75.5,63.8,39.6,44.7,43.5,29.8,44.2
Coastal Car,67.1,67.7,60.0,70.8,62.3,25.5,29.6,20.0,26.5,24.1
Gard-Webb,67.0,67.3,71.0,77.8,58.4,34.8,32.7,42.3,39.5,29.8
Lafayette,67.0,72.3,73.0,77.8,59.8,44.3,41.5,16.4,42.4,46.0
Southern,67.0,66.0,72.0,72.0,66.4,29.9,21.2,16.7,16.7,31.6
SIU Edward,67.0,65.0,60.0,70.0,66.3,22.4,16.9,15.0,19.3,23.2
Bryant,66.9,70.7,78.0,68.5,66.5,37.2,31.1,34.6,35.0,37.8
Valparaiso,66.9,68.0,67.0,66.0,67.3,34.4,30.9,40.3,30.3,36.4
TX-San Ant,66.9,76.0,78.0,68.8,64.3,32.1,28.9,38.5,28.4,37.3
N Kentucky,66.9,63.3,75.0,71.3,61.0,39.7,41.1,36.0,36.8,44.3
Boston U,66.8,68.3,65.0,67.0,66.8,33.1,32.2,36.9,31.3,33.7
N Arizona,66.8,62.7,71.0,70.0,65.2,33.9,38.3,46.5,38.6,31.5
UC San Diego,66.5,63.3,56.0,79.0,62.3,34.4,39.5,42.9,43.7,30.5
Pacific,66.4,67.7,80.0,73.0,61.2,27.1,25.1,26.3,31.8,22.5
Rob Morris,66.4,67.0,74.0,72.0,64.5,31.1,38.8,36.5,29.2,31.8
Dartmouth,66.4,69.7,78.0,65.5,66.7,45.2,38.8,38.5,38.9,47.3
TX El Paso,66.4,70.3,82.0,64.5,68.3,28.8,28.4,43.9,32.6,25.3
NC-Asheville,66.3,71.3,68.0,73.3,62.8,33.7,42.1,39.7,28.6,36.6
Army,66.3,63.7,66.0,73.0,59.5,30.6,25.1,22.7,30.8,30.3
TN Tech,66.2,64.0,72.0,75.0,61.8,23.7,23.4,20.8,25.3,22.6
California,66.2,67.3,72.0,71.3,57.3,23.9,19.3,16.7,26.5,18.3
Akron,66.1,72.7,66.0,80.0,57.8,34.6,39.9,40.9,33.8,35.3
Prairie View,66.1,76.7,60.0,--,66.1,23.7,23.5,10.0,--,23.7
Columbia,66.1,63.0,69.0,69.6,63.2,29.7,31.7,34.8,29.3,30.1
Temple,66.0,56.3,48.0,70.0,61.2,24.0,19.5,18.8,23.6,24.5
Mass Lowell,66.0,62.0,62.0,63.0,66.4,26.7,24.2,43.5,19.0,27.7
Wagner,66.0,65.0,54.0,77.0,63.3,21.8,21.5,11.1,27.3,20.2
Detroit,65.9,66.3,83.0,83.0,64.0,42.8,42.2,54.2,54.2,41.1
IL-Chicago,65.9,64.3,66.0,66.3,65.7,37.4,29.5,22.7,31.7,40.4
Rutgers,65.8,61.3,63.0,65.2,66.8,23.7,29.3,19.0,21.5,27.0
Montana,65.8,68.7,66.0,69.8,62.6,29.4,21.8,13.6,28.0,30.7
Canisius,65.7,56.7,43.0,71.0,62.2,35.2,28.2,34.9,35.9,34.6
Notre Dame,65.6,65.0,66.0,68.0,63.8,34.0,35.4,31.8,35.3,32.9
E Tenn St,65.6,68.3,67.0,68.3,64.2,41.2,42.4,40.3,41.0,41.3
Fresno St,65.4,62.3,63.0,68.0,62.3,23.9,22.5,28.6,23.8,24.1
Coppin State,65.3,68.7,69.0,73.0,64.2,38.3,43.7,39.1,47.3,36.7
Elon,65.3,67.7,63.0,73.7,61.2,40.3,39.9,33.3,46.2,36.8
Austin Peay,65.3,62.0,51.0,--,65.3,40.7,40.3,41.2,--,40.7
Denver,65.1,64.3,64.0,69.0,64.2,31.0,28.0,14.1,15.2,34.8
Geo Wshgtn,65.1,73.7,67.0,65.4,64.9,27.7,31.2,17.9,28.4,27.1
GA Southern,65.0,62.7,69.0,82.0,62.6,27.1,27.1,34.8,25.6,27.4
Oregon St,65.0,63.3,64.0,71.8,58.2,22.6,20.5,23.4,22.6,22.7
NJIT,64.9,63.7,52.0,60.0,68.8,34.4,37.7,63.5,23.8,41.9
Morehead St,64.9,69.7,63.0,65.0,64.9,36.5,37.3,23.8,46.2,33.7
NC Central,64.9,68.3,72.0,--,64.9,22.1,19.0,16.7,--,22.1
Rider,64.8,57.3,67.0,70.3,62.8,23.6,19.2,35.8,34.1,19.1
Lehigh,64.8,71.7,75.0,69.5,61.0,29.3,39.1,48.0,36.7,22.6
Binghamton,64.6,57.0,51.0,60.0,66.4,32.5,29.8,41.2,32.5,32.5
Navy,64.6,69.0,67.0,66.0,64.1,28.4,34.8,40.3,22.7,30.1
Northeastrn,64.5,75.0,69.0,68.0,61.7,30.8,33.3,43.5,30.0,31.6
NC A&T,64.5,69.3,69.0,--,64.5,33.0,24.5,13.0,--,33.0
Maryland ES,64.4,68.3,81.0,--,64.4,34.6,33.7,22.2,--,34.6
Siena,64.4,68.0,72.0,65.3,63.8,36.8,33.8,33.3,36.8,36.8
S Illinois,64.4,70.3,80.0,70.3,60.5,37.3,51.2,45.0,33.1,40.5
North Dakota,64.4,60.7,60.0,66.3,63.6,36.8,39.6,60.0,43.7,33.7
Incar Word,64.3,64.0,55.0,67.4,60.5,34.7,28.1,27.3,33.8,36.0
Liberty,64.1,71.0,51.0,78.3,55.6,45.0,56.3,47.1,51.1,39.9
App State,64.1,67.0,67.0,68.0,62.2,35.9,31.3,35.8,38.2,34.6
Niagara,64.1,59.3,58.0,60.0,65.3,29.6,23.6,25.9,22.5,31.5
Arizona St,64.1,64.7,58.0,61.8,66.0,31.1,23.2,20.7,26.2,34.8
LIU,64.0,62.3,57.0,99.0,59.0,34.6,28.9,31.6,42.4,32.7
McNeese St,63.9,66.0,72.0,--,63.9,27.7,30.3,29.2,--,27.7
St Peters,63.7,62.3,60.0,60.7,66.0,25.6,19.3,10.0,16.5,31.8
Missouri,63.7,60.7,65.0,65.0,62.0,22.0,16.5,23.1,17.5,27.8
AR Lit Rock,63.6,62.7,55.0,62.0,64.2,24.2,33.5,54.5,29.0,22.6
Vermont,63.5,70.3,70.0,72.0,61.4,30.7,29.9,34.3,25.0,32.4
Central Mich,63.5,71.3,67.0,68.5,62.3,38.3,35.0,17.9,32.8,39.8
San Diego St,63.4,65.3,66.0,67.4,58.5,25.2,32.1,36.4,25.8,24.4
Campbell,63.4,62.3,66.0,66.0,62.4,32.4,35.3,40.9,38.6,29.8
Sam Hous St,63.4,61.7,55.0,55.0,64.6,42.0,40.5,10.9,43.6,41.8
St Fran (NY),63.3,67.0,75.0,64.0,63.1,31.3,34.3,44.0,32.8,30.9
Presbyterian,63.3,62.0,76.0,73.5,60.8,28.4,35.5,15.8,30.6,27.8
Central Ark,63.2,69.3,82.0,70.0,62.4,29.0,30.3,25.6,30.0,28.9
SC Upstate,63.2,59.3,52.0,71.7,59.0,34.3,37.1,34.6,37.7,32.2
Air Force,63.0,61.0,48.0,65.5,61.0,38.1,41.0,43.8,37.8,38.4
UMKC,63.0,58.3,56.0,64.0,62.9,32.1,29.1,32.1,32.8,32.0
NC-Grnsboro,63.0,54.0,62.0,60.0,64.7,29.9,29.6,33.9,36.3,26.5
WI-Milwkee,62.9,63.0,58.0,66.2,59.6,32.9,41.3,25.9,30.8,35.2
TX Southern,62.9,66.3,70.0,--,62.9,19.1,19.6,21.4,--,19.1
North Texas,62.9,62.7,65.0,65.0,61.3,35.5,28.7,23.1,33.8,36.7
UC Irvine,62.7,61.7,61.0,70.0,59.0,27.9,27.6,19.7,30.0,26.7
Kent State,62.6,59.0,50.0,63.5,62.2,33.6,32.2,24.0,35.4,32.8
Morgan St,62.4,58.0,55.0,--,62.4,27.5,19.0,32.7,--,27.5
Charl South,62.3,63.3,75.0,65.5,61.2,33.7,36.3,48.0,38.9,31.9
N Dakota St,62.2,64.7,77.0,72.3,54.2,34.3,26.3,35.1,30.1,38.7
Bellarmine,62.1,65.0,64.0,--,62.1,29.0,27.7,37.5,--,29.0
Butler,62.1,60.7,66.0,65.8,56.0,39.2,29.7,27.3,40.1,37.5
Lamar,62.1,51.3,47.0,59.0,62.5,32.2,21.4,6.4,40.7,31.2
Neb Omaha,62.0,71.3,71.0,72.3,55.2,38.2,36.4,50.7,33.2,42.6
NW State,62.0,59.3,49.0,66.0,60.9,26.9,25.3,24.5,29.5,26.1
Chicago St,61.7,63.7,61.0,66.6,57.7,39.3,34.6,49.2,32.4,46.0
Cal Poly,61.6,63.0,77.0,57.0,62.9,24.9,25.4,23.4,21.1,25.9
Old Dominion,61.5,66.7,66.0,69.0,58.3,18.5,16.5,4.5,13.0,21.3
San Diego,61.3,49.0,52.0,58.3,63.8,28.3,28.6,51.9,34.8,23.5
NC-Wilmgton,61.3,61.0,48.0,67.0,59.0,35.7,34.4,25.0,31.3,37.6
Central Conn,61.2,55.0,67.0,78.0,57.4,33.4,34.5,35.8,28.8,34.8
Sac State,61.1,61.0,66.0,60.0,62.0,26.6,31.1,22.7,25.0,27.8
Evansville,61.1,61.3,73.0,57.5,63.1,42.0,42.4,45.2,40.4,42.8
F Dickinson,61.0,58.0,54.0,54.0,61.9,29.5,19.0,11.1,11.1,31.5
Virginia,61.0,60.0,49.0,65.2,54.8,26.6,28.3,24.5,26.9,26.0
Mt St Marys,60.9,66.0,66.0,59.3,61.6,23.6,25.8,13.6,20.2,25.1
Jacksonville,60.7,65.7,62.0,70.0,57.0,30.4,36.5,38.7,32.1,29.5
Stetson,60.6,59.0,67.0,56.7,63.0,34.6,23.7,31.3,42.4,30.5
VCU,60.5,69.0,66.0,58.7,62.8,24.3,20.3,18.2,20.5,28.7
Pittsburgh,60.5,59.7,52.0,61.3,57.5,20.3,23.5,11.5,18.4,28.7
N Florida,60.5,62.3,91.0,91.0,57.1,41.2,40.1,49.5,49.5,39.7
Holy Cross,60.3,61.0,59.0,57.0,61.3,27.6,27.9,20.3,28.9,27.3
Grambling St,60.2,60.7,61.0,--,60.2,27.7,23.1,19.7,--,27.7
Alcorn State,60.2,56.7,62.0,--,60.2,25.9,31.8,38.7,--,25.9
Miss Val St,60.0,67.0,77.0,78.5,53.8,28.1,20.9,23.4,22.9,30.7
Portland St,59.8,63.3,58.0,56.0,61.8,25.9,28.4,25.9,18.8,29.1
UC Riverside,59.8,61.7,70.0,65.0,58.0,35.8,30.8,38.6,43.8,32.8
N Alabama,59.7,57.3,44.0,64.0,58.0,35.2,34.9,40.9,32.8,36.2
Ark Pine Bl,59.4,52.7,31.0,73.0,58.0,36.8,28.5,48.4,28.8,37.8
WI-Grn Bay,59.3,59.0,64.0,68.3,54.8,27.0,18.6,18.8,27.8,26.4
Wm & Mary,58.6,53.0,47.0,55.3,60.6,33.5,39.6,38.3,33.9,33.3
Delaware St,58.3,59.7,61.0,57.3,59.0,27.9,36.9,24.6,19.2,34.3
S Mississippi,58.1,49.0,51.0,59.3,57.5,22.9,30.6,41.2,28.7,20.0
Radford,58.0,59.7,58.0,77.5,52.4,35.1,43.6,41.4,34.8,35.1
TX-Arlington,57.9,62.7,62.0,63.5,56.0,22.7,25.5,24.2,28.3,20.5
Albany,57.8,57.7,61.0,56.3,58.4,29.1,34.7,39.3,24.9,30.8
Beth-Cook,57.8,54.3,48.0,51.0,58.6,23.1,22.1,12.5,35.3,21.7
CS Bakersfld,57.2,54.7,59.0,59.0,56.8,19.9,16.5,20.3,10.2,22.5
Jackson St,57.1,52.7,65.0,--,57.1,32.0,34.2,23.1,--,32.0
S Florida,56.9,57.7,60.0,58.0,49.0,24.4,17.3,10.0,24.4,24.5
N Illinois,56.3,55.3,70.0,55.0,56.5,33.7,27.1,30.0,27.3,34.5
Alab A&M,56.3,50.7,57.0,82.0,52.6,22.0,17.8,21.1,25.6,21.2
Hampton,56.2,55.3,54.0,58.0,56.0,29.1,21.7,16.7,36.2,28.1
Idaho State,56.0,57.0,46.0,61.0,53.0,32.8,24.6,26.1,24.6,38.5
Cal St Nrdge,55.6,48.3,54.0,63.7,50.8,22.9,18.6,22.2,25.1,21.3
Florida A&M,55.6,57.0,50.0,55.0,55.7,17.0,15.8,12.0,5.5,18.9
Tarleton State,55.5,58.0,62.0,57.0,55.3,22.3,20.7,19.4,15.8,23.3
Houston Bap,54.7,60.0,73.0,70.0,47.0,23.8,18.3,12.3,19.3,27.1
Merrimack,54.3,53.3,49.0,60.8,50.6,37.7,41.3,67.3,32.1,41.5
E Illinois,51.4,47.7,54.0,57.5,49.7,35.6,39.9,44.4,28.7,37.9
Maine,50.2,50.7,47.0,56.0,49.0,24.9,27.6,31.9,10.7,28.2
IUPUI,48.8,48.0,55.0,48.3,49.0,32.1,25.0,38.2,31.0,32.7
