team_name,score,date,rank,homeAway,top25,gameID,Rk,Rk_opposition,Conf,Conf_opposition,W-L,W-L_opposition,AdjEM,AdjEM_opposition,AdjO,AdjO_opposition,AdjO_rank,AdjO_rank_opposition,AdjD,AdjD_opposition,AdjD_rank,AdjD_rank_opposition,AdjT,AdjT_opposition,AdjT_rank,AdjT_rank_opposition,Luck,Luck_opposition,Luck_rank,Luck_rank_opposition,AdjEM_rank,AdjEM_rank_opposition,AdjEM_rank_rank,AdjEM_rank_rank_opposition,OppO,OppO_opposition,OppO_rank,OppO_rank_opposition,OppD,OppD_opposition,OppD_rank,OppD_rank_opposition,AdjEM.2,AdjEM.2_opposition,AdjEM_rank.2,AdjEM_rank.2_opposition,2021_ppg,2021_ppg_opposition,Last3_ppg,Last3_ppg_opposition,Last1_ppg,Last1_ppg_opposition,Home_ppg,Home_ppg_opposition,Away_ppg,Away_ppg_opposition,2021_3ptpct,2021_3ptpct_opposition,Last3_3ptpct,Last3_3ptpct_opposition,Last1_3ptpct,Last1_3ptpct_opposition,Home_3ptpct,Home_3ptpct_opposition,Away_3ptpct,Away_3ptpct_opposition
ucla,67,12-11-2021,4.0,away,True,12-11-2021-ucla-marquette,8,73,P12,BE,7-1,8-2,23.58,10.31,115.0,105.7,8,94,91.4,95.4,23,57,69.2,75.1,138,3,0.055999999999999994,0.154,96,19,1.63,5.0,135,77,103.6,102.3,89,144,102.0,97.3,211,24,1.0,5.0,152,76,82.9,74.7,69.7,74.3,73.0,64.0,90.4,78.6,70.3,70.8,30.3,33.7,24.4,37.7,28.8,51.6,32.5,25.2,25.6,43.2
missouri,65,12-11-2021,,away,True,12-11-2021-missouri-kansas,139,4,SEC,B12,5-4,7-1,2.4,26.75,100.2,118.6,202,3,97.8,91.9,91,28,67.5,71.3,226,57,0.006999999999999999,-0.077,171,292,-3.68,4.3,284,84,98.7,102.2,308,150,102.4,97.9,230,39,-3.68,4.3,275,85,63.5,84.5,57.3,89.7,72.0,78.0,65.0,84.7,61.0,84.4,21.9,24.9,12.2,23.4,8.3,23.1,17.5,29.5,29.5,22.0
houston,82,12-11-2021,14.0,away,True,12-11-2021-houston-alabama,5,10,Amer,SEC,8-1,7-1,26.73,23.1,114.2,114.5,12,10,87.5,91.4,2,22,67.0,72.9,253,22,-0.040999999999999995,0.0,244,181,-1.35,6.49,224,46,101.6,106.5,186,14,102.9,100.0,257,103,-1.35,6.49,220,43,80.8,86.4,95.7,89.0,77.0,91.0,86.0,89.0,70.3,83.8,34.3,35.6,32.4,38.2,27.3,42.9,36.0,36.2,29.9,34.9
kentucky,62,12-11-2021,10.0,away,True,12-11-2021-kentucky-notre-dame,19,51,SEC,ACC,7-1,3-4,20.37,12.94,113.2,111.9,16,24,92.8,99.0,41,114,68.7,67.6,165,221,-0.062,-0.11699999999999999,278,326,-11.51,6.69,355,44,95.6,103.2,351,106,107.1,96.5,353,12,-11.51,5.51,355,66,82.6,65.5,82.3,65.3,76.0,57.0,84.3,69.0,71.0,63.8,22.7,34.4,23.1,33.7,23.7,42.1,21.9,37.0,29.6,32.9
arizona,83,12-11-2021,11.0,away,True,12-11-2021-arizona-illinois,9,14,P12,B10,8-0,7-2,23.3,21.6,112.9,113.4,19,14,89.6,91.8,7,27,73.8,69.0,8,153,0.028999999999999998,0.037000000000000005,137,121,-2.18,4.09,240,90,100.6,103.3,236,103,102.7,99.2,245,78,-4.12,1.39,286,140,91.6,77.9,96.3,85.0,94.0,87.0,96.2,85.0,84.0,69.0,28.6,34.2,30.1,40.0,35.1,37.9,32.4,31.8,21.4,38.0
arkansas,66,12-11-2021,12.0,away,True,12-11-2021-arkansas-oklahoma,23,43,SEC,B12,9-0,7-2,18.98,14.3,111.8,106.9,26,83,92.8,92.6,39,37,73.0,67.2,20,246,0.021,-0.003,155,185,-5.74,-1.26,318,218,99.1,101.3,300,201,104.8,102.6,334,236,-5.74,-1.26,307,214,83.3,74.1,92.0,67.0,86.0,62.0,86.4,73.2,72.5,75.3,20.4,31.5,14.1,28.4,10.5,43.5,22.3,31.1,12.4,31.9
unc greensboro,36,12-11-2021,,away,True,12-11-2021-north-carolina-greensboro-tennessee,179,12,SC,SEC,7-2,6-2,-0.87,22.39,99.1,109.6,222,43,100.0,87.2,138,1,63.2,71.0,347,65,0.022000000000000002,-0.026000000000000002,151,223,-6.75,4.22,329,86,98.3,104.1,319,69,105.1,99.9,336,99,-6.75,4.22,325,87,66.4,76.6,66.3,69.0,74.0,52.0,60.0,87.5,72.8,65.8,29.9,35.7,33.2,37.7,32.4,34.6,36.3,40.3,24.7,29.7
st bonaventure,64,12-11-2021,,away,True,12-11-2021-st-bonaventure-connecticut,41,25,A10,BE,8-1,8-2,14.33,18.7,111.1,111.0,28,30,96.7,92.2,77,32,66.2,68.8,294,163,0.08800000000000001,-0.04,61,242,-2.41,-6.95,252,331,100.0,95.8,264,349,102.4,102.8,232,248,-2.41,-6.95,245,327,74.9,82.6,81.7,71.0,84.0,53.0,78.2,88.0,68.3,74.5,26.7,28.0,26.9,28.2,25.0,17.0,25.6,28.4,29.3,27.2
nebraska,68,12-11-2021,,away,True,12-11-2021-nebraska-auburn,117,17,B10,SEC,5-5,7-1,5.1,21.48,103.5,112.8,133,20,98.4,91.3,103,21,72.3,71.6,33,48,-0.031,-0.051,229,258,-2.06,5.11,238,72,100.0,104.5,266,57,102.0,99.4,215,84,-7.15,5.11,329,72,76.1,82.4,74.0,86.7,67.0,86.0,75.8,85.3,77.5,79.5,25.6,34.1,25.7,39.2,22.4,41.9,25.2,36.1,27.1,32.1
penn st,64,12-11-2021,,away,True,12-11-2021-penn-state-michigan-state,82,21,B10,B10,5-4,8-2,9.28,20.25,105.6,108.9,97,52,96.3,88.6,68,4,63.3,70.6,344,77,-0.033,0.10099999999999999,234,50,0.91,11.01,151,10,104.1,107.7,67,8,103.2,96.7,268,15,-1.03,10.69,207,12,67.7,73.4,65.3,76.3,74.0,75.0,71.7,81.8,59.7,67.8,36.9,29.0,32.1,41.9,40.5,40.0,32.8,27.5,46.9,30.2
wisconsin,55,12-11-2021,22.0,away,True,12-11-2021-wisconsin-ohio-state,26,20,B10,B10,8-1,7-2,18.6,20.33,109.2,115.8,48,7,90.6,95.5,16,60,65.6,67.3,314,239,0.09699999999999999,0.028999999999999998,52,135,7.3,8.36,32,18,104.0,105.7,73,28,96.7,97.3,14,25,6.45,7.43,44,30,69.9,76.0,74.3,77.3,64.0,85.0,72.8,79.2,66.3,72.0,29.6,35.1,32.3,38.8,23.4,35.3,28.8,33.3,30.6,37.5
byu,71,12-11-2021,24.0,away,True,12-11-2021-brigham-young-creighton,22,70,WCC,BE,8-1,7-2,19.57,10.55,111.4,107.4,27,73,91.8,96.8,26,81,69.0,67.4,148,234,0.037000000000000005,0.069,120,82,7.12,-2.65,36,257,105.0,99.5,48,282,97.9,102.2,37,222,7.12,-2.65,35,249,74.1,72.3,73.7,69.3,82.0,58.0,74.5,69.8,73.8,75.5,26.3,24.9,32.6,26.0,40.2,31.0,28.2,22.3,24.4,27.8
lsu,69,12-11-2021,25.0,away,True,12-11-2021-louisiana-state-georgia-tech,16,85,SEC,ACC,8-0,5-3,21.52,8.93,110.5,106.6,32,85,89.0,97.7,6,88,70.3,68.4,87,179,0.069,-0.006,81,189,0.07,-3.26,182,274,101.6,100.5,180,241,101.6,103.8,180,295,0.07,-5.84,181,310,79.5,72.9,69.7,63.0,66.0,62.0,82.2,70.7,71.5,88.0,26.4,28.8,18.7,30.2,18.2,29.0,28.6,29.1,18.9,27.3
alabama a&m,50,12-11-2021,,away,False,12-11-2021-alabama-am-samford,335,240,SWAC,SC,1-5,7-2,-17.51,-5.42,88.5,98.1,350,240,106.0,103.5,278,219,69.0,73.1,150,19,0.042,0.24600000000000002,116,2,4.89,-0.6,79,200,102.7,100.2,126,252,97.8,100.8,34,133,4.89,-0.6,79,195,57.2,73.3,49.3,76.7,45.0,74.0,82.0,73.0,52.2,73.4,22.7,38.9,22.3,35.2,13.3,28.4,25.6,49.3,21.8,36.8
alabama st,62,12-11-2021,,away,False,12-11-2021-alabama-state-pepperdine,338,229,SWAC,WCC,2-8,3-8,-18.07,-4.53,88.2,99.2,352,220,106.3,103.8,281,226,73.6,70.4,12,86,-0.027999999999999997,0.001,226,179,5.97,1.84,57,130,104.4,102.3,62,146,98.4,100.4,56,121,5.97,1.84,55,134,68.3,66.1,62.3,74.0,64.0,82.0,71.0,69.8,67.0,63.0,24.9,30.9,16.0,27.0,18.8,18.3,16.9,26.6,29.1,34.9
american,72,12-11-2021,,away,False,12-11-2021-american-mount-st-marys,322,307,Pat,NEC,3-7,3-7,-14.28,-12.13,95.6,93.1,285,322,109.9,105.3,336,257,68.5,66.1,176,296,0.057999999999999996,0.07400000000000001,93,75,-2.79,5.85,263,59,100.9,105.6,220,30,103.7,99.7,287,94,-2.79,5.85,254,56,67.1,60.3,65.3,68.0,83.0,77.0,80.0,56.0,63.9,61.6,27.3,24.9,27.6,30.9,36.1,31.2,28.1,24.1,27.0,25.1
arkansas st,82,12-11-2021,,away,False,12-11-2021-arkansas-state-mississippi-valley-state,212,358,SB,SWAC,6-2,0-7,-3.53,-34.55,101.8,83.3,175,358,105.3,117.9,261,358,67.9,73.3,203,17,0.204,-0.031,10,230,-8.06,5.45,337,69,97.8,103.6,328,90,105.9,98.2,344,49,-8.06,5.45,336,67,70.2,57.6,81.7,60.7,84.0,80.0,70.7,80.0,69.7,53.8,24.2,29.0,25.7,26.4,21.4,22.5,24.1,22.5,24.4,30.7
austin peay,84,12-11-2021,,away,False,12-11-2021-austin-peay-north-florida,282,287,OVC,ASun,4-3,2-9,-9.79,-10.26,96.9,98.0,263,245,106.7,108.3,289,319,68.4,70.1,181,97,0.134,-0.01,30,199,5.99,15.93,55,4,105.5,108.7,32,4,99.5,92.8,87,2,5.99,15.93,53,4,64.4,57.1,69.0,55.0,51.0,55.0,--,--,64.4,57.1,41.0,39.7,39.1,36.4,41.2,27.3,--,--,41.0,39.7
boston college,68,12-11-2021,,away,False,12-11-2021-boston-college-saint-louis,115,90,ACC,A10,6-3,7-3,5.53,8.48,103.9,107.0,127,77,98.3,98.6,98,107,65.1,69.2,326,139,-0.077,-0.038,293,241,-4.16,0.27,295,177,99.7,101.5,273,188,103.9,101.2,301,159,-6.11,0.27,313,176,68.3,78.8,70.0,72.3,73.0,59.0,73.3,77.6,58.3,80.3,24.9,22.8,27.1,24.9,24.7,20.3,23.9,22.4,27.4,23.4
boston university,65,12-11-2021,,away,False,12-11-2021-boston-university-dartmouth,155,265,Pat,Ivy,8-3,3-4,1.18,-7.78,103.1,95.6,144,284,102.0,103.4,182,216,64.9,65.2,330,322,-0.017,0.049,207,103,-2.77,4.28,262,85,98.1,103.5,324,96,100.9,99.2,139,82,-2.77,4.28,253,86,67.0,65.2,65.3,67.3,72.0,69.0,67.0,69.0,67.0,64.4,32.7,49.1,26.0,46.0,33.3,47.8,31.3,47.8,33.3,49.4
bryant,78,12-11-2021,,away,False,12-11-2021-bryant-stony-brook,231,205,NEC,AE,4-6,4-4,-4.6,-3.29,99.5,100.2,217,200,104.1,103.5,234,218,71.4,68.7,54,164,-0.018000000000000002,0.09300000000000001,210,57,2.54,0.55,111,165,102.1,104.0,153,74,99.6,103.5,90,280,2.54,0.55,116,167,65.7,69.6,59.3,69.3,76.0,79.0,68.5,70.8,64.9,68.5,37.6,38.8,32.0,43.3,31.6,49.4,35.0,39.2,38.3,38.3
cal poly,61,12-11-2021,,away,False,12-11-2021-cal-poly-portland-state,306,253,BW,BSky,2-6,3-4,-12.12,-6.76,92.4,94.7,328,298,104.5,101.5,243,169,63.7,71.5,339,49,-0.142,-0.011000000000000001,339,200,-4.27,4.05,297,92,99.9,104.7,268,54,104.2,100.6,313,128,-4.27,5.81,288,59,59.4,60.2,57.7,61.0,51.0,69.0,57.0,54.0,60.4,61.8,24.5,25.9,20.8,27.9,23.5,30.4,21.1,11.1,25.8,29.1
uc irvine,55,12-11-2021,,away,False,12-11-2021-california-irvine-fresno-state,91,103,BW,MWC,5-1,7-2,8.46,6.93,103.0,103.4,149,139,94.5,96.5,53,71,66.0,63.3,299,345,0.067,-0.009000000000000001,85,197,5.68,-3.54,65,279,104.8,99.2,52,296,99.2,102.7,75,243,5.68,-3.54,62,273,65.0,65.8,69.7,62.3,69.0,63.0,70.0,69.3,60.0,62.3,28.8,23.4,30.1,16.0,30.4,14.3,30.0,22.7,27.5,24.1
uc santa barbara,59,12-11-2021,,away,False,12-11-2021-california-santa-barbara-saint-marys-ca,104,38,BW,WCC,5-2,8-2,6.44,15.63,106.4,105.4,87,100,100.0,89.8,140,10,67.3,65.2,240,323,-0.12,0.07400000000000001,331,73,-14.34,4.98,357,78,92.7,105.2,358,44,107.0,100.2,352,116,-14.34,4.98,357,77,76.0,66.1,78.0,61.7,86.0,58.0,78.8,72.8,65.0,59.4,21.3,33.1,21.8,30.8,24.4,20.7,23.8,35.4,9.2,30.3
canisius,43,12-11-2021,,away,False,12-11-2021-canisius-youngstown-state,283,249,MAAC,Horz,2-8,5-3,-9.9,-6.35,97.7,102.4,254,160,107.6,108.8,310,326,69.8,67.5,116,223,0.092,0.015,58,165,1.2,-8.09,146,338,103.0,98.5,114,314,101.8,106.6,197,348,3.06,-9.77,104,347,68.2,73.8,65.0,78.7,62.0,84.0,71.0,70.5,66.0,77.0,35.2,31.0,26.2,34.3,19.4,39.3,35.9,29.8,34.5,32.1
central connecticut,53,12-11-2021,,away,False,12-11-2021-central-connecticut-state-providence,348,53,NEC,BE,2-7,9-1,-20.54,12.86,92.1,109.5,333,44,112.6,96.6,349,75,66.0,67.0,301,254,0.02,0.165,157,15,-1.9,3.42,233,98,99.5,102.5,287,134,101.4,99.1,165,72,-1.9,3.42,229,101,61.4,71.2,67.0,68.7,45.0,68.0,78.0,76.0,56.7,60.0,32.5,29.1,28.4,27.7,26.7,26.5,28.8,24.8,34.0,41.7
charlotte,68,12-11-2021,,away,False,12-11-2021-charlotte-valparaiso,232,216,CUSA,MVC,4-4,5-5,-4.89,-3.73,101.3,98.5,187,230,106.2,102.3,280,195,66.3,67.3,292,243,0.16399999999999998,-0.055,16,265,0.41,0.52,174,167,102.2,102.5,148,132,101.8,102.0,199,213,0.41,-1.51,173,223,70.3,66.9,70.0,68.3,66.0,71.0,72.0,65.5,68.5,67.3,31.5,33.6,31.4,35.1,27.3,33.8,30.2,25.2,32.8,36.4
cincinnati,63,12-11-2021,,away,False,12-11-2021-cincinnati-xavier,69,28,Amer,BE,7-2,8-1,10.72,17.97,103.4,110.0,137,39,92.7,92.0,38,29,67.3,71.3,242,59,-0.044000000000000004,0.105,248,42,-1.62,0.8,228,154,100.4,101.7,243,175,102.0,100.9,212,141,-1.62,0.8,225,157,70.6,75.0,63.7,83.7,73.0,96.0,73.0,78.2,65.7,68.7,28.8,33.8,28.3,35.9,20.5,37.5,26.0,36.5,35.0,27.7
columbia,59,12-11-2021,,away,False,12-11-2021-columbia-albany-ny,347,313,Ivy,AE,3-7,1-7,-20.15,-12.92,93.3,90.3,320,345,113.5,103.2,351,211,68.8,67.4,159,235,0.02,0.027000000000000003,158,140,-6.36,2.88,326,103,97.6,102.9,331,119,104.0,100.0,305,104,-6.36,2.88,318,108,66.6,57.1,66.0,53.0,61.0,52.0,69.8,54.5,64.0,58.0,29.0,27.6,24.2,28.3,29.5,34.6,28.0,22.0,30.0,29.3
denver,62,12-11-2021,,away,False,12-11-2021-denver-dixie-state,330,311,Sum,WAC,3-8,4-5,-16.08,-12.48,93.0,96.8,324,265,109.1,109.3,329,332,66.8,73.9,263,6,-0.138,0.036000000000000004,337,122,-4.78,8.05,306,22,98.7,106.1,310,19,103.4,98.0,277,46,-4.78,8.05,297,24,65.6,70.8,63.0,71.3,67.0,70.0,74.0,76.5,64.5,68.0,32.0,26.8,30.2,25.2,31.3,30.0,16.2,25.5,34.3,27.6
drake,80,12-11-2021,,away,False,12-11-2021-drake-clemson,75,50,MVC,ACC,6-3,5-4,10.04,13.14,108.0,109.4,64,46,98.0,96.2,95,66,67.9,66.7,202,272,-0.04,-0.145,243,342,-0.22,2.24,188,117,102.8,102.7,122,124,103.0,100.5,261,125,1.35,0.57,143,165,73.9,73.6,75.0,76.7,78.0,75.0,79.8,81.0,68.0,67.6,33.0,34.9,34.7,32.6,42.3,36.0,34.8,36.1,30.9,33.7
drexel,56,12-11-2021,,away,False,12-11-2021-drexel-abilene-christian,172,156,CAA,WAC,4-4,5-2,-0.16,1.13,104.1,99.9,123,209,104.3,98.8,239,112,67.5,69.0,230,151,-0.105,-0.124,318,334,0.43,1.93,173,127,103.7,101.8,86,172,103.3,99.9,270,101,0.43,1.93,172,129,74.4,78.5,76.3,86.0,79.0,98.0,86.0,98.0,72.5,72.0,28.2,31.5,30.1,33.7,30.4,36.7,20.9,36.7,29.7,29.2
eastern illinois,54,12-11-2021,,away,False,12-11-2021-eastern-illinois-butler,349,78,OVC,BE,2-8,6-3,-21.47,9.76,86.8,104.7,354,107,108.2,94.9,318,55,68.3,63.4,190,343,-0.09,0.038,307,118,-1.28,2.68,220,105,100.2,100.8,251,223,101.4,98.1,171,48,-1.28,2.68,216,112,51.1,61.6,47.7,56.0,44.0,66.0,57.5,65.8,49.0,56.0,34.5,41.1,29.4,37.5,27.3,31.8,28.7,43.3,36.7,37.5
eastern washington,76,12-11-2021,,away,False,12-11-2021-eastern-washington-north-dakota,206,337,BSky,Sum,4-5,3-7,-3.31,-17.89,101.8,96.1,176,277,105.1,113.9,252,355,72.4,68.8,29,156,0.012,0.07200000000000001,168,78,4.11,-3.27,89,275,103.6,99.6,92,277,99.5,102.9,85,256,4.95,-3.27,78,268,74.3,64.9,75.0,54.7,57.0,71.0,76.0,69.5,74.0,63.6,37.4,34.4,37.3,27.4,36.8,29.6,43.4,36.7,36.5,33.7
elon,63,12-11-2021,,away,False,12-11-2021-elon-north-carolina,267,29,CAA,ACC,2-7,6-2,-8.14,17.83,99.6,114.7,216,9,107.8,96.8,313,80,70.7,69.8,74,115,-0.0,0.022000000000000002,182,148,6.0,6.87,54,42,103.2,104.8,109,51,97.2,98.0,23,42,6.0,5.44,52,68,66.0,81.3,73.0,74.3,77.0,79.0,79.0,80.3,60.8,82.3,41.6,32.8,49.3,33.6,46.8,38.0,51.3,29.9,36.5,35.6
florida gulf coast,85,12-11-2021,,away,False,12-11-2021-florida-gulf-coast-robert-morris,196,304,ASun,Horz,8-3,1-7,-2.26,-11.6,100.3,97.2,197,260,102.6,108.8,201,327,71.8,69.7,43,120,0.12300000000000001,-0.094,37,311,-3.97,7.13,291,35,99.3,105.3,291,40,103.3,98.2,269,50,-3.97,12.21,282,8,73.9,65.3,69.3,65.7,69.0,69.0,76.3,70.0,69.0,64.5,42.0,30.2,33.2,36.5,52.2,43.5,39.3,21.4,47.8,31.8
florida international,88,12-11-2021,,away,False,12-11-2021-florida-international-eastern-michigan,248,270,CUSA,MAC,8-1,4-5,-5.98,-8.24,96.3,96.8,274,266,102.2,105.1,194,251,67.4,71.1,236,61,0.046,0.091,106,59,-8.99,4.7,344,80,97.8,103.5,327,99,106.8,98.8,351,66,-8.99,4.7,342,80,69.9,70.8,77.7,65.7,72.0,60.0,74.5,78.3,65.3,66.2,40.3,27.0,39.9,21.3,41.7,15.0,38.3,20.4,42.5,31.7
gardner webb,61,12-11-2021,,away,False,12-11-2021-gardner-webb-virginia-military-institute,198,243,BSth,SC,4-5,6-4,-2.85,-5.61,99.6,103.1,214,145,102.5,108.7,197,325,69.0,68.1,152,198,-0.152,-0.087,345,305,4.45,-5.75,82,319,104.1,98.4,70,318,99.6,104.1,93,312,4.45,-5.75,83,308,67.3,74.7,68.3,83.3,70.0,89.0,80.0,--,57.8,74.7,35.7,45.9,38.0,48.0,34.3,40.4,38.8,--,32.5,45.9
georgia southern,68,12-11-2021,,away,False,12-11-2021-georgia-southern-mercer,214,193,SB,SC,5-3,6-4,-3.62,-2.11,96.9,104.4,264,112,100.5,106.5,148,286,65.3,65.2,320,325,-0.055999999999999994,0.131,268,34,0.95,2.38,148,114,101.4,103.4,192,101,100.5,101.0,123,148,0.95,2.38,153,118,63.8,71.3,54.0,76.7,51.0,74.0,82.0,83.0,60.2,69.6,27.4,37.9,27.8,35.2,29.4,44.6,25.6,28.9,27.9,39.4
grambling st,62,12-11-2021,,away,False,12-11-2021-grambling-incarnate-word,326,356,SWAC,Slnd,3-6,1-8,-15.34,-23.9,91.0,92.4,339,330,106.3,116.3,282,357,68.8,67.7,157,211,0.001,-0.027000000000000003,180,225,8.13,1.61,21,136,104.4,102.3,61,139,96.2,100.7,11,130,8.13,1.61,23,139,59.9,64.6,65.3,65.7,59.0,65.0,--,66.3,59.9,62.3,29.4,35.8,27.6,30.5,25.4,23.1,--,34.0,29.4,38.5
hartford,78,12-11-2021,,away,False,12-11-2021-hartford-nevada-las-vegas,260,138,AE,MWC,1-7,5-5,-7.31,2.52,99.2,101.7,221,178,106.5,99.2,284,117,68.4,66.8,178,264,-0.11900000000000001,0.079,328,68,-0.53,7.5,196,29,100.5,105.2,238,45,101.1,97.7,151,29,-0.53,7.5,191,29,67.1,63.3,67.3,67.3,68.0,76.0,70.0,62.0,66.7,65.0,36.3,35.3,34.2,40.1,17.6,43.4,30.0,31.9,37.3,39.2
idaho,58,12-11-2021,,away,False,12-11-2021-idaho-cal-state-bakersfield,343,204,BSky,BW,2-7,3-2,-19.19,-3.17,94.3,97.8,303,252,113.5,101.0,352,156,71.9,66.7,41,267,-0.11699999999999999,0.05,327,102,0.55,13.25,164,6,102.0,107.9,158,6,101.5,94.7,174,8,0.75,13.25,160,6,70.8,56.0,82.0,56.0,98.0,46.0,80.8,--,60.8,56.0,35.5,23.2,35.4,23.2,39.8,19.6,39.9,--,29.6,23.2
illinois chicago,71,12-11-2021,,away,False,12-11-2021-illinois-chicago-central-michigan,272,324,Horz,MAC,2-6,1-8,-8.44,-15.2,97.4,96.7,258,268,105.8,111.9,269,345,68.2,68.6,194,172,0.026000000000000002,0.021,145,153,2.64,8.25,107,20,102.9,106.5,117,15,100.3,98.2,117,51,5.83,8.25,58,21,65.1,63.1,61.7,64.0,56.0,77.0,66.5,70.0,64.6,62.3,40.8,40.7,30.8,37.5,37.5,39.0,36.1,47.1,42.7,39.8
illinois st,81,12-11-2021,,away,False,12-11-2021-illinois-state-chicago-state,238,355,MVC,WAC,4-5,3-5,-5.32,-23.9,99.9,86.3,208,355,105.3,110.2,258,339,70.8,69.1,72,144,0.059000000000000004,0.094,92,56,-2.33,-1.96,248,235,101.1,101.6,208,185,103.4,103.5,279,282,-3.74,-1.96,276,232,79.5,61.0,74.7,60.0,55.0,59.0,74.4,67.7,88.0,57.0,32.5,41.2,38.8,40.0,21.8,30.5,32.3,35.5,33.0,45.3
liberty,51,12-11-2021,,away,False,12-11-2021-liberty-stephen-f-austin,113,146,ASun,WAC,5-3,7-2,5.59,1.91,104.2,101.6,117,179,98.6,99.7,109,128,63.1,70.6,349,80,-0.055999999999999994,0.141,267,23,-7.64,0.34,335,176,95.9,104.0,348,71,103.6,103.7,284,291,-7.64,0.34,334,175,66.0,75.4,78.3,73.0,96.0,72.0,78.3,79.0,56.8,73.0,44.8,19.1,51.1,15.1,65.6,29.2,51.1,24.7,38.3,15.1
louisiana,69,12-11-2021,,away,False,12-11-2021-louisiana-lafayette-louisiana-tech,189,84,SB,CUSA,5-3,6-2,-1.74,9.08,98.0,109.0,244,51,99.7,99.9,130,135,73.7,69.6,10,126,0.004,0.11599999999999999,175,38,-4.96,0.65,310,161,97.2,101.6,334,183,102.2,100.9,223,142,-4.96,0.65,300,164,70.3,79.9,77.7,82.0,83.0,78.0,77.7,84.3,63.0,76.5,32.0,31.1,29.6,28.0,39.8,26.9,29.6,34.4,34.9,28.4
maine,47,12-11-2021,,away,False,12-11-2021-maine-quinnipiac,350,254,AE,MAAC,2-5,5-4,-21.52,-6.86,85.7,98.7,356,229,107.2,105.6,298,265,67.5,71.5,224,50,-0.046,0.044000000000000004,252,111,0.45,-6.08,172,322,101.8,97.0,171,337,101.4,103.1,167,263,0.45,-6.38,171,319,50.8,71.5,53.7,73.7,66.0,72.0,56.0,68.0,49.5,75.0,23.6,36.7,20.5,33.9,31.8,54.2,10.7,34.2,27.3,39.0
manhattan,62,12-11-2021,,away,False,12-11-2021-manhattan-utah,255,80,MAAC,P12,6-2,6-3,-6.9,9.54,96.1,107.0,275,78,103.0,97.4,207,84,68.6,68.7,170,166,0.223,0.021,5,154,-7.05,2.17,332,119,96.7,101.7,339,176,103.8,99.5,293,88,-6.28,-1.03,317,208,69.0,72.2,76.0,67.0,73.0,62.0,72.3,75.0,66.5,68.8,18.6,30.0,18.4,31.3,24.7,14.5,16.6,31.2,20.3,28.4
marshall,80,12-11-2021,,away,False,12-11-2021-marshall-eastern-kentucky,122,186,CUSA,ASun,6-3,5-5,4.48,-1.31,107.5,103.4,70,138,103.0,104.7,208,246,75.3,73.4,2,15,-0.052000000000000005,-0.19,260,352,-1.91,0.48,234,169,99.5,99.6,281,276,101.4,99.1,172,74,-1.91,0.48,230,169,81.6,76.8,79.0,74.3,72.0,68.0,81.2,79.0,82.5,75.4,22.6,49.3,27.8,51.1,25.0,44.1,20.0,45.6,29.1,51.7
massachusetts,57,12-11-2021,,away,False,12-11-2021-massachusetts-north-texas,123,111,A10,CUSA,6-4,4-3,4.44,5.71,111.8,101.6,25,182,107.4,95.9,304,63,69.6,62.0,127,354,0.028999999999999998,-0.161,138,349,-0.47,7.66,194,23,100.9,106.9,221,12,101.3,99.2,164,80,-0.47,7.66,189,25,82.1,61.8,82.7,59.7,76.0,57.0,84.4,65.0,79.8,59.7,43.8,37.9,52.0,36.9,47.4,26.3,39.1,39.2,48.9,36.9
middle tennessee,84,12-11-2021,,away,False,12-11-2021-middle-tennessee-tennessee-martin,219,344,CUSA,OVC,7-2,3-6,-3.85,-19.31,97.4,92.4,256,327,101.2,111.7,163,344,70.9,69.8,67,111,-0.019,0.043,212,114,-6.52,2.49,327,112,99.1,102.6,299,128,105.6,100.1,340,108,-6.52,2.49,321,117,74.7,66.3,80.7,63.7,87.0,64.0,73.3,77.0,75.8,64.5,32.1,31.7,37.2,31.4,44.8,14.1,30.0,35.1,33.7,31.0
minnesota,75,12-11-2021,,away,False,12-11-2021-minnesota-michigan,92,11,B10,B10,7-1,6-3,8.25,22.72,103.9,112.7,125,21,95.6,90.0,61,11,66.9,67.6,257,220,0.107,0.009000000000000001,40,170,0.76,8.38,157,16,101.9,105.5,162,35,101.2,97.1,154,22,-1.58,8.17,224,22,70.8,72.9,67.3,75.0,67.0,102.0,67.8,72.5,73.8,73.2,32.3,28.8,37.1,41.3,26.9,44.1,28.8,26.9,35.6,30.3
mississippi st,63,12-11-2021,,away,False,12-11-2021-mississippi-state-colorado-state,48,40,SEC,MWC,6-2,9-0,13.79,15.43,110.3,113.9,35,13,96.5,98.5,73,104,66.0,69.6,303,125,-0.046,0.027000000000000003,251,143,-2.82,-4.04,265,293,100.0,99.1,263,298,102.8,103.2,251,267,-2.82,-4.04,255,284,74.4,85.0,77.7,82.7,76.0,74.0,75.8,89.6,70.0,77.3,27.2,32.6,27.0,31.5,35.5,36.5,31.6,30.1,12.9,37.5
montana st,72,12-11-2021,,away,False,12-11-2021-montana-state-st-thomas-mn,165,298,BSky,Sum,6-4,4-5,0.25,-11.12,102.3,104.2,165,119,102.1,115.3,185,356,68.2,65.7,193,311,-0.046,-0.11599999999999999,250,324,-2.81,-3.64,264,283,101.9,99.0,166,303,104.7,102.6,327,240,-3.01,-3.64,260,274,75.6,75.8,70.3,71.3,68.0,64.0,68.0,--,76.5,75.8,36.2,52.5,31.3,53.3,30.9,65.6,30.9,--,36.8,52.5
morehead st,75,12-11-2021,,away,False,12-11-2021-morehead-state-east-tennessee-state,145,126,OVC,SC,6-3,6-3,2.0,4.09,102.3,103.5,166,135,100.3,99.4,145,121,65.5,65.6,317,315,0.10400000000000001,0.131,46,33,5.8,8.29,62,19,104.2,105.8,65,23,98.4,97.5,57,27,5.8,8.29,60,20,63.7,63.0,66.7,63.3,71.0,56.0,65.0,56.0,63.2,64.2,37.7,40.1,42.0,41.1,46.5,37.5,46.2,32.1,34.2,41.3
morgan st,55,12-11-2021,,away,False,12-11-2021-morgan-state-longwood,294,200,MEAC,BSth,4-5,5-4,-10.76,-2.92,95.1,99.7,295,213,105.8,102.6,270,200,71.6,66.1,47,298,-0.052000000000000005,-0.16399999999999998,261,350,-2.18,-5.45,241,315,99.5,99.8,283,269,101.7,105.3,190,338,-2.18,-5.45,237,303,63.7,73.1,62.0,74.0,60.0,78.0,--,73.8,63.7,72.3,26.7,35.7,14.5,39.2,5.0,42.3,--,34.6,26.7,37.3
new hampshire,62,12-11-2021,,away,False,12-11-2021-new-hampshire-duquesne,202,224,AE,A10,4-3,3-7,-3.02,-4.08,100.4,100.0,196,207,103.4,104.0,217,232,62.9,66.7,350,274,-0.07,-0.065,285,279,-3.09,-0.59,271,199,100.7,101.6,231,177,103.8,102.2,294,227,-3.09,-0.59,263,194,68.0,70.0,65.3,69.3,59.0,67.0,75.5,70.6,64.3,69.4,39.0,29.6,39.8,33.2,50.8,26.9,29.8,28.9,44.4,30.3
new mexico st,63,12-11-2021,,away,False,12-11-2021-new-mexico-state-loyola-marymount,116,110,WAC,WCC,7-2,6-3,5.41,5.97,107.0,107.0,80,79,101.5,101.0,171,158,66.2,67.5,293,232,0.203,0.165,11,14,1.79,-0.25,131,190,102.3,102.0,145,160,100.5,102.2,124,226,1.79,-0.25,135,187,74.5,69.9,81.3,69.7,78.0,60.0,77.7,75.3,72.6,64.5,32.2,30.6,18.4,31.6,7.7,30.0,30.9,27.9,33.1,33.7
new orleans,50,12-11-2021,,away,False,12-11-2021-new-orleans-utah-state,302,62,Slnd,MWC,3-6,6-3,-11.35,11.45,97.2,107.9,261,68,108.5,96.4,323,70,71.9,68.4,36,184,-0.11599999999999999,-0.07400000000000001,325,288,0.65,5.2,160,71,101.9,103.9,163,79,101.3,98.7,162,63,0.65,5.2,163,71,71.6,76.0,70.3,69.7,67.0,71.0,78.3,69.0,65.0,80.2,19.4,34.5,21.3,35.9,13.4,42.3,19.2,33.3,19.6,35.2
norfolk st,58,12-11-2021,,away,False,12-11-2021-norfolk-state-wichita-state,268,56,MEAC,Amer,9-2,6-2,-8.15,12.25,95.5,104.3,288,115,103.7,92.1,224,31,71.1,68.8,62,162,0.215,0.027000000000000003,7,139,-8.48,5.37,342,70,96.2,102.3,345,141,104.6,97.0,326,20,-8.48,5.37,340,69,70.8,65.1,67.0,60.0,57.0,59.0,91.0,62.0,67.9,68.3,18.6,35.7,19.4,28.3,15.8,25.4,23.1,31.5,17.7,39.6
unc asheville,73,12-11-2021,,away,False,12-11-2021-north-carolina-asheville-western-carolina,269,291,BSth,SC,5-4,6-4,-8.15,-10.7,97.9,97.8,248,250,106.0,108.5,275,322,68.6,69.0,173,147,0.096,0.19,54,13,2.16,-2.83,121,266,104.0,100.5,72,240,101.9,103.3,201,274,2.16,-2.83,124,256,65.1,73.7,73.3,70.3,73.0,74.0,73.3,76.5,59.0,72.9,30.3,47.5,28.6,41.2,37.0,44.6,28.6,45.1,31.8,48.2
north carolina a&t,68,12-11-2021,,away,False,12-11-2021-north-carolina-at-central-florida,259,57,BSth,Amer,3-7,5-2,-7.29,12.2,95.6,108.1,287,61,102.9,95.9,205,65,69.8,68.2,108,191,-0.08,0.006,297,173,2.02,-1.03,125,211,100.9,100.7,214,232,98.9,101.7,67,188,2.02,-1.03,126,206,63.5,73.3,73.0,70.3,71.0,81.0,--,68.8,63.5,79.3,36.6,33.9,38.4,34.1,33.8,33.3,--,36.0,36.6,31.5
unc wilmington,48,12-11-2021,,away,False,12-11-2021-north-carolina-wilmington-jacksonville,284,262,CAA,ASun,3-4,4-3,-10.05,-7.47,97.8,93.7,253,313,107.8,101.1,315,161,66.7,66.7,266,271,-0.054000000000000006,-0.01,263,198,-7.77,1.88,336,129,96.2,101.5,343,190,104.0,99.6,308,91,-7.77,1.88,335,132,63.5,57.2,67.3,56.3,69.0,58.0,67.0,63.0,61.8,55.8,37.0,25.2,41.6,19.5,30.4,25.9,31.3,19.0,40.1,26.9
northern arizona,71,12-11-2021,,away,False,12-11-2021-northern-arizona-south-dakota,319,239,BSky,Sum,4-5,5-4,-13.6,-5.33,95.7,98.9,283,226,109.3,104.2,331,237,67.6,68.3,216,189,0.10099999999999999,0.063,49,86,-1.61,-3.41,227,276,100.5,99.6,242,280,102.1,103.0,219,259,-3.09,-3.41,264,269,66.3,64.9,57.7,63.7,73.0,69.0,70.0,77.0,64.0,60.0,32.3,30.4,31.2,42.4,37.0,26.1,38.6,17.5,28.1,37.0
ohio,55,12-11-2021,,away,False,12-11-2021-ohio-stetson,105,241,MAC,ASun,6-2,2-5,6.42,-5.45,106.2,99.8,89,211,99.8,105.3,133,259,68.4,67.7,182,209,0.135,0.021,27,152,2.57,2.57,110,109,103.4,104.0,100,75,100.8,101.4,137,170,2.57,2.57,115,114,72.1,62.2,67.3,65.3,78.0,65.0,82.0,58.0,59.0,63.0,41.0,35.4,37.1,32.1,34.6,9.2,33.8,62.1,54.2,30.5
oral roberts,60,12-11-2021,,away,False,12-11-2021-oral-roberts-missouri-state,169,68,Sum,MVC,5-4,5-4,0.06,10.77,105.9,111.0,91,29,105.8,100.2,271,143,69.7,67.2,118,245,-0.105,-0.215,317,356,1.74,-5.05,133,311,102.6,98.4,131,316,100.8,103.4,136,276,1.74,-5.72,137,306,76.5,79.1,78.3,74.3,85.0,81.0,82.0,80.0,73.8,78.7,49.7,35.4,57.4,37.7,42.4,59.3,58.5,25.0,44.7,40.7
pacific,66,12-11-2021,,away,False,12-11-2021-pacific-san-jose-state,176,295,WCC,MWC,4-5,4-4,-0.62,-10.96,98.9,96.1,225,276,99.5,107.1,123,296,66.3,67.1,286,248,-0.228,0.062,357,88,-7.29,-1.27,333,219,97.4,102.5,333,133,104.7,103.8,328,298,-7.29,-1.27,330,215,64.6,66.5,62.7,68.7,57.0,69.0,70.7,72.5,60.0,60.5,27.9,40.6,30.3,40.8,26.3,30.4,34.0,45.5,22.5,34.7
pennsylvania,74,12-11-2021,,away,False,12-11-2021-pennsylvania-la-salle,217,225,Ivy,A10,3-9,4-4,-3.73,-4.28,103.7,97.5,128,255,107.5,101.8,305,175,67.6,69.7,218,121,-0.059000000000000004,-0.005,272,188,7.54,-7.62,27,334,106.0,98.7,20,307,98.5,106.3,59,347,7.54,-7.62,27,333,68.7,69.9,66.3,74.0,71.0,81.0,70.5,74.8,68.3,61.7,41.1,34.9,42.2,35.1,25.4,48.1,51.1,36.9,39.1,30.8
princeton,84,12-11-2021,,away,False,12-11-2021-princeton-lafayette,152,296,Ivy,Pat,7-3,2-7,1.38,-10.99,106.6,96.0,86,278,105.2,107.0,255,295,67.5,67.6,228,215,0.043,-0.065,113,280,-1.32,0.8,221,155,101.5,103.5,187,95,102.9,102.7,252,244,-1.32,0.8,218,158,77.8,66.3,80.0,70.3,82.0,58.0,83.0,79.3,73.6,59.8,40.3,47.7,37.5,51.2,36.6,51.7,38.0,50.4,42.4,46.0
radford,70,12-11-2021,,away,False,12-11-2021-radford-james-madison,258,167,BSth,CAA,4-5,8-2,-7.19,0.23,94.1,99.8,307,212,101.3,99.5,164,124,68.3,70.8,188,69,0.02,0.24,159,3,7.12,1.74,37,132,105.1,103.0,47,116,98.0,101.2,41,158,7.12,1.74,36,136,56.3,66.8,68.7,61.0,51.0,52.0,77.5,59.0,47.8,71.4,31.2,28.7,35.0,34.4,35.3,23.1,34.8,33.9,28.9,26.1
rice,88,12-11-2021,,away,False,12-11-2021-rice-houston-baptist,168,352,CUSA,Slnd,5-4,3-5,0.21,-22.05,107.4,91.5,74,337,107.2,113.5,297,353,69.7,69.3,117,136,0.045,-0.037000000000000005,108,237,-2.43,9.51,253,14,99.2,106.3,297,16,101.6,96.8,182,16,-2.43,9.51,246,16,77.1,51.0,72.0,56.0,69.0,67.0,77.3,67.0,77.0,47.0,39.9,27.1,47.2,21.4,52.2,26.9,40.1,26.9,39.7,27.1
santa clara,60,12-11-2021,,away,False,12-11-2021-santa-clara-california,86,112,WCC,P12,7-3,5-5,8.91,5.7,108.4,101.6,59,180,99.5,95.9,122,64,70.5,65.7,81,310,-0.08900000000000001,-0.043,306,245,-0.93,2.44,209,113,100.8,102.2,224,149,101.7,99.8,192,95,-0.93,1.32,204,144,78.9,65.6,77.7,67.7,88.0,72.0,81.5,71.2,68.5,57.3,28.5,24.7,21.9,20.7,20.5,20.8,26.2,28.1,39.4,18.3
siena,72,12-11-2021,,away,False,12-11-2021-siena-holy-cross,290,346,MAAC,Pat,3-6,2-8,-10.64,-19.87,94.6,93.4,299,317,105.3,113.3,260,350,65.3,67.8,321,205,0.079,-0.013000000000000001,70,203,-0.47,-3.04,193,269,101.3,100.0,203,262,101.7,103.1,191,262,1.01,-3.04,151,261,63.6,60.5,71.7,63.7,60.0,59.0,65.3,55.0,62.2,61.3,37.2,28.5,33.5,29.8,40.0,35.6,36.8,38.2,37.6,27.3
usc upst,53,12-11-2021,,away,False,12-11-2021-south-carolina-upstate-wake-forest,334,59,BSth,ACC,2-6,8-1,-16.98,11.85,92.4,108.4,329,60,109.4,96.5,333,72,68.8,70.5,160,85,0.012,0.053,169,99,-4.79,-4.34,307,299,99.3,98.8,292,306,104.1,103.1,311,264,-4.79,-7.53,298,332,66.3,81.8,71.7,72.7,73.0,80.0,71.7,85.8,62.3,73.7,34.3,31.8,37.7,31.7,41.1,26.3,37.7,34.4,31.3,25.8
south dakota st,77,12-11-2021,,away,False,12-11-2021-south-dakota-state-washington-state,97,39,Sum,P12,8-3,7-2,7.61,15.53,113.3,108.5,15,57,105.7,93.0,268,43,72.7,67.5,24,227,0.042,-0.06,115,275,-0.34,-2.74,191,261,101.6,100.6,179,234,102.0,103.3,210,271,-0.34,-7.15,188,328,87.1,79.4,87.7,68.7,84.0,94.0,90.3,79.3,85.5,80.0,34.4,32.7,35.4,40.8,28.6,41.5,34.3,33.0,34.5,31.9
southeast missouri st,65,12-11-2021,,away,False,12-11-2021-southeast-missouri-state-ipfw,285,278,OVC,Horz,5-4,4-5,-10.13,-9.34,98.9,100.1,227,203,109.0,109.4,328,334,71.9,68.4,38,186,0.14,0.039,24,117,-6.88,-5.54,330,317,99.8,99.1,272,301,106.6,104.6,349,325,-6.88,-5.77,326,309,75.4,69.3,70.3,67.7,75.0,59.0,71.3,69.7,78.5,69.0,30.7,33.0,32.7,32.5,28.0,30.5,28.0,31.6,32.5,33.9
southeastern louisiana,66,12-11-2021,,away,False,12-11-2021-southeastern-louisiana-southern,309,292,Slnd,SWAC,4-5,4-6,-12.43,-10.72,94.9,93.4,297,318,107.4,104.1,300,233,70.1,72.0,98,35,-0.022000000000000002,0.105,217,43,-0.54,7.16,197,33,102.1,105.1,154,46,102.6,98.0,241,44,-0.54,7.16,192,33,69.0,66.4,73.3,69.3,72.0,64.0,--,--,69.0,66.4,33.3,31.6,38.2,31.7,25.0,23.4,--,--,33.3,31.6
southern illinois,65,12-11-2021,,away,False,12-11-2021-southern-illinois-tulsa,134,151,MVC,Amer,5-3,4-5,3.31,1.42,103.0,102.0,146,171,99.7,100.5,129,147,62.0,66.3,355,290,-0.027999999999999997,-0.057,227,270,-4.32,-1.13,298,213,98.0,101.3,326,200,102.3,102.4,228,235,-5.1,-1.13,301,210,62.4,67.7,60.7,64.3,66.0,55.0,67.0,67.2,59.6,68.3,31.9,30.0,29.7,32.6,40.9,16.4,28.4,28.6,34.2,31.9
st francis brooklyn,75,12-11-2021,,away,False,12-11-2021-st-francis-ny-delaware-state,328,354,NEC,MEAC,1-8,2-7,-15.58,-23.74,92.0,88.4,334,351,107.6,112.1,309,346,69.8,69.4,112,132,-0.021,-0.079,216,295,-0.16,-2.65,187,258,100.7,100.2,227,249,100.9,102.9,140,253,-0.16,-2.65,185,250,62.0,57.8,57.3,55.3,71.0,60.0,64.0,55.5,61.4,59.0,29.6,28.5,27.9,36.1,25.4,50.0,32.8,16.2,28.6,34.3
syracuse,75,12-11-2021,,away,False,12-11-2021-syracuse-georgetown,61,108,ACC,BE,5-4,4-4,11.45,6.03,112.1,105.6,23,96,100.6,99.6,149,126,70.2,72.3,92,31,0.059000000000000004,-0.094,91,309,8.65,-5.46,15,316,105.5,97.7,33,330,96.8,103.1,18,266,6.87,-5.46,39,304,77.8,76.3,76.0,86.0,53.0,100.0,92.3,82.6,66.2,65.7,32.1,34.4,35.5,32.6,28.3,39.0,33.3,36.3,30.8,30.5
temple,49,12-11-2021,,away,False,12-11-2021-temple-saint-josephs,121,201,Amer,A10,6-3,5-4,4.52,-2.94,104.2,100.9,116,190,99.7,103.8,127,228,66.8,70.2,261,93,0.133,0.07400000000000001,32,77,0.46,-3.16,171,272,101.9,100.3,168,247,101.4,103.5,168,281,0.46,-3.16,170,266,69.9,71.1,75.3,69.7,72.0,78.0,74.4,76.0,64.3,61.3,25.3,38.4,22.6,37.3,25.0,46.2,24.2,38.2,26.8,39.1
texas a&m corpus chris,87,12-11-2021,,away,False,12-11-2021-texas-am-corpus-christi-nebraska-omaha,323,333,Slnd,Sum,8-1,1-8,-14.53,-16.65,92.1,94.0,332,309,106.6,110.7,288,340,70.7,67.8,76,204,0.262,-0.14800000000000002,1,344,-9.4,6.41,346,47,96.1,105.4,346,38,105.5,98.9,339,68,-9.4,6.41,345,45,72.3,59.5,78.3,72.0,75.0,70.0,75.0,72.0,71.8,52.0,19.4,37.8,17.9,34.7,28.0,30.0,28.0,34.7,17.5,40.4
tcu,68,12-11-2021,,away,False,12-11-2021-texas-christian-texas-am,72,64,B12,SEC,7-1,7-1,10.53,11.35,105.8,104.7,93,105,95.3,93.4,56,47,66.4,66.7,281,269,0.084,0.07400000000000001,65,74,-6.69,-5.92,328,320,98.2,98.6,323,312,104.9,104.5,335,323,-6.69,-5.92,324,311,72.1,72.1,71.7,71.7,76.0,85.0,72.4,77.8,71.7,62.7,23.4,31.2,22.3,27.9,19.7,38.8,24.9,31.6,20.9,30.3
utsa,78,12-11-2021,,away,False,12-11-2021-texas-san-antonio-sam-houston-state,280,218,CUSA,WAC,5-4,3-5,-9.54,-3.78,97.8,98.2,251,238,107.4,102.0,302,184,69.9,67.6,105,214,0.134,-0.094,28,312,-11.19,7.53,354,28,94.6,106.6,355,13,105.8,99.1,342,73,-11.19,7.53,354,28,65.0,63.2,69.3,60.7,71.0,57.0,68.8,55.0,57.5,64.8,30.8,42.7,24.5,39.6,25.4,42.1,28.4,43.6,36.5,42.6
toledo,69,12-11-2021,,away,False,12-11-2021-toledo-richmond,124,63,MAC,A10,7-2,5-4,4.4,11.42,108.7,109.8,56,40,104.3,98.4,240,100,69.5,67.7,131,213,0.213,-0.055999999999999994,8,269,0.93,6.17,149,49,101.3,105.7,202,25,100.3,99.6,118,89,0.93,6.17,154,47,73.6,74.8,71.3,68.0,67.0,60.0,74.0,81.7,73.5,71.3,24.4,39.7,25.2,36.8,22.4,45.0,24.3,42.9,24.5,37.9
towson,89,12-11-2021,,away,False,12-11-2021-towson-coppin-state,142,315,CAA,MEAC,6-4,1-12,2.1,-13.2,104.6,92.8,108,325,102.5,106.0,199,277,65.6,71.8,316,44,-0.086,-0.155,302,347,-1.23,6.13,217,51,100.7,104.5,230,56,101.9,98.4,205,55,-1.23,6.13,213,49,71.4,64.3,73.0,73.3,74.0,62.0,74.3,71.0,69.5,63.8,29.8,37.0,38.4,38.2,48.6,38.7,20.2,42.3,36.7,36.5
troy,75,12-11-2021,,away,False,12-11-2021-troy-tennessee-tech,251,281,SB,OVC,5-4,2-7,-6.65,-9.58,95.3,95.9,290,281,102.0,105.5,183,262,69.1,69.0,145,146,0.052000000000000005,-0.075,100,290,-3.54,4.07,278,91,100.2,104.4,253,59,103.7,100.4,290,119,-3.54,4.07,272,90,68.0,65.5,65.3,61.7,68.0,69.0,68.5,76.5,67.8,61.8,27.7,24.0,29.1,22.7,26.5,26.1,24.1,27.5,29.2,22.6
utah valley,62,12-11-2021,,away,False,12-11-2021-utah-valley-wyoming,159,114,WAC,MWC,7-2,8-1,0.82,5.58,100.0,106.9,206,82,99.2,101.3,116,166,67.1,66.3,250,287,0.085,0.13,63,35,-1.23,-4.78,216,305,100.8,98.6,222,311,102.1,103.4,217,275,-1.23,-4.78,212,296,73.5,76.9,68.3,73.7,56.0,65.0,74.5,81.5,73.2,72.3,19.9,27.3,17.6,27.1,26.8,36.9,14.1,26.7,21.9,28.0
vcu,75,12-11-2021,,away,False,12-11-2021-virginia-commonwealth-old-dominion,94,177,A10,CUSA,5-4,5-5,8.19,-0.78,96.5,98.4,271,232,88.3,99.2,3,118,67.7,63.3,212,346,0.004,-0.006999999999999999,174,192,5.78,-1.85,63,231,105.0,100.7,49,225,99.2,102.6,79,239,5.78,-1.85,61,228,58.3,61.0,64.7,65.3,66.0,74.0,57.2,70.5,59.8,58.3,25.1,20.2,24.7,21.4,18.2,24.3,21.0,17.0,30.1,21.3
western kentucky,71,12-11-2021,,away,False,12-11-2021-western-kentucky-mississippi,127,65,CUSA,SEC,5-4,6-2,4.08,11.14,103.5,103.4,136,140,99.4,92.3,120,34,70.3,66.6,89,279,-0.054000000000000006,-0.044000000000000004,264,247,-3.8,-8.17,286,341,98.6,96.6,313,342,102.4,104.8,231,331,-3.8,-8.17,278,339,74.4,73.3,77.7,71.7,67.0,67.0,80.0,78.0,65.0,65.3,27.7,29.2,21.9,32.1,13.4,35.8,26.3,33.1,30.8,21.4
western michigan,64,12-11-2021,,away,False,12-11-2021-western-michigan-detroit-mercy,317,223,MAC,Horz,3-5,2-7,-13.5,-4.06,97.4,102.9,257,150,110.9,107.0,341,294,67.0,66.9,251,258,0.098,-0.095,51,313,2.28,6.92,115,39,103.5,105.2,97,42,101.2,98.3,160,53,2.28,11.08,120,10,68.0,64.0,78.0,61.7,60.0,52.0,60.0,--,69.6,64.0,38.2,41.1,41.0,37.3,30.0,46.2,30.0,--,39.7,41.1
marquette,56,12-11-2021,,home,True,12-11-2021-ucla-marquette,73,8,BE,P12,8-2,7-1,10.31,23.58,105.7,115.0,94,8,95.4,91.4,57,23,75.1,69.2,3,138,0.154,0.055999999999999994,19,96,5.0,1.63,77,135,102.3,103.6,144,89,97.3,102.0,24,211,5.0,1.0,76,152,74.7,82.9,74.3,69.7,64.0,73.0,78.6,90.4,70.8,70.3,33.7,30.3,37.7,24.4,51.6,28.8,25.2,32.5,43.2,25.6
kansas,102,12-11-2021,8.0,home,True,12-11-2021-missouri-kansas,4,139,B12,SEC,7-1,5-4,26.75,2.4,118.6,100.2,3,202,91.9,97.8,28,91,71.3,67.5,57,226,-0.077,0.006999999999999999,292,171,4.3,-3.68,84,284,102.2,98.7,150,308,97.9,102.4,39,230,4.3,-3.68,85,275,84.5,63.5,89.7,57.3,78.0,72.0,84.7,65.0,84.4,61.0,24.9,21.9,23.4,12.2,23.1,8.3,29.5,17.5,22.0,29.5
alabama,83,12-11-2021,9.0,home,True,12-11-2021-houston-alabama,10,5,SEC,Amer,7-1,8-1,23.1,26.73,114.5,114.2,10,12,91.4,87.5,22,2,72.9,67.0,22,253,0.0,-0.040999999999999995,181,244,6.49,-1.35,46,224,106.5,101.6,14,186,100.0,102.9,103,257,6.49,-1.35,43,220,86.4,80.8,89.0,95.7,91.0,77.0,89.0,86.0,83.8,70.3,35.6,34.3,38.2,32.4,42.9,27.3,36.2,36.0,34.9,29.9
notre dame,66,12-11-2021,,home,True,12-11-2021-kentucky-notre-dame,51,19,ACC,SEC,3-4,7-1,12.94,20.37,111.9,113.2,24,16,99.0,92.8,114,41,67.6,68.7,221,165,-0.11699999999999999,-0.062,326,278,6.69,-11.51,44,355,103.2,95.6,106,351,96.5,107.1,12,353,5.51,-11.51,66,355,65.5,82.6,65.3,82.3,57.0,76.0,69.0,84.3,63.8,71.0,34.4,22.7,33.7,23.1,42.1,23.7,37.0,21.9,32.9,29.6
illinois,79,12-11-2021,,home,True,12-11-2021-arizona-illinois,14,9,B10,P12,7-2,8-0,21.6,23.3,113.4,112.9,14,19,91.8,89.6,27,7,69.0,73.8,153,8,0.037000000000000005,0.028999999999999998,121,137,4.09,-2.18,90,240,103.3,100.6,103,236,99.2,102.7,78,245,1.39,-4.12,140,286,77.9,91.6,85.0,96.3,87.0,94.0,85.0,96.2,69.0,84.0,34.2,28.6,40.0,30.1,37.9,35.1,31.8,32.4,38.0,21.4
oklahoma,88,12-11-2021,,home,True,12-11-2021-arkansas-oklahoma,43,23,B12,SEC,7-2,9-0,14.3,18.98,106.9,111.8,83,26,92.6,92.8,37,39,67.2,73.0,246,20,-0.003,0.021,185,155,-1.26,-5.74,218,318,101.3,99.1,201,300,102.6,104.8,236,334,-1.26,-5.74,214,307,74.1,83.3,67.0,92.0,62.0,86.0,73.2,86.4,75.3,72.5,31.5,20.4,28.4,14.1,43.5,10.5,31.1,22.3,31.9,12.4
tennessee,76,12-11-2021,13.0,home,True,12-11-2021-north-carolina-greensboro-tennessee,12,179,SEC,SC,6-2,7-2,22.39,-0.87,109.6,99.1,43,222,87.2,100.0,1,138,71.0,63.2,65,347,-0.026000000000000002,0.022000000000000002,223,151,4.22,-6.75,86,329,104.1,98.3,69,319,99.9,105.1,99,336,4.22,-6.75,87,325,76.6,66.4,69.0,66.3,52.0,74.0,87.5,60.0,65.8,72.8,35.7,29.9,37.7,33.2,34.6,32.4,40.3,36.3,29.7,24.7
connecticut,74,12-11-2021,15.0,home,True,12-11-2021-st-bonaventure-connecticut,25,41,BE,A10,8-2,8-1,18.7,14.33,111.0,111.1,30,28,92.2,96.7,32,77,68.8,66.2,163,294,-0.04,0.08800000000000001,242,61,-6.95,-2.41,331,252,95.8,100.0,349,264,102.8,102.4,248,232,-6.95,-2.41,327,245,82.6,74.9,71.0,81.7,53.0,84.0,88.0,78.2,74.5,68.3,28.0,26.7,28.2,26.9,17.0,25.0,28.4,25.6,27.2,29.3
auburn,99,12-11-2021,18.0,home,True,12-11-2021-nebraska-auburn,17,117,SEC,B10,7-1,5-5,21.48,5.1,112.8,103.5,20,133,91.3,98.4,21,103,71.6,72.3,48,33,-0.051,-0.031,258,229,5.11,-2.06,72,238,104.5,100.0,57,266,99.4,102.0,84,215,5.11,-7.15,72,329,82.4,76.1,86.7,74.0,86.0,67.0,85.3,75.8,79.5,77.5,34.1,25.6,39.2,25.7,41.9,22.4,36.1,25.2,32.1,27.1
michigan st,80,12-11-2021,19.0,home,True,12-11-2021-penn-state-michigan-state,21,82,B10,B10,8-2,5-4,20.25,9.28,108.9,105.6,52,97,88.6,96.3,4,68,70.6,63.3,77,344,0.10099999999999999,-0.033,50,234,11.01,0.91,10,151,107.7,104.1,8,67,96.7,103.2,15,268,10.69,-1.03,12,207,73.4,67.7,76.3,65.3,75.0,74.0,81.8,71.7,67.8,59.7,29.0,36.9,41.9,32.1,40.0,40.5,27.5,32.8,30.2,46.9
ohio st,73,12-11-2021,21.0,home,True,12-11-2021-wisconsin-ohio-state,20,26,B10,B10,7-2,8-1,20.33,18.6,115.8,109.2,7,48,95.5,90.6,60,16,67.3,65.6,239,314,0.028999999999999998,0.09699999999999999,135,52,8.36,7.3,18,32,105.7,104.0,28,73,97.3,96.7,25,14,7.43,6.45,30,44,76.0,69.9,77.3,74.3,85.0,64.0,79.2,72.8,72.0,66.3,35.1,29.6,38.8,32.3,35.3,23.4,33.3,28.8,37.5,30.6
creighton,83,12-11-2021,,home,True,12-11-2021-brigham-young-creighton,70,22,BE,WCC,7-2,8-1,10.55,19.57,107.4,111.4,73,27,96.8,91.8,81,26,67.4,69.0,234,148,0.069,0.037000000000000005,82,120,-2.65,7.12,257,36,99.5,105.0,282,48,102.2,97.9,222,37,-2.65,7.12,249,35,72.3,74.1,69.3,73.7,58.0,82.0,69.8,74.5,75.5,73.8,24.9,26.3,26.0,32.6,31.0,40.2,22.3,28.2,27.8,24.4
georgia tech,53,12-11-2021,,home,True,12-11-2021-louisiana-state-georgia-tech,85,16,ACC,SEC,5-3,8-0,8.93,21.52,106.6,110.5,85,32,97.7,89.0,88,6,68.4,70.3,179,87,-0.006,0.069,189,81,-3.26,0.07,274,182,100.5,101.6,241,180,103.8,101.6,295,180,-5.84,0.07,310,181,72.9,79.5,63.0,69.7,62.0,66.0,70.7,82.2,88.0,71.5,28.8,26.4,30.2,18.7,29.0,18.2,29.1,28.6,27.3,18.9
samford,52,12-11-2021,,home,False,12-11-2021-alabama-am-samford,240,335,SC,SWAC,7-2,1-5,-5.42,-17.51,98.1,88.5,240,350,103.5,106.0,219,278,73.1,69.0,19,150,0.24600000000000002,0.042,2,116,-0.6,4.89,200,79,100.2,102.7,252,126,100.8,97.8,133,34,-0.6,4.89,195,79,73.3,57.2,76.7,49.3,74.0,45.0,73.0,82.0,73.4,52.2,38.9,22.7,35.2,22.3,28.4,13.3,49.3,25.6,36.8,21.8
pepperdine,79,12-11-2021,,home,False,12-11-2021-alabama-state-pepperdine,229,338,WCC,SWAC,3-8,2-8,-4.53,-18.07,99.2,88.2,220,352,103.8,106.3,226,281,70.4,73.6,86,12,0.001,-0.027999999999999997,179,226,1.84,5.97,130,57,102.3,104.4,146,62,100.4,98.4,121,56,1.84,5.97,134,55,66.1,68.3,74.0,62.3,82.0,64.0,69.8,71.0,63.0,67.0,30.9,24.9,27.0,16.0,18.3,18.8,26.6,16.9,34.9,29.1
mount st marys,66,12-11-2021,,home,False,12-11-2021-american-mount-st-marys,307,322,NEC,Pat,3-7,3-7,-12.13,-14.28,93.1,95.6,322,285,105.3,109.9,257,336,66.1,68.5,296,176,0.07400000000000001,0.057999999999999996,75,93,5.85,-2.79,59,263,105.6,100.9,30,220,99.7,103.7,94,287,5.85,-2.79,56,254,60.3,67.1,68.0,65.3,77.0,83.0,56.0,80.0,61.6,63.9,24.9,27.3,30.9,27.6,31.2,36.1,24.1,28.1,25.1,27.0
mississippi valley st,77,12-11-2021,,home,False,12-11-2021-arkansas-state-mississippi-valley-state,358,212,SWAC,SB,0-7,6-2,-34.55,-3.53,83.3,101.8,358,175,117.9,105.3,358,261,73.3,67.9,17,203,-0.031,0.204,230,10,5.45,-8.06,69,337,103.6,97.8,90,328,98.2,105.9,49,344,5.45,-8.06,67,336,57.6,70.2,60.7,81.7,80.0,84.0,80.0,70.7,53.8,69.7,29.0,24.2,26.4,25.7,22.5,21.4,22.5,24.1,30.7,24.4
north florida,91,12-11-2021,,home,False,12-11-2021-austin-peay-north-florida,287,282,ASun,OVC,2-9,4-3,-10.26,-9.79,98.0,96.9,245,263,108.3,106.7,319,289,70.1,68.4,97,181,-0.01,0.134,199,30,15.93,5.99,4,55,108.7,105.5,4,32,92.8,99.5,2,87,15.93,5.99,4,53,57.1,64.4,55.0,69.0,55.0,51.0,--,--,57.1,64.4,39.7,41.0,36.4,39.1,27.3,41.2,--,--,39.7,41.0
st louis,79,12-11-2021,,home,False,12-11-2021-boston-college-saint-louis,90,115,A10,ACC,7-3,6-3,8.48,5.53,107.0,103.9,77,127,98.6,98.3,107,98,69.2,65.1,139,326,-0.038,-0.077,241,293,0.27,-4.16,177,295,101.5,99.7,188,273,101.2,103.9,159,301,0.27,-6.11,176,313,78.8,68.3,72.3,70.0,59.0,73.0,77.6,73.3,80.3,58.3,22.8,24.9,24.9,27.1,20.3,24.7,22.4,23.9,23.4,27.4
dartmouth,62,12-11-2021,,home,False,12-11-2021-boston-university-dartmouth,265,155,Ivy,Pat,3-4,8-3,-7.78,1.18,95.6,103.1,284,144,103.4,102.0,216,182,65.2,64.9,322,330,0.049,-0.017,103,207,4.28,-2.77,85,262,103.5,98.1,96,324,99.2,100.9,82,139,4.28,-2.77,86,253,65.2,67.0,67.3,65.3,69.0,72.0,69.0,67.0,64.4,67.0,49.1,32.7,46.0,26.0,47.8,33.3,47.8,31.3,49.4,33.3
stony brook,86,12-11-2021,,home,False,12-11-2021-bryant-stony-brook,205,231,AE,NEC,4-4,4-6,-3.29,-4.6,100.2,99.5,200,217,103.5,104.1,218,234,68.7,71.4,164,54,0.09300000000000001,-0.018000000000000002,57,210,0.55,2.54,165,111,104.0,102.1,74,153,103.5,99.6,280,90,0.55,2.54,167,116,69.6,65.7,69.3,59.3,79.0,76.0,70.8,68.5,68.5,64.9,38.8,37.6,43.3,32.0,49.4,31.6,39.2,35.0,38.3,38.3
portland st,58,12-11-2021,,home,False,12-11-2021-cal-poly-portland-state,253,306,BSky,BW,3-4,2-6,-6.76,-12.12,94.7,92.4,298,328,101.5,104.5,169,243,71.5,63.7,49,339,-0.011000000000000001,-0.142,200,339,4.05,-4.27,92,297,104.7,99.9,54,268,100.6,104.2,128,313,5.81,-4.27,59,288,60.2,59.4,61.0,57.7,69.0,51.0,54.0,57.0,61.8,60.4,25.9,24.5,27.9,20.8,30.4,23.5,11.1,21.1,29.1,25.8
fresno st,63,12-11-2021,,home,False,12-11-2021-california-irvine-fresno-state,103,91,MWC,BW,7-2,5-1,6.93,8.46,103.4,103.0,139,149,96.5,94.5,71,53,63.3,66.0,345,299,-0.009000000000000001,0.067,197,85,-3.54,5.68,279,65,99.2,104.8,296,52,102.7,99.2,243,75,-3.54,5.68,273,62,65.8,65.0,62.3,69.7,63.0,69.0,69.3,70.0,62.3,60.0,23.4,28.8,16.0,30.1,14.3,30.4,22.7,30.0,24.1,27.5
st marys,80,12-11-2021,,home,False,12-11-2021-california-santa-barbara-saint-marys-ca,38,104,WCC,BW,8-2,5-2,15.63,6.44,105.4,106.4,100,87,89.8,100.0,10,140,65.2,67.3,323,240,0.07400000000000001,-0.12,73,331,4.98,-14.34,78,357,105.2,92.7,44,358,100.2,107.0,116,352,4.98,-14.34,77,357,66.1,76.0,61.7,78.0,58.0,86.0,72.8,78.8,59.4,65.0,33.1,21.3,30.8,21.8,20.7,24.4,35.4,23.8,30.3,9.2
youngstown st,71,12-11-2021,,home,False,12-11-2021-canisius-youngstown-state,249,283,Horz,MAAC,5-3,2-8,-6.35,-9.9,102.4,97.7,160,254,108.8,107.6,326,310,67.5,69.8,223,116,0.015,0.092,165,58,-8.09,1.2,338,146,98.5,103.0,314,114,106.6,101.8,348,197,-9.77,3.06,347,104,73.8,68.2,78.7,65.0,84.0,62.0,70.5,71.0,77.0,66.0,31.0,35.2,34.3,26.2,39.3,19.4,29.8,35.9,32.1,34.5
providence,68,12-11-2021,,home,False,12-11-2021-central-connecticut-state-providence,53,348,BE,NEC,9-1,2-7,12.86,-20.54,109.5,92.1,44,333,96.6,112.6,75,349,67.0,66.0,254,301,0.165,0.02,15,157,3.42,-1.9,98,233,102.5,99.5,134,287,99.1,101.4,72,165,3.42,-1.9,101,229,71.2,61.4,68.7,67.0,68.0,45.0,76.0,78.0,60.0,56.7,29.1,32.5,27.7,28.4,26.5,26.7,24.8,28.8,41.7,34.0
valparaiso,67,12-11-2021,,home,False,12-11-2021-charlotte-valparaiso,216,232,MVC,CUSA,5-5,4-4,-3.73,-4.89,98.5,101.3,230,187,102.3,106.2,195,280,67.3,66.3,243,292,-0.055,0.16399999999999998,265,16,0.52,0.41,167,174,102.5,102.2,132,148,102.0,101.8,213,199,-1.51,0.41,223,173,66.9,70.3,68.3,70.0,71.0,66.0,65.5,72.0,67.3,68.5,33.6,31.5,35.1,31.4,33.8,27.3,25.2,30.2,36.4,32.8
xavier,83,12-11-2021,,home,False,12-11-2021-cincinnati-xavier,28,69,BE,Amer,8-1,7-2,17.97,10.72,110.0,103.4,39,137,92.0,92.7,29,38,71.3,67.3,59,242,0.105,-0.044000000000000004,42,248,0.8,-1.62,154,228,101.7,100.4,175,243,100.9,102.0,141,212,0.8,-1.62,157,225,75.0,70.6,83.7,63.7,96.0,73.0,78.2,73.0,68.7,65.7,33.8,28.8,35.9,28.3,37.5,20.5,36.5,26.0,27.7,35.0
albany,60,12-11-2021,,home,False,12-11-2021-columbia-albany-ny,313,347,AE,Ivy,1-7,3-7,-12.92,-20.15,90.3,93.3,345,320,103.2,113.5,211,351,67.4,68.8,235,159,0.027000000000000003,0.02,140,158,2.88,-6.36,103,326,102.9,97.6,119,331,100.0,104.0,104,305,2.88,-6.36,108,318,57.1,66.6,53.0,66.0,52.0,61.0,54.5,69.8,58.0,64.0,27.6,29.0,28.3,24.2,34.6,29.5,22.0,28.0,29.3,30.0
dixie st,82,12-11-2021,,home,False,12-11-2021-denver-dixie-state,311,330,WAC,Sum,4-5,3-8,-12.48,-16.08,96.8,93.0,265,324,109.3,109.1,332,329,73.9,66.8,6,263,0.036000000000000004,-0.138,122,337,8.05,-4.78,22,306,106.1,98.7,19,310,98.0,103.4,46,277,8.05,-4.78,24,297,70.8,65.6,71.3,63.0,70.0,67.0,76.5,74.0,68.0,64.5,26.8,32.0,25.2,30.2,30.0,31.3,25.5,16.2,27.6,34.3
clemson,90,12-11-2021,,home,False,12-11-2021-drake-clemson,50,75,ACC,MVC,5-4,6-3,13.14,10.04,109.4,108.0,46,64,96.2,98.0,66,95,66.7,67.9,272,202,-0.145,-0.04,342,243,2.24,-0.22,117,188,102.7,102.8,124,122,100.5,103.0,125,261,0.57,1.35,165,143,73.6,73.9,76.7,75.0,75.0,78.0,81.0,79.8,67.6,68.0,34.9,33.0,32.6,34.7,36.0,42.3,36.1,34.8,33.7,30.9
abilene christian,73,12-11-2021,,home,False,12-11-2021-drexel-abilene-christian,156,172,WAC,CAA,5-2,4-4,1.13,-0.16,99.9,104.1,209,123,98.8,104.3,112,239,69.0,67.5,151,230,-0.124,-0.105,334,318,1.93,0.43,127,173,101.8,103.7,172,86,99.9,103.3,101,270,1.93,0.43,129,172,78.5,74.4,86.0,76.3,98.0,79.0,98.0,86.0,72.0,72.5,31.5,28.2,33.7,30.1,36.7,30.4,36.7,20.9,29.2,29.7
butler,66,12-11-2021,,home,False,12-11-2021-eastern-illinois-butler,78,349,BE,OVC,6-3,2-8,9.76,-21.47,104.7,86.8,107,354,94.9,108.2,55,318,63.4,68.3,343,190,0.038,-0.09,118,307,2.68,-1.28,105,220,100.8,100.2,223,251,98.1,101.4,48,171,2.68,-1.28,112,216,61.6,51.1,56.0,47.7,66.0,44.0,65.8,57.5,56.0,49.0,41.1,34.5,37.5,29.4,31.8,27.3,43.3,28.7,37.5,36.7
north dakota,60,12-11-2021,,home,False,12-11-2021-eastern-washington-north-dakota,337,206,Sum,BSky,3-7,4-5,-17.89,-3.31,96.1,101.8,277,176,113.9,105.1,355,252,68.8,72.4,156,29,0.07200000000000001,0.012,78,168,-3.27,4.11,275,89,99.6,103.6,277,92,102.9,99.5,256,85,-3.27,4.95,268,78,64.9,74.3,54.7,75.0,71.0,57.0,69.5,76.0,63.6,74.0,34.4,37.4,27.4,37.3,29.6,36.8,36.7,43.4,33.7,36.5
north carolina,80,12-11-2021,,home,False,12-11-2021-elon-north-carolina,29,267,ACC,CAA,6-2,2-7,17.83,-8.14,114.7,99.6,9,216,96.8,107.8,80,313,69.8,70.7,115,74,0.022000000000000002,-0.0,148,182,6.87,6.0,42,54,104.8,103.2,51,109,98.0,97.2,42,23,5.44,6.0,68,52,81.3,66.0,74.3,73.0,79.0,77.0,80.3,79.0,82.3,60.8,32.8,41.6,33.6,49.3,38.0,46.8,29.9,51.3,35.6,36.5
robert morris,74,12-11-2021,,home,False,12-11-2021-florida-gulf-coast-robert-morris,304,196,Horz,ASun,1-7,8-3,-11.6,-2.26,97.2,100.3,260,197,108.8,102.6,327,201,69.7,71.8,120,43,-0.094,0.12300000000000001,311,37,7.13,-3.97,35,291,105.3,99.3,40,291,98.2,103.3,50,269,12.21,-3.97,8,282,65.3,73.9,65.7,69.3,69.0,69.0,70.0,76.3,64.5,69.0,30.2,42.0,36.5,33.2,43.5,52.2,21.4,39.3,31.8,47.8
eastern michigan,92,12-11-2021,,home,False,12-11-2021-florida-international-eastern-michigan,270,248,MAC,CUSA,4-5,8-1,-8.24,-5.98,96.8,96.3,266,274,105.1,102.2,251,194,71.1,67.4,61,236,0.091,0.046,59,106,4.7,-8.99,80,344,103.5,97.8,99,327,98.8,106.8,66,351,4.7,-8.99,80,342,70.8,69.9,65.7,77.7,60.0,72.0,78.3,74.5,66.2,65.3,27.0,40.3,21.3,39.9,15.0,41.7,20.4,38.3,31.7,42.5
vmi,64,12-11-2021,,home,False,12-11-2021-gardner-webb-virginia-military-institute,243,198,SC,BSth,6-4,4-5,-5.61,-2.85,103.1,99.6,145,214,108.7,102.5,325,197,68.1,69.0,198,152,-0.087,-0.152,305,345,-5.75,4.45,319,82,98.4,104.1,318,70,104.1,99.6,312,93,-5.75,4.45,308,83,74.7,67.3,83.3,68.3,89.0,70.0,--,80.0,74.7,57.8,45.9,35.7,48.0,38.0,40.4,34.3,--,38.8,45.9,32.5
mercer,77,12-11-2021,,home,False,12-11-2021-georgia-southern-mercer,193,214,SC,SB,6-4,5-3,-2.11,-3.62,104.4,96.9,112,264,106.5,100.5,286,148,65.2,65.3,325,320,0.131,-0.055999999999999994,34,268,2.38,0.95,114,148,103.4,101.4,101,192,101.0,100.5,148,123,2.38,0.95,118,153,71.3,63.8,76.7,54.0,74.0,51.0,83.0,82.0,69.6,60.2,37.9,27.4,35.2,27.8,44.6,29.4,28.9,25.6,39.4,27.9
incarnate word,72,12-11-2021,,home,False,12-11-2021-grambling-incarnate-word,356,326,Slnd,SWAC,1-8,3-6,-23.9,-15.34,92.4,91.0,330,339,116.3,106.3,357,282,67.7,68.8,211,157,-0.027000000000000003,0.001,225,180,1.61,8.13,136,21,102.3,104.4,139,61,100.7,96.2,130,11,1.61,8.13,139,23,64.6,59.9,65.7,65.3,65.0,59.0,66.3,--,62.3,59.9,35.8,29.4,30.5,27.6,23.1,25.4,34.0,--,38.5,29.4
unlv,95,12-11-2021,,home,False,12-11-2021-hartford-nevada-las-vegas,138,260,MWC,AE,5-5,1-7,2.52,-7.31,101.7,99.2,178,221,99.2,106.5,117,284,66.8,68.4,264,178,0.079,-0.11900000000000001,68,328,7.5,-0.53,29,196,105.2,100.5,45,238,97.7,101.1,29,151,7.5,-0.53,29,191,63.3,67.1,67.3,67.3,76.0,68.0,62.0,70.0,65.0,66.7,35.3,36.3,40.1,34.2,43.4,17.6,31.9,30.0,39.2,37.3
cal st bakersfield,59,12-11-2021,,home,False,12-11-2021-idaho-cal-state-bakersfield,204,343,BW,BSky,3-2,2-7,-3.17,-19.19,97.8,94.3,252,303,101.0,113.5,156,352,66.7,71.9,267,41,0.05,-0.11699999999999999,102,327,13.25,0.55,6,164,107.9,102.0,6,158,94.7,101.5,8,174,13.25,0.75,6,160,56.0,70.8,56.0,82.0,46.0,98.0,--,80.8,56.0,60.8,23.2,35.5,23.2,35.4,19.6,39.8,--,39.9,23.2,29.6
central michigan,67,12-11-2021,,home,False,12-11-2021-illinois-chicago-central-michigan,324,272,MAC,Horz,1-8,2-6,-15.2,-8.44,96.7,97.4,268,258,111.9,105.8,345,269,68.6,68.2,172,194,0.021,0.026000000000000002,153,145,8.25,2.64,20,107,106.5,102.9,15,117,98.2,100.3,51,117,8.25,5.83,21,58,63.1,65.1,64.0,61.7,77.0,56.0,70.0,66.5,62.3,64.6,40.7,40.8,37.5,30.8,39.0,37.5,47.1,36.1,39.8,42.7
chicago st,71,12-11-2021,,home,False,12-11-2021-illinois-state-chicago-state,355,238,WAC,MVC,3-5,4-5,-23.9,-5.32,86.3,99.9,355,208,110.2,105.3,339,258,69.1,70.8,144,72,0.094,0.059000000000000004,56,92,-1.96,-2.33,235,248,101.6,101.1,185,208,103.5,103.4,282,279,-1.96,-3.74,232,276,61.0,79.5,60.0,74.7,59.0,55.0,67.7,74.4,57.0,88.0,41.2,32.5,40.0,38.8,30.5,21.8,35.5,32.3,45.3,33.0
stephen f austin,63,12-11-2021,,home,False,12-11-2021-liberty-stephen-f-austin,146,113,WAC,ASun,7-2,5-3,1.91,5.59,101.6,104.2,179,117,99.7,98.6,128,109,70.6,63.1,80,349,0.141,-0.055999999999999994,23,267,0.34,-7.64,176,335,104.0,95.9,71,348,103.7,103.6,291,284,0.34,-7.64,175,334,75.4,66.0,73.0,78.3,72.0,96.0,79.0,78.3,73.0,56.8,19.1,44.8,15.1,51.1,29.2,65.6,24.7,51.1,15.1,38.3
louisiana tech,78,12-11-2021,,home,False,12-11-2021-louisiana-lafayette-louisiana-tech,84,189,CUSA,SB,6-2,5-3,9.08,-1.74,109.0,98.0,51,244,99.9,99.7,135,130,69.6,73.7,126,10,0.11599999999999999,0.004,38,175,0.65,-4.96,161,310,101.6,97.2,183,334,100.9,102.2,142,223,0.65,-4.96,164,300,79.9,70.3,82.0,77.7,78.0,83.0,84.3,77.7,76.5,63.0,31.1,32.0,28.0,29.6,26.9,39.8,34.4,29.6,28.4,34.9
quinnipiac,73,12-11-2021,,home,False,12-11-2021-maine-quinnipiac,254,350,MAAC,AE,5-4,2-5,-6.86,-21.52,98.7,85.7,229,356,105.6,107.2,265,298,71.5,67.5,50,224,0.044000000000000004,-0.046,111,252,-6.08,0.45,322,172,97.0,101.8,337,171,103.1,101.4,263,167,-6.38,0.45,319,171,71.5,50.8,73.7,53.7,72.0,66.0,68.0,56.0,75.0,49.5,36.7,23.6,33.9,20.5,54.2,31.8,34.2,10.7,39.0,27.3
utah,96,12-11-2021,,home,False,12-11-2021-manhattan-utah,80,255,P12,MAAC,6-3,6-2,9.54,-6.9,107.0,96.1,78,275,97.4,103.0,84,207,68.7,68.6,166,170,0.021,0.223,154,5,2.17,-7.05,119,332,101.7,96.7,176,339,99.5,103.8,88,293,-1.03,-6.28,208,317,72.2,69.0,67.0,76.0,62.0,73.0,75.0,72.3,68.8,66.5,30.0,18.6,31.3,18.4,14.5,24.7,31.2,16.6,28.4,20.3
eastern kentucky,69,12-11-2021,,home,False,12-11-2021-marshall-eastern-kentucky,186,122,ASun,CUSA,5-5,6-3,-1.31,4.48,103.4,107.5,138,70,104.7,103.0,246,208,73.4,75.3,15,2,-0.19,-0.052000000000000005,352,260,0.48,-1.91,169,234,99.6,99.5,276,281,99.1,101.4,74,172,0.48,-1.91,169,230,76.8,81.6,74.3,79.0,68.0,72.0,79.0,81.2,75.4,82.5,49.3,22.6,51.1,27.8,44.1,25.0,45.6,20.0,51.7,29.1
north texas,66,12-11-2021,,home,False,12-11-2021-massachusetts-north-texas,111,123,CUSA,A10,4-3,6-4,5.71,4.44,101.6,111.8,182,25,95.9,107.4,63,304,62.0,69.6,354,127,-0.161,0.028999999999999998,349,138,7.66,-0.47,23,194,106.9,100.9,12,221,99.2,101.3,80,164,7.66,-0.47,25,189,61.8,82.1,59.7,82.7,57.0,76.0,65.0,84.4,59.7,79.8,37.9,43.8,36.9,52.0,26.3,47.4,39.2,39.1,36.9,48.9
tennessee martin,75,12-11-2021,,home,False,12-11-2021-middle-tennessee-tennessee-martin,344,219,OVC,CUSA,3-6,7-2,-19.31,-3.85,92.4,97.4,327,256,111.7,101.2,344,163,69.8,70.9,111,67,0.043,-0.019,114,212,2.49,-6.52,112,327,102.6,99.1,128,299,100.1,105.6,108,340,2.49,-6.52,117,321,66.3,74.7,63.7,80.7,64.0,87.0,77.0,73.3,64.5,75.8,31.7,32.1,31.4,37.2,14.1,44.8,35.1,30.0,31.0,33.7
michigan,65,12-11-2021,,home,False,12-11-2021-minnesota-michigan,11,92,B10,B10,6-3,7-1,22.72,8.25,112.7,103.9,21,125,90.0,95.6,11,61,67.6,66.9,220,257,0.009000000000000001,0.107,170,40,8.38,0.76,16,157,105.5,101.9,35,162,97.1,101.2,22,154,8.17,-1.58,22,224,72.9,70.8,75.0,67.3,102.0,67.0,72.5,67.8,73.2,73.8,28.8,32.3,41.3,37.1,44.1,26.9,26.9,28.8,30.3,35.6
colorado st,66,12-11-2021,,home,False,12-11-2021-mississippi-state-colorado-state,40,48,MWC,SEC,9-0,6-2,15.43,13.79,113.9,110.3,13,35,98.5,96.5,104,73,69.6,66.0,125,303,0.027000000000000003,-0.046,143,251,-4.04,-2.82,293,265,99.1,100.0,298,263,103.2,102.8,267,251,-4.04,-2.82,284,255,85.0,74.4,82.7,77.7,74.0,76.0,89.6,75.8,77.3,70.0,32.6,27.2,31.5,27.0,36.5,35.5,30.1,31.6,37.5,12.9
st thomas,65,12-11-2021,,home,False,12-11-2021-montana-state-st-thomas-mn,298,165,Sum,BSky,4-5,6-4,-11.12,0.25,104.2,102.3,119,165,115.3,102.1,356,185,65.7,68.2,311,193,-0.11599999999999999,-0.046,324,250,-3.64,-2.81,283,264,99.0,101.9,303,166,102.6,104.7,240,327,-3.64,-3.01,274,260,75.8,75.6,71.3,70.3,64.0,68.0,--,68.0,75.8,76.5,52.5,36.2,53.3,31.3,65.6,30.9,--,30.9,52.5,36.8
east tennessee st,82,12-11-2021,,home,False,12-11-2021-morehead-state-east-tennessee-state,126,145,SC,OVC,6-3,6-3,4.09,2.0,103.5,102.3,135,166,99.4,100.3,121,145,65.6,65.5,315,317,0.131,0.10400000000000001,33,46,8.29,5.8,19,62,105.8,104.2,23,65,97.5,98.4,27,57,8.29,5.8,20,60,63.0,63.7,63.3,66.7,56.0,71.0,56.0,65.0,64.2,63.2,40.1,37.7,41.1,42.0,37.5,46.5,32.1,46.2,41.3,34.2
longwood,93,12-11-2021,,home,False,12-11-2021-morgan-state-longwood,200,294,BSth,MEAC,5-4,4-5,-2.92,-10.76,99.7,95.1,213,295,102.6,105.8,200,270,66.1,71.6,298,47,-0.16399999999999998,-0.052000000000000005,350,261,-5.45,-2.18,315,241,99.8,99.5,269,283,105.3,101.7,338,190,-5.45,-2.18,303,237,73.1,63.7,74.0,62.0,78.0,60.0,73.8,--,72.3,63.7,35.7,26.7,39.2,14.5,42.3,5.0,34.6,--,37.3,26.7
duquesne,64,12-11-2021,,home,False,12-11-2021-new-hampshire-duquesne,224,202,A10,AE,3-7,4-3,-4.08,-3.02,100.0,100.4,207,196,104.0,103.4,232,217,66.7,62.9,274,350,-0.065,-0.07,279,285,-0.59,-3.09,199,271,101.6,100.7,177,231,102.2,103.8,227,294,-0.59,-3.09,194,263,70.0,68.0,69.3,65.3,67.0,59.0,70.6,75.5,69.4,64.3,29.6,39.0,33.2,39.8,26.9,50.8,28.9,29.8,30.3,44.4
loyola marymount,58,12-11-2021,,home,False,12-11-2021-new-mexico-state-loyola-marymount,110,116,WCC,WAC,6-3,7-2,5.97,5.41,107.0,107.0,79,80,101.0,101.5,158,171,67.5,66.2,232,293,0.165,0.203,14,11,-0.25,1.79,190,131,102.0,102.3,160,145,102.2,100.5,226,124,-0.25,1.79,187,135,69.9,74.5,69.7,81.3,60.0,78.0,75.3,77.7,64.5,72.6,30.6,32.2,31.6,18.4,30.0,7.7,27.9,30.9,33.7,33.1
utah st,82,12-11-2021,,home,False,12-11-2021-new-orleans-utah-state,62,302,MWC,Slnd,6-3,3-6,11.45,-11.35,107.9,97.2,68,261,96.4,108.5,70,323,68.4,71.9,184,36,-0.07400000000000001,-0.11599999999999999,288,325,5.2,0.65,71,160,103.9,101.9,79,163,98.7,101.3,63,162,5.2,0.65,71,163,76.0,71.6,69.7,70.3,71.0,67.0,69.0,78.3,80.2,65.0,34.5,19.4,35.9,21.3,42.3,13.4,33.3,19.2,35.2,19.6
wichita st,71,12-11-2021,,home,False,12-11-2021-norfolk-state-wichita-state,56,268,Amer,MEAC,6-2,9-2,12.25,-8.15,104.3,95.5,115,288,92.1,103.7,31,224,68.8,71.1,162,62,0.027000000000000003,0.215,139,7,5.37,-8.48,70,342,102.3,96.2,141,345,97.0,104.6,20,326,5.37,-8.48,69,340,65.1,70.8,60.0,67.0,59.0,57.0,62.0,91.0,68.3,67.9,35.7,18.6,28.3,19.4,25.4,15.8,31.5,23.1,39.6,17.7
western carolina,72,12-11-2021,,home,False,12-11-2021-north-carolina-asheville-western-carolina,291,269,SC,BSth,6-4,5-4,-10.7,-8.15,97.8,97.9,250,248,108.5,106.0,322,275,69.0,68.6,147,173,0.19,0.096,13,54,-2.83,2.16,266,121,100.5,104.0,240,72,103.3,101.9,274,201,-2.83,2.16,256,124,73.7,65.1,70.3,73.3,74.0,73.0,76.5,73.3,72.9,59.0,47.5,30.3,41.2,28.6,44.6,37.0,45.1,28.6,48.2,31.8
ucf,83,12-11-2021,,home,False,12-11-2021-north-carolina-at-central-florida,57,259,Amer,BSth,5-2,3-7,12.2,-7.29,108.1,95.6,61,287,95.9,102.9,65,205,68.2,69.8,191,108,0.006,-0.08,173,297,-1.03,2.02,211,125,100.7,100.9,232,214,101.7,98.9,188,67,-1.03,2.02,206,126,73.3,63.5,70.3,73.0,81.0,71.0,68.8,--,79.3,63.5,33.9,36.6,34.1,38.4,33.3,33.8,36.0,--,31.5,36.6
jacksonville,77,12-11-2021,,home,False,12-11-2021-north-carolina-wilmington-jacksonville,262,284,ASun,CAA,4-3,3-4,-7.47,-10.05,93.7,97.8,313,253,101.1,107.8,161,315,66.7,66.7,271,266,-0.01,-0.054000000000000006,198,263,1.88,-7.77,129,336,101.5,96.2,190,343,99.6,104.0,91,308,1.88,-7.77,132,335,57.2,63.5,56.3,67.3,58.0,69.0,63.0,67.0,55.8,61.8,25.2,37.0,19.5,41.6,25.9,30.4,19.0,31.3,26.9,40.1
south dakota,76,12-11-2021,,home,False,12-11-2021-northern-arizona-south-dakota,239,319,Sum,BSky,5-4,4-5,-5.33,-13.6,98.9,95.7,226,283,104.2,109.3,237,331,68.3,67.6,189,216,0.063,0.10099999999999999,86,49,-3.41,-1.61,276,227,99.6,100.5,280,242,103.0,102.1,259,219,-3.41,-3.09,269,264,64.9,66.3,63.7,57.7,69.0,73.0,77.0,70.0,60.0,64.0,30.4,32.3,42.4,31.2,26.1,37.0,17.5,38.6,37.0,28.1
stetson,45,12-11-2021,,home,False,12-11-2021-ohio-stetson,241,105,ASun,MAC,2-5,6-2,-5.45,6.42,99.8,106.2,211,89,105.3,99.8,259,133,67.7,68.4,209,182,0.021,0.135,152,27,2.57,2.57,109,110,104.0,103.4,75,100,101.4,100.8,170,137,2.57,2.57,114,115,62.2,72.1,65.3,67.3,65.0,78.0,58.0,82.0,63.0,59.0,35.4,41.0,32.1,37.1,9.2,34.6,62.1,33.8,30.5,54.2
missouri st,69,12-11-2021,,home,False,12-11-2021-oral-roberts-missouri-state,68,169,MVC,Sum,5-4,5-4,10.77,0.06,111.0,105.9,29,91,100.2,105.8,143,271,67.2,69.7,245,118,-0.215,-0.105,356,317,-5.05,1.74,311,133,98.4,102.6,316,131,103.4,100.8,276,136,-5.72,1.74,306,137,79.1,76.5,74.3,78.3,81.0,85.0,80.0,82.0,78.7,73.8,35.4,49.7,37.7,57.4,59.3,42.4,25.0,58.5,40.7,44.7
san jose st,78,12-11-2021,,home,False,12-11-2021-pacific-san-jose-state,295,176,MWC,WCC,4-4,4-5,-10.96,-0.62,96.1,98.9,276,225,107.1,99.5,296,123,67.1,66.3,248,286,0.062,-0.228,88,357,-1.27,-7.29,219,333,102.5,97.4,133,333,103.8,104.7,298,328,-1.27,-7.29,215,330,66.5,64.6,68.7,62.7,69.0,57.0,72.5,70.7,60.5,60.0,40.6,27.9,40.8,30.3,30.4,26.3,45.5,34.0,34.7,22.5
la salle,76,12-11-2021,,home,False,12-11-2021-pennsylvania-la-salle,225,217,A10,Ivy,4-4,3-9,-4.28,-3.73,97.5,103.7,255,128,101.8,107.5,175,305,69.7,67.6,121,218,-0.005,-0.059000000000000004,188,272,-7.62,7.54,334,27,98.7,106.0,307,20,106.3,98.5,347,59,-7.62,7.54,333,27,69.9,68.7,74.0,66.3,81.0,71.0,74.8,70.5,61.7,68.3,34.9,41.1,35.1,42.2,48.1,25.4,36.9,51.1,30.8,39.1
lafayette,73,12-11-2021,,home,False,12-11-2021-princeton-lafayette,296,152,Pat,Ivy,2-7,7-3,-10.99,1.38,96.0,106.6,278,86,107.0,105.2,295,255,67.6,67.5,215,228,-0.065,0.043,280,113,0.8,-1.32,155,221,103.5,101.5,95,187,102.7,102.9,244,252,0.8,-1.32,158,218,66.3,77.8,70.3,80.0,58.0,82.0,79.3,83.0,59.8,73.6,47.7,40.3,51.2,37.5,51.7,36.6,50.4,38.0,46.0,42.4
james madison,79,12-11-2021,,home,False,12-11-2021-radford-james-madison,167,258,CAA,BSth,8-2,4-5,0.23,-7.19,99.8,94.1,212,307,99.5,101.3,124,164,70.8,68.3,69,188,0.24,0.02,3,159,1.74,7.12,132,37,103.0,105.1,116,47,101.2,98.0,158,41,1.74,7.12,136,36,66.8,56.3,61.0,68.7,52.0,51.0,59.0,77.5,71.4,47.8,28.7,31.2,34.4,35.0,23.1,35.3,33.9,34.8,26.1,28.9
houston baptist,73,12-11-2021,,home,False,12-11-2021-rice-houston-baptist,352,168,Slnd,CUSA,3-5,5-4,-22.05,0.21,91.5,107.4,337,74,113.5,107.2,353,297,69.3,69.7,136,117,-0.037000000000000005,0.045,237,108,9.51,-2.43,14,253,106.3,99.2,16,297,96.8,101.6,16,182,9.51,-2.43,16,246,51.0,77.1,56.0,72.0,67.0,69.0,67.0,77.3,47.0,77.0,27.1,39.9,21.4,47.2,26.9,52.2,26.9,40.1,27.1,39.7
california,72,12-11-2021,,home,False,12-11-2021-santa-clara-california,112,86,P12,WCC,5-5,7-3,5.7,8.91,101.6,108.4,180,59,95.9,99.5,64,122,65.7,70.5,310,81,-0.043,-0.08900000000000001,245,306,2.44,-0.93,113,209,102.2,100.8,149,224,99.8,101.7,95,192,1.32,-0.93,144,204,65.6,78.9,67.7,77.7,72.0,88.0,71.2,81.5,57.3,68.5,24.7,28.5,20.7,21.9,20.8,20.5,28.1,26.2,18.3,39.4
holy cross,59,12-11-2021,,home,False,12-11-2021-siena-holy-cross,346,290,Pat,MAAC,2-8,3-6,-19.87,-10.64,93.4,94.6,317,299,113.3,105.3,350,260,67.8,65.3,205,321,-0.013000000000000001,0.079,203,70,-3.04,-0.47,269,193,100.0,101.3,262,203,103.1,101.7,262,191,-3.04,1.01,261,151,60.5,63.6,63.7,71.7,59.0,60.0,55.0,65.3,61.3,62.2,28.5,37.2,29.8,33.5,35.6,40.0,38.2,36.8,27.3,37.6
wake forest,79,12-11-2021,,home,False,12-11-2021-south-carolina-upstate-wake-forest,59,334,ACC,BSth,8-1,2-6,11.85,-16.98,108.4,92.4,60,329,96.5,109.4,72,333,70.5,68.8,85,160,0.053,0.012,99,169,-4.34,-4.79,299,307,98.8,99.3,306,292,103.1,104.1,264,311,-7.53,-4.79,332,298,81.8,66.3,72.7,71.7,80.0,73.0,85.8,71.7,73.7,62.3,31.8,34.3,31.7,37.7,26.3,41.1,34.4,37.7,25.8,31.3
washington st,74,12-11-2021,,home,False,12-11-2021-south-dakota-state-washington-state,39,97,P12,Sum,7-2,8-3,15.53,7.61,108.5,113.3,57,15,93.0,105.7,43,268,67.5,72.7,227,24,-0.06,0.042,275,115,-2.74,-0.34,261,191,100.6,101.6,234,179,103.3,102.0,271,210,-7.15,-0.34,328,188,79.4,87.1,68.7,87.7,94.0,84.0,79.3,90.3,80.0,85.5,32.7,34.4,40.8,35.4,41.5,28.6,33.0,34.3,31.9,34.5
ipfw,78,12-11-2021,,home,False,12-11-2021-southeast-missouri-state-ipfw,278,285,Horz,OVC,4-5,5-4,-9.34,-10.13,100.1,98.9,203,227,109.4,109.0,334,328,68.4,71.9,186,38,0.039,0.14,117,24,-5.54,-6.88,317,330,99.1,99.8,301,272,104.6,106.6,325,349,-5.77,-6.88,309,326,69.3,75.4,67.7,70.3,59.0,75.0,69.7,71.3,69.0,78.5,33.0,30.7,32.5,32.7,30.5,28.0,31.6,28.0,33.9,32.5
southern,72,12-11-2021,,home,False,12-11-2021-southeastern-louisiana-southern,292,309,SWAC,Slnd,4-6,4-5,-10.72,-12.43,93.4,94.9,318,297,104.1,107.4,233,300,72.0,70.1,35,98,0.105,-0.022000000000000002,43,217,7.16,-0.54,33,197,105.1,102.1,46,154,98.0,102.6,44,241,7.16,-0.54,33,192,66.4,69.0,69.3,73.3,64.0,72.0,--,--,66.4,69.0,31.6,33.3,31.7,38.2,23.4,25.0,--,--,31.6,33.3
tulsa,69,12-11-2021,,home,False,12-11-2021-southern-illinois-tulsa,151,134,Amer,MVC,4-5,5-3,1.42,3.31,102.0,103.0,171,146,100.5,99.7,147,129,66.3,62.0,290,355,-0.057,-0.027999999999999997,270,227,-1.13,-4.32,213,298,101.3,98.0,200,326,102.4,102.3,235,228,-1.13,-5.1,210,301,67.7,62.4,64.3,60.7,55.0,66.0,67.2,67.0,68.3,59.6,30.0,31.9,32.6,29.7,16.4,40.9,28.6,28.4,31.9,34.2
delaware st,61,12-11-2021,,home,False,12-11-2021-st-francis-ny-delaware-state,354,328,MEAC,NEC,2-7,1-8,-23.74,-15.58,88.4,92.0,351,334,112.1,107.6,346,309,69.4,69.8,132,112,-0.079,-0.021,295,216,-2.65,-0.16,258,187,100.2,100.7,249,227,102.9,100.9,253,140,-2.65,-0.16,250,185,57.8,62.0,55.3,57.3,60.0,71.0,55.5,64.0,59.0,61.4,28.5,29.6,36.1,27.9,50.0,25.4,16.2,32.8,34.3,28.6
georgetown,79,12-11-2021,,home,False,12-11-2021-syracuse-georgetown,108,61,BE,ACC,4-4,5-4,6.03,11.45,105.6,112.1,96,23,99.6,100.6,126,149,72.3,70.2,31,92,-0.094,0.059000000000000004,309,91,-5.46,8.65,316,15,97.7,105.5,330,33,103.1,96.8,266,18,-5.46,6.87,304,39,76.3,77.8,86.0,76.0,100.0,53.0,82.6,92.3,65.7,66.2,34.4,32.1,32.6,35.5,39.0,28.3,36.3,33.3,30.5,30.8
st josephs,68,12-11-2021,,home,False,12-11-2021-temple-saint-josephs,201,121,A10,Amer,5-4,6-3,-2.94,4.52,100.9,104.2,190,116,103.8,99.7,228,127,70.2,66.8,93,261,0.07400000000000001,0.133,77,32,-3.16,0.46,272,171,100.3,101.9,247,168,103.5,101.4,281,168,-3.16,0.46,266,170,71.1,69.9,69.7,75.3,78.0,72.0,76.0,74.4,61.3,64.3,38.4,25.3,37.3,22.6,46.2,25.0,38.2,24.2,39.1,26.8
nebraska omaha,73,12-11-2021,,home,False,12-11-2021-texas-am-corpus-christi-nebraska-omaha,333,323,Sum,Slnd,1-8,8-1,-16.65,-14.53,94.0,92.1,309,332,110.7,106.6,340,288,67.8,70.7,204,76,-0.14800000000000002,0.262,344,1,6.41,-9.4,47,346,105.4,96.1,38,346,98.9,105.5,68,339,6.41,-9.4,45,345,59.5,72.3,72.0,78.3,70.0,75.0,72.0,75.0,52.0,71.8,37.8,19.4,34.7,17.9,30.0,28.0,34.7,28.0,40.4,17.5
texas a&m,64,12-11-2021,,home,False,12-11-2021-texas-christian-texas-am,64,72,SEC,B12,7-1,7-1,11.35,10.53,104.7,105.8,105,93,93.4,95.3,47,56,66.7,66.4,269,281,0.07400000000000001,0.084,74,65,-5.92,-6.69,320,328,98.6,98.2,312,323,104.5,104.9,323,335,-5.92,-6.69,311,324,72.1,72.1,71.7,71.7,85.0,76.0,77.8,72.4,62.7,71.7,31.2,23.4,27.9,22.3,38.8,19.7,31.6,24.9,30.3,20.9
sam houston st,73,12-11-2021,,home,False,12-11-2021-texas-san-antonio-sam-houston-state,218,280,WAC,CUSA,3-5,5-4,-3.78,-9.54,98.2,97.8,238,251,102.0,107.4,184,302,67.6,69.9,214,105,-0.094,0.134,312,28,7.53,-11.19,28,354,106.6,94.6,13,355,99.1,105.8,73,342,7.53,-11.19,28,354,63.2,65.0,60.7,69.3,57.0,71.0,55.0,68.8,64.8,57.5,42.7,30.8,39.6,24.5,42.1,25.4,43.6,28.4,42.6,36.5
richmond,72,12-11-2021,,home,False,12-11-2021-toledo-richmond,63,124,A10,MAC,5-4,7-2,11.42,4.4,109.8,108.7,40,56,98.4,104.3,100,240,67.7,69.5,213,131,-0.055999999999999994,0.213,269,8,6.17,0.93,49,149,105.7,101.3,25,202,99.6,100.3,89,118,6.17,0.93,47,154,74.8,73.6,68.0,71.3,60.0,67.0,81.7,74.0,71.3,73.5,39.7,24.4,36.8,25.2,45.0,22.4,42.9,24.3,37.9,24.5
coppin st,75,12-11-2021,,home,False,12-11-2021-towson-coppin-state,315,142,MEAC,CAA,1-12,6-4,-13.2,2.1,92.8,104.6,325,108,106.0,102.5,277,199,71.8,65.6,44,316,-0.155,-0.086,347,302,6.13,-1.23,51,217,104.5,100.7,56,230,98.4,101.9,55,205,6.13,-1.23,49,213,64.3,71.4,73.3,73.0,62.0,74.0,71.0,74.3,63.8,69.5,37.0,29.8,38.2,38.4,38.7,48.6,42.3,20.2,36.5,36.7
tennessee tech,72,12-11-2021,,home,False,12-11-2021-troy-tennessee-tech,281,251,OVC,SB,2-7,5-4,-9.58,-6.65,95.9,95.3,281,290,105.5,102.0,262,183,69.0,69.1,146,145,-0.075,0.052000000000000005,290,100,4.07,-3.54,91,278,104.4,100.2,59,253,100.4,103.7,119,290,4.07,-3.54,90,272,65.5,68.0,61.7,65.3,69.0,68.0,76.5,68.5,61.8,67.8,24.0,27.7,22.7,29.1,26.1,26.5,27.5,24.1,22.6,29.2
wyoming,74,12-11-2021,,home,False,12-11-2021-utah-valley-wyoming,114,159,MWC,WAC,8-1,7-2,5.58,0.82,106.9,100.0,82,206,101.3,99.2,166,116,66.3,67.1,287,250,0.13,0.085,35,63,-4.78,-1.23,305,216,98.6,100.8,311,222,103.4,102.1,275,217,-4.78,-1.23,296,212,76.9,73.5,73.7,68.3,65.0,56.0,81.5,74.5,72.3,73.2,27.3,19.9,27.1,17.6,36.9,26.8,26.7,14.1,28.0,21.9
old dominion,66,12-11-2021,,home,False,12-11-2021-virginia-commonwealth-old-dominion,177,94,CUSA,A10,5-5,5-4,-0.78,8.19,98.4,96.5,232,271,99.2,88.3,118,3,63.3,67.7,346,212,-0.006999999999999999,0.004,192,174,-1.85,5.78,231,63,100.7,105.0,225,49,102.6,99.2,239,79,-1.85,5.78,228,61,61.0,58.3,65.3,64.7,74.0,66.0,70.5,57.2,58.3,59.8,20.2,25.1,21.4,24.7,24.3,18.2,17.0,21.0,21.3,30.1
mississippi,48,12-11-2021,,home,False,12-11-2021-western-kentucky-mississippi,65,127,SEC,CUSA,6-2,5-4,11.14,4.08,103.4,103.5,140,136,92.3,99.4,34,120,66.6,70.3,279,89,-0.044000000000000004,-0.054000000000000006,247,264,-8.17,-3.8,341,286,96.6,98.6,342,313,104.8,102.4,331,231,-8.17,-3.8,339,278,73.3,74.4,71.7,77.7,67.0,67.0,78.0,80.0,65.3,65.0,29.2,27.7,32.1,21.9,35.8,13.4,33.1,26.3,21.4,30.8
detroit mercy,83,12-11-2021,,home,False,12-11-2021-western-michigan-detroit-mercy,223,317,Horz,MAC,2-7,3-5,-4.06,-13.5,102.9,97.4,150,257,107.0,110.9,294,341,66.9,67.0,258,251,-0.095,0.098,313,51,6.92,2.28,39,115,105.2,103.5,42,97,98.3,101.2,53,160,11.08,2.28,10,120,64.0,68.0,61.7,78.0,52.0,60.0,--,60.0,64.0,69.6,41.1,38.2,37.3,41.0,46.2,30.0,--,30.0,41.1,39.7
