boxscore,away_name,away_abbr,away_score,away_rank,home_name,home_abbr,home_score,home_rank,non_di,top_25,winning_name,winning_abbr,losing_name,losing_abbr
2021-12-09-19-rutgers,Purdue,purdue,68,1,Rutgers,rutgers,70,,False,True,Rutgers,rutgers,Purdue,purdue
2021-12-09-21-gonzaga,Merrimack,merrimack,55,,Gonzaga,gonzaga,80,5,False,True,Gonzaga,gonzaga,Merrimack,merrimack
2021-12-09-18-seton-hall,Texas,texas,60,7,Seton Hall,seton-hall,64,23,False,True,Seton Hall,seton-hall,Texas,texas
2021-12-09-21-iowa-state,Iowa,iowa,53,,Iowa State,iowa-state,73,17,False,True,Iowa State,iowa-state,Iowa,iowa
2021-12-09-19-bellarmine,Asbury,Asbury,55,,Bellarmine,bellarmine,87,,True,False,Bellarmine,bellarmine,Asbury,Asbury
2021-12-09-18-north-carolina-state,Bethune-Cookman,bethune-cookman,48,,NC State,north-carolina-state,65,,False,False,NC State,north-carolina-state,Bethune-Cookman,bethune-cookman
2021-12-09-19-north-carolina-central,Carver College,Carver College,50,,North Carolina Central,north-carolina-central,102,,True,False,North Carolina Central,north-carolina-central,Carver College,Carver College
2021-12-09-20-pittsburgh,Colgate,colgate,68,,Pitt,pittsburgh,71,,False,False,Pitt,pittsburgh,Colgate,colgate
2021-12-09-21-new-mexico,Denver,denver,67,,New Mexico,new-mexico,87,,False,False,New Mexico,new-mexico,Denver,denver
2021-12-09-19-kent-state,Detroit,detroit-mercy,52,,Kent State,kent-state,69,,False,False,Kent State,kent-state,Detroit,detroit-mercy
2021-12-09-21-arizona-state,Grand Canyon,grand-canyon,62,,Arizona State,arizona-state,67,,False,False,Arizona State,arizona-state,Grand Canyon,grand-canyon
2021-12-09-19-william-mary,Hampton,hampton,54,,William & Mary,william-mary,53,,False,False,Hampton,hampton,William & Mary,william-mary
2021-12-09-20-southern,Lindsey Wilson,Lindsey Wilson,68,,Southern,southern,86,,True,False,Southern,southern,Lindsey Wilson,Lindsey Wilson
2021-12-09-19-fordham,LIU,long-island-university,57,,Fordham,fordham,73,,False,False,Fordham,fordham,LIU,long-island-university
2021-12-09-20-st-johns-ny,Monmouth,monmouth,83,,St. John's (NY),st-johns-ny,88,,False,False,St. John's (NY),st-johns-ny,Monmouth,monmouth
2021-12-09-19-mississippi-valley-state,Nicholls State,nicholls-state,95,,Mississippi Valley State,mississippi-valley-state,80,,False,False,Nicholls State,nicholls-state,Mississippi Valley State,mississippi-valley-state
