boxscore,away_name,away_abbr,away_score,away_rank,home_name,home_abbr,home_score,home_rank,non_di,top_25,winning_name,winning_abbr,losing_name,losing_abbr
2021-12-11-21-marquette,UCLA,ucla,67,4,Marquette,marquette,56,,False,True,UCLA,ucla,Marquette,marquette
2021-12-11-15-kansas,Missouri,missouri,65,,Kansas,kansas,102,8,False,True,Kansas,kansas,Missouri,missouri
2021-12-11-22-alabama,Houston,houston,82,14,Alabama,alabama,83,9,False,True,Alabama,alabama,Houston,houston
2021-12-11-17-notre-dame,Kentucky,kentucky,62,10,Notre Dame,notre-dame,66,,False,True,Notre Dame,notre-dame,Kentucky,kentucky
2021-12-11-17-illinois,Arizona,arizona,83,11,Illinois,illinois,79,,False,True,Arizona,arizona,Illinois,illinois
2021-12-11-13-oklahoma,Arkansas,arkansas,66,12,Oklahoma,oklahoma,88,,False,True,Oklahoma,oklahoma,Arkansas,arkansas
2021-12-11-16-tennessee,UNC Greensboro,north-carolina-greensboro,36,,Tennessee,tennessee,76,13,False,True,Tennessee,tennessee,UNC Greensboro,north-carolina-greensboro
2021-12-11-16-connecticut,St. Bonaventure,st-bonaventure,64,,UConn,connecticut,74,15,False,True,UConn,connecticut,St. Bonaventure,st-bonaventure
2021-12-11-11-auburn,Nebraska,nebraska,68,,Auburn,auburn,99,18,False,True,Auburn,auburn,Nebraska,nebraska
2021-12-11-14-michigan-state,Penn State,penn-state,64,,Michigan State,michigan-state,80,19,False,True,Michigan State,michigan-state,Penn State,penn-state
2021-12-11-12-ohio-state,Wisconsin,wisconsin,55,22,Ohio State,ohio-state,73,21,False,True,Ohio State,ohio-state,Wisconsin,wisconsin
2021-12-11-12-creighton,BYU,brigham-young,71,24,Creighton,creighton,83,,False,True,Creighton,creighton,BYU,brigham-young
2021-12-11-18-georgia-tech,LSU,louisiana-state,69,25,Georgia Tech,georgia-tech,53,,False,True,LSU,louisiana-state,Georgia Tech,georgia-tech
2021-12-11-19-samford,Alabama A&M,alabama-am,50,,Samford,samford,52,,False,False,Samford,samford,Alabama A&M,alabama-am
2021-12-11-18-pepperdine,Alabama State,alabama-state,62,,Pepperdine,pepperdine,79,,False,False,Pepperdine,pepperdine,Alabama State,alabama-state
2021-12-11-16-mount-st-marys,American,american,72,,Mount St. Mary's,mount-st-marys,66,,False,False,American,american,Mount St. Mary's,mount-st-marys
2021-12-11-17-mississippi-valley-state,Arkansas State,arkansas-state,82,,Mississippi Valley State,mississippi-valley-state,77,,False,False,Arkansas State,arkansas-state,Mississippi Valley State,mississippi-valley-state
2021-12-11-14-north-florida,Austin Peay,austin-peay,84,,North Florida,north-florida,91,,False,False,North Florida,north-florida,Austin Peay,austin-peay
2021-12-11-17-saint-louis,Boston College,boston-college,68,,Saint Louis,saint-louis,79,,False,False,Saint Louis,saint-louis,Boston College,boston-college
2021-12-11-18-dartmouth,Boston University,boston-university,65,,Dartmouth,dartmouth,62,,False,False,Boston University,boston-university,Dartmouth,dartmouth
2021-12-11-18-stony-brook,Bryant,bryant,78,,Stony Brook,stony-brook,86,,False,False,Stony Brook,stony-brook,Bryant,bryant
2021-12-11-22-san-diego,Cal Lutheran,Cal Lutheran,55,,San Diego,san-diego,84,,True,False,San Diego,san-diego,Cal Lutheran,Cal Lutheran
2021-12-11-22-portland-state,Cal Poly,cal-poly,61,,Portland State,portland-state,58,,False,False,Cal Poly,cal-poly,Portland State,portland-state
2021-12-11-19-fresno-state,UC-Irvine,california-irvine,55,,Fresno State,fresno-state,63,,False,False,Fresno State,fresno-state,UC-Irvine,california-irvine
2021-12-11-18-saint-marys-ca,UCSB,california-santa-barbara,59,,Saint Mary's,saint-marys-ca,80,,False,False,Saint Mary's,saint-marys-ca,UCSB,california-santa-barbara
2021-12-11-14-youngstown-state,Canisius,canisius,43,,Youngstown State,youngstown-state,71,,False,False,Youngstown State,youngstown-state,Canisius,canisius
2021-12-11-19-winthrop,Carver College,Carver College,52,,Winthrop,winthrop,83,,True,False,Winthrop,winthrop,Carver College,Carver College
2021-12-11-14-providence,Central Connecticut,central-connecticut-state,53,,Providence,providence,68,,False,False,Providence,providence,Central Connecticut,central-connecticut-state
2021-12-11-13-valparaiso,Charlotte,charlotte,68,,Valparaiso,valparaiso,67,,False,False,Charlotte,charlotte,Valparaiso,valparaiso
2021-12-11-20-xavier,Cincinnati,cincinnati,63,,Xavier,xavier,83,,False,False,Xavier,xavier,Cincinnati,cincinnati
2021-12-11-19-albany-ny,Columbia,columbia,59,,Albany (NY),albany-ny,60,,False,False,Albany (NY),albany-ny,Columbia,columbia
2021-12-11-16-northwestern-state,Dallas Christian,Dallas Christian,67,,Northwestern State,northwestern-state,89,,True,False,Northwestern State,northwestern-state,Dallas Christian,Dallas Christian
2021-12-11-21-dixie-state,Denver,denver,62,,Dixie State,dixie-state,82,,False,False,Dixie State,dixie-state,Denver,denver
2021-12-11-14-clemson,Drake,drake,80,,Clemson,clemson,90,,False,False,Clemson,clemson,Drake,drake
2021-12-11-19-abilene-christian,Drexel,drexel,56,,Abilene Christian,abilene-christian,73,,False,False,Abilene Christian,abilene-christian,Drexel,drexel
2021-12-11-16-butler,Eastern Illinois,eastern-illinois,54,,Butler,butler,66,,False,False,Butler,butler,Eastern Illinois,eastern-illinois
2021-12-11-14-north-dakota,Eastern Washington,eastern-washington,76,,North Dakota,north-dakota,60,,False,False,Eastern Washington,eastern-washington,North Dakota,north-dakota
2021-12-11-20-north-carolina,Elon,elon,63,,UNC,north-carolina,80,,False,False,UNC,north-carolina,Elon,elon
2021-12-11-19-robert-morris,Florida Gulf Coast,florida-gulf-coast,85,,Robert Morris,robert-morris,74,,False,False,Florida Gulf Coast,florida-gulf-coast,Robert Morris,robert-morris
2021-12-11-13-eastern-michigan,Florida International,florida-international,88,,Eastern Michigan,eastern-michigan,92,,False,False,Eastern Michigan,eastern-michigan,Florida International,florida-international
2021-12-11-13-virginia-military-institute,Gardner-Webb,gardner-webb,61,,VMI,virginia-military-institute,64,,False,False,VMI,virginia-military-institute,Gardner-Webb,gardner-webb
2021-12-11-14-mercer,Georgia Southern,georgia-southern,68,,Mercer,mercer,77,,False,False,Mercer,mercer,Georgia Southern,georgia-southern
2021-12-11-15-incarnate-word,Grambling,grambling,62,,Incarnate Word,incarnate-word,72,,False,False,Incarnate Word,incarnate-word,Grambling,grambling
2021-12-11-15-nevada-las-vegas,Hartford,hartford,78,,UNLV,nevada-las-vegas,95,,False,False,UNLV,nevada-las-vegas,Hartford,hartford
2021-12-11-22-cal-state-bakersfield,Idaho,idaho,58,,Cal State Bakersfield,cal-state-bakersfield,59,,False,False,Cal State Bakersfield,cal-state-bakersfield,Idaho,idaho
2021-12-11-16-central-michigan,UIC,illinois-chicago,71,,Central Michigan,central-michigan,67,,False,False,UIC,illinois-chicago,Central Michigan,central-michigan
2021-12-11-15-chicago-state,Illinois State,illinois-state,81,,Chicago State,chicago-state,71,,False,False,Illinois State,illinois-state,Chicago State,chicago-state
2021-12-11-15-texas-arlington,Lamar,lamar,47,,Texas-Arlington,texas-arlington,56,,False,False,Texas-Arlington,texas-arlington,Lamar,lamar
2021-12-11-19-stephen-f-austin,Liberty,liberty,51,,Stephen F. Austin,stephen-f-austin,63,,False,False,Stephen F. Austin,stephen-f-austin,Liberty,liberty
2021-12-11-21-cal-state-fullerton,Life Pacific,Life Pacific,59,,Cal State Fullerton,cal-state-fullerton,87,,True,False,Cal State Fullerton,cal-state-fullerton,Life Pacific,Life Pacific
2021-12-11-12-louisiana-tech,Louisiana,louisiana-lafayette,69,,Louisiana Tech,louisiana-tech,78,,False,False,Louisiana Tech,louisiana-tech,Louisiana,louisiana-lafayette
2021-12-11-14-quinnipiac,Maine,maine,47,,Quinnipiac,quinnipiac,73,,False,False,Quinnipiac,quinnipiac,Maine,maine
2021-12-11-16-weber-state,Maine-Fort Kent,Maine-Fort Kent,36,,Weber State,weber-state,82,,True,False,Weber State,weber-state,Maine-Fort Kent,Maine-Fort Kent
2021-12-11-17-utah,Manhattan,manhattan,62,,Utah,utah,96,,False,False,Utah,utah,Manhattan,manhattan
2021-12-11-19-eastern-kentucky,Marshall,marshall,80,,Eastern Kentucky,eastern-kentucky,69,,False,False,Marshall,marshall,Eastern Kentucky,eastern-kentucky
2021-12-11-16-north-texas,UMass,massachusetts,57,,North Texas,north-texas,66,,False,False,North Texas,north-texas,UMass,massachusetts
2021-12-11-13-massachusetts-lowell,Massachusetts Liberal Arts,Massachusetts Liberal Arts,45,,UMass-Lowell,massachusetts-lowell,109,,True,False,UMass-Lowell,massachusetts-lowell,Massachusetts Liberal Arts,Massachusetts Liberal Arts
2021-12-11-21-tennessee-martin,Middle Tennessee,middle-tennessee,84,,UT-Martin,tennessee-martin,75,,False,False,Middle Tennessee,middle-tennessee,UT-Martin,tennessee-martin
2021-12-11-18-michigan,Minnesota,minnesota,75,,Michigan,michigan,65,,False,False,Minnesota,minnesota,Michigan,michigan
2021-12-11-14-colorado-state,Mississippi State,mississippi-state,63,,Colorado State,colorado-state,66,,False,False,Colorado State,colorado-state,Mississippi State,mississippi-state
2021-12-11-20-st-thomas-mn,Montana State,montana-state,72,,St. Thomas (MN),st-thomas-mn,65,,False,False,Montana State,montana-state,St. Thomas (MN),st-thomas-mn
2021-12-11-16-east-tennessee-state,Morehead State,morehead-state,75,,ETSU,east-tennessee-state,82,,False,False,ETSU,east-tennessee-state,Morehead State,morehead-state
2021-12-11-15-longwood,Morgan State,morgan-state,55,,Longwood,longwood,93,,False,False,Longwood,longwood,Morgan State,morgan-state
2021-12-11-13-duquesne,New Hampshire,new-hampshire,62,,Duquesne,duquesne,64,,False,False,Duquesne,duquesne,New Hampshire,new-hampshire
2021-12-11-19-loyola-marymount,New Mexico State,new-mexico-state,63,,Loyola Marymount,loyola-marymount,58,,False,False,New Mexico State,new-mexico-state,Loyola Marymount,loyola-marymount
2021-12-11-21-utah-state,New Orleans,new-orleans,50,,Utah State,utah-state,82,,False,False,Utah State,utah-state,New Orleans,new-orleans
2021-12-11-19-wichita-state,Norfolk State,norfolk-state,58,,Wichita State,wichita-state,71,,False,False,Wichita State,wichita-state,Norfolk State,norfolk-state
2021-12-11-14-western-carolina,UNC Asheville,north-carolina-asheville,73,,Western Carolina,western-carolina,72,,False,False,UNC Asheville,north-carolina-asheville,Western Carolina,western-carolina
2021-12-11-14-central-florida,North Carolina A&T,north-carolina-at,68,,UCF,central-florida,83,,False,False,UCF,central-florida,North Carolina A&T,north-carolina-at
2021-12-11-15-jacksonville,UNC Wilmington,north-carolina-wilmington,48,,Jacksonville,jacksonville,77,,False,False,Jacksonville,jacksonville,UNC Wilmington,north-carolina-wilmington
2021-12-11-16-south-dakota,Northern Arizona,northern-arizona,71,,South Dakota,south-dakota,76,,False,False,South Dakota,south-dakota,Northern Arizona,northern-arizona
2021-12-11-15-stetson,Ohio,ohio,55,,Stetson,stetson,45,,False,False,Ohio,ohio,Stetson,stetson
2021-12-11-16-missouri-state,Oral Roberts,oral-roberts,60,,Missouri State,missouri-state,69,,False,False,Missouri State,missouri-state,Oral Roberts,oral-roberts
2021-12-11-20-grand-canyon,Ottawa,Ottawa,53,,Grand Canyon,grand-canyon,81,,True,False,Grand Canyon,grand-canyon,Ottawa,Ottawa
2021-12-11-16-san-jose-state,Pacific,pacific,66,,San Jose State,san-jose-state,78,,False,False,San Jose State,san-jose-state,Pacific,pacific
2021-12-11-14-la-salle,Penn,pennsylvania,74,,La Salle,la-salle,76,,False,False,La Salle,la-salle,Penn,pennsylvania
2021-12-11-15-arkansas-little-rock,Philander Smith,Philander Smith,51,,Little Rock,arkansas-little-rock,60,,True,False,Little Rock,arkansas-little-rock,Philander Smith,Philander Smith
2021-12-11-14-lafayette,Princeton,princeton,84,,Lafayette,lafayette,73,,False,False,Princeton,princeton,Lafayette,lafayette
2021-12-11-19-james-madison,Radford,radford,70,,James Madison,james-madison,79,,False,False,James Madison,james-madison,Radford,radford
2021-12-11-20-houston-baptist,Rice,rice,88,,Houston Baptist,houston-baptist,73,,False,False,Rice,rice,Houston Baptist,houston-baptist
2021-12-11-21-california,Santa Clara,santa-clara,60,,California,california,72,,False,False,California,california,Santa Clara,santa-clara
2021-12-11-14-holy-cross,Siena,siena,72,,Holy Cross,holy-cross,59,,False,False,Siena,siena,Holy Cross,holy-cross
2021-12-11-19-wake-forest,USC Upstate,south-carolina-upstate,53,,Wake Forest,wake-forest,79,,False,False,Wake Forest,wake-forest,USC Upstate,south-carolina-upstate
2021-12-11-15-washington-state,South Dakota State,south-dakota-state,77,,Washington State,washington-state,74,,False,False,South Dakota State,south-dakota-state,Washington State,washington-state
2021-12-11-13-ipfw,Southeast Missouri State,southeast-missouri-state,65,,Purdue-Fort Wayne,ipfw,78,,False,False,Purdue-Fort Wayne,ipfw,Southeast Missouri State,southeast-missouri-state
2021-12-11-18-southern,Southeastern Louisiana,southeastern-louisiana,66,,Southern,southern,72,,False,False,Southern,southern,Southeastern Louisiana,southeastern-louisiana
2021-12-11-14-tulsa,Southern Illinois,southern-illinois,65,,Tulsa,tulsa,69,,False,False,Tulsa,tulsa,Southern Illinois,southern-illinois
2021-12-11-13-delaware-state,St. Francis (NY),st-francis-ny,75,,Delaware State,delaware-state,61,,False,False,St. Francis (NY),st-francis-ny,Delaware State,delaware-state
2021-12-11-13-buffalo,St. John Fisher,St. John Fisher,58,,Buffalo,buffalo,100,,True,False,Buffalo,buffalo,St. John Fisher,St. John Fisher
2021-12-11-15-southern-utah,St. Katherine,St. Katherine,61,,Southern Utah,southern-utah,100,,True,False,Southern Utah,southern-utah,St. Katherine,St. Katherine
2021-12-11-16-maryland-eastern-shore,St. Mary's (MD),St. Mary's (MD),43,,Maryland-Eastern Shore,maryland-eastern-shore,79,,True,False,Maryland-Eastern Shore,maryland-eastern-shore,St. Mary's (MD),St. Mary's (MD)
2021-12-11-14-binghamton,SUNY-Oneonta,SUNY-Oneonta,55,,Binghamton,binghamton,79,,True,False,Binghamton,binghamton,SUNY-Oneonta,SUNY-Oneonta
2021-12-11-12-georgetown,Syracuse,syracuse,75,,Georgetown,georgetown,79,,False,False,Georgetown,georgetown,Syracuse,syracuse
2021-12-11-13-saint-josephs,Temple,temple,49,,St. Joseph's,saint-josephs,68,,False,False,St. Joseph's,saint-josephs,Temple,temple
2021-12-11-20-nebraska-omaha,Texas A&M-Corpus Christi,texas-am-corpus-christi,87,,Omaha,nebraska-omaha,73,,False,False,Texas A&M-Corpus Christi,texas-am-corpus-christi,Omaha,nebraska-omaha
2021-12-11-18-texas-am,TCU,texas-christian,68,,Texas A&M,texas-am,64,,False,False,TCU,texas-christian,Texas A&M,texas-am
2021-12-11-16-sam-houston-state,UTSA,texas-san-antonio,78,,Sam Houston State,sam-houston-state,73,,False,False,UTSA,texas-san-antonio,Sam Houston State,sam-houston-state
2021-12-11-18-richmond,Toledo,toledo,69,,Richmond,richmond,72,,False,False,Richmond,richmond,Toledo,toledo
2021-12-11-15-coppin-state,Towson,towson,89,,Coppin State,coppin-state,75,,False,False,Towson,towson,Coppin State,coppin-state
2021-12-11-14-tennessee-tech,Troy,troy,75,,Tennessee Tech,tennessee-tech,72,,False,False,Troy,troy,Tennessee Tech,tennessee-tech
2021-12-11-22-wyoming,Utah Valley,utah-valley,62,,Wyoming,wyoming,74,,False,False,Wyoming,wyoming,Utah Valley,utah-valley
2021-12-11-20-old-dominion,VCU,virginia-commonwealth,75,,Old Dominion,old-dominion,66,,False,False,VCU,virginia-commonwealth,Old Dominion,old-dominion
2021-12-11-13-kennesaw-state,Voorhees,Voorhees,56,,Kennesaw State,kennesaw-state,80,,True,False,Kennesaw State,kennesaw-state,Voorhees,Voorhees
2021-12-11-20-mississippi,Western Kentucky,western-kentucky,71,,Ole Miss,mississippi,48,,False,False,Western Kentucky,western-kentucky,Ole Miss,mississippi
2021-12-11-13-detroit-mercy,Western Michigan,western-michigan,64,,Detroit,detroit-mercy,83,,False,False,Detroit,detroit-mercy,Western Michigan,western-michigan
