team_name,gameID,finalPred
tennessee st,12-16-2021-tennessee-state-charleston-southern,72
charleston southern,12-16-2021-tennessee-state-charleston-southern,69
unc greensboro,12-16-2021-north-carolina-greensboro-maryland-baltimore-county,69
umbc,12-16-2021-north-carolina-greensboro-maryland-baltimore-county,67
mcneese st,12-16-2021-mcneese-state-texas-el-paso,64
utep,12-16-2021-mcneese-state-texas-el-paso,76
jackson st,12-16-2021-jackson-state-drake,59
drake,12-16-2021-jackson-state-drake,71
incarnate word,12-16-2021-incarnate-word-rice,65
rice,12-16-2021-incarnate-word-rice,80
dartmouth,12-16-2021-dartmouth-stanford,60
stanford,12-16-2021-dartmouth-stanford,75
college of charleston,12-16-2021-college-of-charleston-stetson,71
stetson,12-16-2021-college-of-charleston-stetson,68
chicago st,12-16-2021-chicago-state-iupui,62
iupui,12-16-2021-chicago-state-iupui,63
appalachian st,12-16-2021-appalachian-state-duke,61
duke,12-16-2021-appalachian-state-duke,76
alcorn st,12-16-2021-alcorn-state-tulsa,58
tulsa,12-16-2021-alcorn-state-tulsa,70