boxscore,away_name,away_abbr,away_score,away_rank,home_name,home_abbr,home_score,home_rank,non_di,top_25,winning_name,winning_abbr,losing_name,losing_abbr
,Purdue,purdue,,1,Rutgers,rutgers,,,False,True,,,,
,Merrimack,merrimack,,,Gonzaga,gonzaga,,5,False,True,,,,
,Texas,texas,,7,Seton Hall,seton-hall,,23,False,True,,,,
,Iowa,iowa,,,Iowa State,iowa-state,,17,False,True,,,,
,Asbury,Asbury,,,Bellarmine,bellarmine,,,True,False,,,,
,Bethune-Cookman,bethune-cookman,,,NC State,north-carolina-state,,,False,False,,,,
,Carver College,Carver College,,,North Carolina Central,north-carolina-central,,,True,False,,,,
,Colgate,colgate,,,Pitt,pittsburgh,,,False,False,,,,
,Denver,denver,,,New Mexico,new-mexico,,,False,False,,,,
,Detroit,detroit-mercy,,,Kent State,kent-state,,,False,False,,,,
,Grand Canyon,grand-canyon,,,Arizona State,arizona-state,,,False,False,,,,
,Hampton,hampton,,,William & Mary,william-mary,,,False,False,,,,
,Lindsey Wilson,Lindsey Wilson,,,Southern,southern,,,True,False,,,,
,LIU,long-island-university,,,Fordham,fordham,,,False,False,,,,
,Monmouth,monmouth,,,St. John's (NY),st-johns-ny,,,False,False,,,,
,Nicholls State,nicholls-state,,,Mississippi Valley State,mississippi-valley-state,,,False,False,,,,
