away_name,away_score,away_rank,home_name,home_score,home_rank,non_di,top_25,winning_name,losing_name,spread_actual,total_actual,Rk_away,Conf_away,W-L_away,AdjEM_away,AdjO_away,AdjO_rank_away,AdjD_away,AdjD_rank_away,AdjT_away,AdjT_rank_away,Luck_away,Luck_rank_away,AdjEM_rank_away,AdjEM_rank_rank_away,OppO_away,OppO_rank_away,OppD_away,OppD_rank_away,AdjEM.2_away,AdjEM_rank.2_away,2021_ppg_away,Last3_ppg_away,Last1_ppg_away,Home_ppg_away,Away_ppg_away,2021_3ptpct_away,Last3_3ptpct_away,Last1_3ptpct_away,Home_3ptpct_away,Away_3ptpct_away,Rk_home,Conf_home,W-L_home,AdjEM_home,AdjO_home,AdjO_rank_home,AdjD_home,AdjD_rank_home,AdjT_home,AdjT_rank_home,Luck_home,Luck_rank_home,AdjEM_rank_home,AdjEM_rank_rank_home,OppO_home,OppO_rank_home,OppD_home,OppD_rank_home,AdjEM.2_home,AdjEM_rank.2_home,2021_ppg_home,Last3_ppg_home,Last1_ppg_home,Home_ppg_home,Away_ppg_home,2021_3ptpct_home,Last3_3ptpct_home,Last1_3ptpct_home,Home_3ptpct_home,Away_3ptpct_home,date,gameID
baylor,78,1.0,oregon,70,,False,True,baylor,oregon,8,148,1,B12,9-0,29.3,115.4,5,86.1,3,68.2,191,0.016,148,-2.54,259,98.2,302,100.7,187,-2.54,251,81.0,77.0,57.0,85.0,73.0,30.5,33.8,31.6,31.8,27.4,56,P12,6-5,12.44,110.0,30,97.6,104,65.9,308,-0.052000000000000005,264,4.64,65,102.5,90,97.9,54,3.53,90,70.7,77.3,96.0,81.7,54.3,28.9,24.6,25.0,31.2,23.5,12-18-2021,12-18-2021-baylor-oregon
elon,56,,duke,87,2.0,False,True,duke,elon,31,143,271,CAA,3-8,-8.14,98.1,223,106.3,298,70.7,79,0.081,68,5.58,49,102.7,81,97.1,37,5.58,49,65.3,67.7,63.0,73.7,61.2,40.3,39.9,33.3,46.2,36.8,7,ACC,9-1,24.38,114.8,6,90.4,20,70.9,73,-0.013000000000000001,195,-2.41,256,100.2,216,102.6,284,-2.41,248,86.0,87.0,92.0,90.1,76.3,31.4,39.1,48.9,37.1,15.7,12-18-2021,12-18-2021-elon-duke
butler,48,,purdue,77,3.0,False,True,purdue,butler,29,125,86,BE,7-3,8.84,103.3,119,94.5,61,63.3,345,0.057999999999999996,91,-1.85,238,97.7,314,99.6,119,-1.85,229,62.1,60.7,66.0,65.8,56.0,39.2,29.7,27.3,40.1,37.5,4,B10,9-1,27.06,119.4,1,92.3,41,68.9,157,0.034,126,4.71,62,105.1,21,100.3,159,2.04,121,87.4,75.7,82.0,91.8,80.8,33.0,26.4,18.3,34.8,29.7,12-18-2021,12-18-2021-butler-purdue
gonzaga,69,5.0,texas tech,55,25.0,False,True,gonzaga,texas tech,14,124,2,WCC,8-2,29.15,119.4,2,90.2,19,72.9,21,-0.07200000000000001,289,-0.72,208,100.7,182,101.5,234,-0.72,200,85.6,75.3,80.0,83.8,88.3,25.6,23.9,18.8,23.9,28.0,18,B12,8-1,20.85,109.5,35,88.6,8,67.2,246,-0.001,177,-11.16,356,95.7,348,106.8,357,-11.16,356,81.1,66.7,75.0,86.8,69.7,28.8,27.0,28.0,28.8,28.7,12-18-2021,12-18-2021-gonzaga-texas-tech
jacksonville st,59,,alabama,65,6.0,False,True,alabama,jacksonville st,6,124,149,ASun,5-5,1.52,102.1,149,100.5,167,65.7,314,-0.10300000000000001,324,-2.11,245,97.0,332,99.1,90,-2.11,240,67.7,60.7,66.0,66.7,68.2,38.9,29.7,18.2,39.0,38.9,13,SEC,8-2,21.98,114.7,7,92.7,45,72.7,24,0.035,123,9.51,13,106.9,7,97.4,44,9.51,12,85.2,84.0,78.0,87.8,82.6,34.9,35.7,38.5,34.2,35.6,12-18-2021,12-18-2021-jacksonville-state-alabama
stephen f austin,72,,kansas,80,7.0,False,True,kansas,stephen f austin,8,152,154,WAC,8-3,1.36,100.9,175,99.5,145,69.5,131,0.098,52,-0.22,188,102.1,109,102.3,271,-0.22,186,72.7,68.0,69.0,75.7,70.5,23.0,32.4,30.4,26.4,20.2,3,B12,8-1,27.74,118.9,3,91.1,28,71.6,46,-0.064,283,4.05,76,101.4,154,97.3,42,4.05,74,86.4,91.7,102.0,89.0,84.4,27.0,31.6,41.2,32.9,22.0,12-18-2021,12-18-2021-stephen-f-austin-kansas
usc,67,10.0,georgia tech,53,,False,True,usc,georgia tech,14,120,20,P12,11-0,20.48,110.5,28,90.0,15,67.6,219,0.077,72,-0.51,199,99.8,235,100.4,161,-3.34,274,76.7,73.0,66.0,83.2,69.0,24.2,30.1,13.6,28.3,18.3,95,ACC,5-4,7.99,104.5,100,96.5,85,69.0,153,-0.009000000000000001,188,-0.82,212,100.3,202,101.2,220,-2.97,262,70.7,60.3,53.0,68.5,88.0,27.8,24.9,17.0,27.9,27.3,12-18-2021,12-18-2021-southern-california-georgia-tech
auburn,74,13.0,st louis,70,,False,True,auburn,st louis,4,144,11,SEC,9-1,22.84,112.5,16,89.7,13,71.6,48,-0.051,263,3.12,95,102.3,101,99.2,94,3.12,97,82.8,85.0,70.0,82.2,83.4,35.5,41.2,38.6,36.5,34.5,83,A10,8-3,8.98,106.7,73,97.7,107,69.6,122,-0.019,209,0.14,179,100.9,174,100.7,189,0.14,180,78.8,70.0,79.0,77.8,80.3,24.7,32.9,41.8,25.7,23.4,12-18-2021,12-18-2021-auburn-saint-louis
oklahoma st,61,,houston,72,14.0,False,True,houston,oklahoma st,11,133,52,B12,7-3,13.37,103.9,109,90.6,21,70.4,90,-0.026000000000000002,226,-0.33,192,100.1,218,100.4,170,-0.33,189,76.3,73.3,98.0,75.9,77.3,21.6,30.0,27.6,26.6,10.3,5,Amer,9-2,26.32,114.1,10,87.8,5,66.2,294,-0.077,298,0.2,175,101.5,147,101.3,227,0.2,176,80.0,76.7,71.0,83.9,73.3,32.0,23.5,8.5,32.7,30.7,12-18-2021,12-18-2021-oklahoma-state-houston
lsu,66,19.0,louisiana tech,57,,False,True,lsu,louisiana tech,9,123,10,SEC,10-0,22.9,108.8,44,85.9,2,71.0,67,0.055,96,-0.47,197,100.6,188,101.1,217,-0.47,192,79.4,74.7,89.0,83.1,70.7,24.6,17.4,20.2,27.3,17.0,81,CUSA,8-2,9.0,108.3,51,99.3,137,69.7,119,0.134,27,-0.04,183,100.3,208,100.3,155,-0.04,182,79.6,81.0,78.0,82.8,76.5,29.2,25.9,15.4,29.9,28.4,12-18-2021,12-18-2021-louisiana-state-louisiana-tech
providence,57,,connecticut,53,20.0,False,True,providence,connecticut,4,110,57,BE,10-1,12.2,107.4,63,95.2,71,67.9,204,0.152,19,1.29,143,100.6,186,99.4,106,1.29,143,70.9,67.3,68.0,75.0,60.0,28.8,28.2,26.5,25.0,41.7,24,BE,9-2,19.33,110.4,29,91.1,27,68.5,179,-0.021,214,-4.36,303,96.6,340,100.9,202,-4.36,296,81.8,71.7,74.0,88.0,74.4,28.3,29.3,32.4,28.4,28.2,12-18-2021,12-18-2021-providence-connecticut
north carolina,69,,kentucky,98,21.0,False,True,kentucky,north carolina,29,167,31,ACC,8-2,17.47,113.2,13,95.7,74,69.9,107,0.019,145,3.19,94,102.7,82,99.5,114,1.75,132,80.4,77.7,74.0,79.2,82.3,31.0,28.3,20.3,27.8,35.6,21,SEC,7-2,19.75,111.9,19,92.2,39,68.2,190,-0.10300000000000001,325,-8.65,347,96.7,336,105.4,348,-8.65,344,80.3,74.3,62.0,84.3,66.5,21.6,20.2,9.7,21.9,20.3,12-18-2021,12-18-2021-north-carolina-kentucky
marquette,71,,xavier,80,22.0,False,True,xavier,marquette,9,151,79,BE,8-3,9.43,104.0,107,94.6,64,74.3,5,0.13,29,5.86,41,101.9,115,96.1,18,5.86,42,73.0,65.3,56.0,74.8,70.8,34.4,42.9,42.9,27.4,43.2,22,BE,10-1,19.63,111.0,23,91.3,31,71.0,69,0.081,70,1.22,144,100.7,181,99.5,115,1.22,146,76.7,88.3,86.0,79.8,68.7,32.7,31.7,38.4,34.3,27.7,12-18-2021,12-18-2021-marquette-xavier
hofstra,89,,arkansas,81,24.0,False,True,hofstra,arkansas,8,170,142,CAA,6-5,2.27,106.3,78,104.0,253,68.5,178,-0.052000000000000005,265,5.51,51,105.0,24,99.5,111,5.51,51,76.2,77.0,62.0,89.0,69.8,40.7,35.1,24.2,39.3,41.5,34,SEC,9-1,16.59,110.0,31,93.4,52,73.3,15,0.095,57,-3.61,284,99.5,253,103.1,307,-3.61,277,81.6,81.7,66.0,86.4,70.3,21.3,19.6,31.8,22.3,18.5,12-18-2021,12-18-2021-hofstra-arkansas
alabama a&m,43,,indiana st,67,,False,False,indiana st,alabama a&m,24,110,330,SWAC,1-7,-16.46,87.1,352,103.6,245,67.8,216,-0.028999999999999998,232,3.36,92,100.8,177,97.5,47,3.36,94,56.3,50.7,57.0,82.0,52.6,22.0,17.8,21.1,25.6,21.2,181,MVC,4-6,-1.22,102.3,146,103.5,243,71.4,54,-0.053,266,7.12,30,105.5,17,98.4,69,4.95,59,71.6,71.7,70.0,69.0,71.9,33.5,39.1,34.3,34.8,33.4,12-18-2021,12-18-2021-alabama-am-indiana-state
austin peay,51,,vanderbilt,77,,False,False,vanderbilt,austin peay,26,128,282,OVC,4-5,-10.03,96.6,256,106.6,303,68.9,160,0.069,81,3.59,87,102.7,83,99.1,88,3.59,89,65.3,62.0,51.0,--,65.3,40.7,40.3,41.2,--,40.7,93,SEC,5-4,8.11,104.3,101,96.2,80,66.7,272,-0.10099999999999999,323,-2.57,262,98.3,292,100.9,200,-2.57,254,69.4,66.0,58.0,69.3,70.0,33.1,27.3,15.5,29.7,45.0,12-18-2021,12-18-2021-austin-peay-vanderbilt
ball st,64,,illinois st,85,,False,False,illinois st,ball st,21,149,258,MAC,4-5,-7.26,99.4,203,106.7,305,71.5,51,0.034,125,0.73,158,102.2,103,101.5,238,0.73,158,74.3,75.7,50.0,85.0,70.7,38.9,35.7,42.0,45.9,36.1,241,MVC,6-5,-5.27,100.3,188,105.6,280,70.4,88,0.040999999999999995,116,-4.14,295,98.5,285,102.7,286,-5.65,319,79.7,71.7,81.0,74.4,86.3,34.3,41.9,48.1,32.3,36.5,12-18-2021,12-18-2021-ball-state-illinois-state
bellarmine,77,,miami oh,68,,False,False,bellarmine,miami oh,9,145,220,ASun,5-7,-4.0,102.8,129,106.8,307,66.5,285,0.011000000000000001,153,17.41,1,110.5,1,93.1,2,17.41,1,62.1,65.0,64.0,--,62.1,29.0,27.7,37.5,--,29.0,123,MAC,5-4,4.13,106.8,72,102.6,218,67.3,239,-0.14,342,3.05,98,102.9,71,99.9,130,3.05,99,75.0,67.3,76.0,80.7,70.8,34.3,34.2,43.4,39.7,29.7,12-18-2021,12-18-2021-bellarmine-miami-oh
byu,89,,weber st,71,,False,False,byu,weber st,18,160,26,WCC,8-2,18.51,110.5,27,91.9,36,69.2,143,0.032,129,8.45,22,105.2,19,96.7,27,8.45,23,73.8,75.7,71.0,74.5,73.2,28.9,38.3,50.7,28.2,29.5,117,BSky,9-2,4.79,104.2,103,99.4,142,71.1,66,0.172,11,-3.45,281,100.2,215,103.6,326,0.17,179,75.3,73.3,80.0,75.7,75.2,29.6,31.4,33.8,29.1,29.9,12-18-2021,12-18-2021-brigham-young-weber-state
buffalo,64,,canisius,65,,False,False,canisius,buffalo,1,129,73,MAC,6-3,10.38,109.5,34,99.1,129,72.2,30,-0.092,317,6.46,35,103.8,42,97.4,45,6.46,37,79.7,82.7,77.0,87.0,78.5,34.9,38.7,50.6,44.8,33.1,297,MAAC,2-9,-11.46,95.0,285,106.5,301,69.7,112,0.040999999999999995,118,1.31,142,102.4,98,101.1,216,2.25,116,65.7,56.7,43.0,71.0,62.2,35.2,28.2,34.9,35.9,34.6,12-18-2021,12-18-2021-buffalo-canisius
cal st bakersfield,46,,colorado,60,,False,False,colorado,cal st bakersfield,14,106,226,BW,4-3,-4.44,95.5,274,99.9,157,66.5,282,0.11,42,4.91,60,102.6,84,97.7,52,4.91,60,57.2,54.7,59.0,59.0,56.8,19.9,16.5,20.3,10.2,22.5,78,P12,8-3,9.55,105.6,87,96.0,78,66.5,287,0.10300000000000001,48,-1.33,224,99.4,254,100.8,191,-4.58,299,72.0,59.7,65.0,75.7,65.5,20.8,18.4,13.8,23.2,16.0,12-18-2021,12-18-2021-cal-state-bakersfield-colorado
central arkansas,70,,missouri st,106,,False,False,missouri st,central arkansas,36,176,341,ASun,1-8,-18.36,92.7,317,111.0,345,73.0,20,0.033,127,5.48,53,104.4,32,98.9,86,5.48,53,63.2,69.3,82.0,70.0,62.4,29.0,30.3,25.6,30.0,28.9,69,MVC,7-4,10.76,108.0,55,97.3,97,67.6,220,-0.157,351,-4.35,302,99.3,257,103.7,328,-4.8,305,77.8,75.0,75.0,76.8,78.7,34.3,40.0,40.0,26.6,40.7,12-18-2021,12-18-2021-central-arkansas-missouri-state
chattanooga,76,,murray st,87,,False,False,murray st,chattanooga,11,163,106,SC,9-2,6.88,108.1,54,101.2,183,61.6,356,-0.008,185,-0.91,215,99.8,239,100.7,184,-0.91,207,72.7,77.0,68.0,70.0,74.0,30.3,33.8,30.9,31.4,29.7,90,OVC,9-1,8.57,106.1,79,97.5,102,67.2,244,0.069,79,-0.89,214,100.7,183,101.6,244,-0.89,206,76.3,80.3,74.0,85.5,72.6,29.8,31.1,56.8,22.8,33.1,12-18-2021,12-18-2021-chattanooga-murray-state
dayton,68,,mississippi,76,,False,False,mississippi,dayton,8,144,92,A10,7-4,8.22,104.5,98,96.3,81,64.7,331,-0.016,202,-2.22,248,100.1,224,102.3,269,-2.22,243,70.7,70.0,62.0,70.9,70.5,27.8,30.0,33.9,26.0,30.9,94,SEC,7-3,8.09,99.7,197,91.7,34,66.5,283,0.025,138,-6.23,327,96.7,339,102.9,297,-6.23,323,69.6,59.0,62.0,75.3,61.0,29.7,33.9,24.2,31.9,25.8,12-18-2021,12-18-2021-dayton-mississippi
delaware st,53,,nc central,86,,False,False,nc central,delaware st,33,139,356,MEAC,2-8,-25.14,87.8,350,113.0,353,67.8,212,-0.066,286,-5.16,315,97.8,312,102.9,302,-5.16,310,58.3,59.7,61.0,57.3,59.0,27.9,36.9,24.6,19.2,34.3,337,MEAC,5-7,-17.7,89.0,346,106.7,306,70.9,72,0.08900000000000001,62,1.79,129,101.8,122,100.0,136,1.79,128,64.9,68.3,72.0,--,64.9,22.1,19.0,16.7,--,22.1,12-18-2021,12-18-2021-delaware-state-north-carolina-central
dixie st,78,,north dakota,69,,False,False,dixie st,north dakota,9,147,295,WAC,6-5,-11.23,96.9,245,108.1,325,73.5,10,-0.008,186,3.9,81,103.1,67,99.2,96,3.9,81,72.4,74.3,82.0,78.3,68.0,32.0,39.0,58.5,37.0,27.6,344,Sum,4-8,-18.55,94.5,292,113.0,354,68.4,182,0.066,83,-3.52,282,98.9,271,102.5,279,-3.52,276,64.4,60.7,60.0,66.3,63.6,36.8,39.6,60.0,43.7,33.7,12-18-2021,12-18-2021-dixie-state-north-dakota
east tennessee st,64,,unc asheville,79,,False,False,unc asheville,east tennessee st,15,143,133,SC,7-4,3.18,103.3,117,100.1,162,65.8,310,0.091,60,4.29,73,102.4,94,98.2,64,4.29,68,65.6,68.3,67.0,68.3,64.2,41.2,42.4,40.3,41.0,41.3,277,BSth,6-5,-9.26,96.2,260,105.5,276,69.2,142,0.11699999999999999,39,-1.45,226,101.5,150,102.9,301,-1.45,216,66.3,71.3,68.0,73.3,62.8,33.7,42.1,39.7,28.6,36.6,12-18-2021,12-18-2021-east-tennessee-state-north-carolina-asheville
eastern illinois,54,,western illinois,71,,False,False,western illinois,eastern illinois,17,125,348,OVC,2-9,-20.8,86.2,355,107.0,312,68.3,184,-0.086,307,0.64,162,100.1,220,99.5,112,0.64,161,51.4,47.7,54.0,57.5,49.7,35.6,39.9,44.4,28.7,37.9,162,Sum,8-2,0.47,102.5,138,102.0,202,71.8,40,-0.021,218,-2.8,267,100.5,195,103.3,314,-2.8,259,80.3,90.3,97.0,84.3,77.8,43.9,44.3,52.6,45.1,43.2,12-18-2021,12-18-2021-eastern-illinois-western-illinois
fairleigh dickinson,49,,virginia,82,,False,False,virginia,fairleigh dickinson,33,131,333,NEC,0-9,-17.35,93.8,302,111.2,346,70.0,104,-0.054000000000000006,268,6.04,39,104.1,36,98.1,60,6.04,41,61.0,58.0,54.0,54.0,61.9,29.5,19.0,11.1,11.1,31.5,58,ACC,6-4,11.94,105.1,92,93.2,49,58.4,358,-0.048,259,-0.42,195,100.1,219,100.5,177,0.64,162,61.0,60.0,49.0,65.2,54.8,26.6,28.3,24.5,26.9,26.0,12-18-2021,12-18-2021-fairleigh-dickinson-virginia
george mason,80,,georgia,67,,False,False,george mason,georgia,13,147,148,A10,5-5,1.53,101.6,161,100.0,160,66.6,276,-0.11900000000000001,332,0.47,167,101.5,148,101.0,208,0.47,167,72.6,65.7,71.0,74.4,70.8,39.7,32.0,29.6,37.9,41.5,158,SEC,4-5,0.69,101.8,156,101.1,182,68.8,162,-0.024,223,2.55,111,100.6,189,98.1,59,2.55,112,68.1,72.0,69.0,71.3,61.7,25.0,25.0,21.7,25.2,24.3,12-18-2021,12-18-2021-george-mason-georgia
hartford,65,,central connecticut,75,,False,False,central connecticut,hartford,10,140,281,AE,1-9,-9.5,98.1,224,107.6,320,69.5,127,-0.08199999999999999,301,-1.01,217,100.1,223,101.1,218,-1.01,208,68.1,70.7,66.0,68.0,68.1,37.9,35.4,36.4,33.1,39.1,346,NEC,2-9,-20.02,90.7,338,110.7,341,67.8,213,0.011000000000000001,154,0.35,170,100.2,212,99.9,128,0.35,170,61.2,55.0,67.0,78.0,57.4,33.4,34.5,35.8,28.8,34.8,12-18-2021,12-18-2021-hartford-central-connecticut-state
howard,79,,north carolina a&t,57,,False,False,howard,north carolina a&t,22,136,247,MEAC,5-5,-5.9,100.4,185,106.3,299,71.8,41,-0.147,346,-3.94,291,98.3,295,102.2,264,-3.94,286,75.3,77.7,73.0,78.5,74.2,32.9,29.6,45.2,22.9,36.4,246,BSth,4-8,-5.88,96.1,261,102.0,203,70.0,103,-0.009000000000000001,187,4.64,64,101.7,126,97.1,36,4.64,62,64.5,69.3,69.0,--,64.5,33.0,24.5,13.0,--,33.0,12-18-2021,12-18-2021-howard-north-carolina-at
indiana,64,,notre dame,56,,False,False,indiana,notre dame,8,120,27,B10,8-2,17.85,107.7,59,89.9,14,69.5,128,-0.032,234,-2.22,249,98.3,291,100.5,179,-5.06,309,78.3,69.3,81.0,76.8,84.5,27.2,26.0,18.5,26.9,28.4,53,ACC,4-4,13.05,110.9,25,97.8,109,66.9,259,-0.046,257,7.74,25,103.6,49,95.8,14,7.48,28,65.6,65.0,66.0,68.0,63.8,34.0,35.4,31.8,35.3,32.9,12-18-2021,12-18-2021-indiana-notre-dame
kennesaw st,84,,samford,85,,False,False,samford,kennesaw st,1,169,275,ASun,4-6,-9.01,95.7,269,104.7,263,69.6,123,-0.19899999999999998,356,7.55,27,105.1,20,97.6,48,7.55,27,68.3,74.0,62.0,79.3,60.0,31.4,35.1,43.5,30.3,32.5,250,SC,8-2,-6.1,96.0,264,102.1,204,71.9,39,0.276,1,-3.62,285,97.5,319,101.1,215,-3.62,279,70.3,66.3,52.0,62.5,73.4,39.0,39.2,40.4,45.6,36.8,12-18-2021,12-18-2021-kennesaw-state-samford
la salle,70,,bucknell,82,,False,False,bucknell,la salle,12,152,234,A10,5-4,-4.89,97.1,242,102.0,200,69.6,121,0.045,108,-8.28,346,97.5,317,105.8,354,-8.28,343,70.6,80.3,76.0,75.0,61.7,35.4,37.3,39.5,37.3,30.8,317,Pat,2-8,-13.07,95.8,265,108.9,332,71.2,64,-0.022000000000000002,220,-2.44,257,101.7,130,104.1,336,-2.44,249,73.6,68.3,69.0,71.3,74.6,35.5,35.1,30.4,40.7,33.3,12-18-2021,12-18-2021-la-salle-bucknell
lamar,53,,texas a&m corpus chris,57,,False,False,texas a&m corpus chris,lamar,4,110,301,WAC,2-9,-11.81,96.4,259,108.2,327,66.6,278,-0.087,309,5.46,54,102.8,76,97.4,43,5.46,54,62.1,51.3,47.0,59.0,62.5,32.2,21.4,6.4,40.7,31.2,300,Slnd,9-2,-11.79,93.2,310,105.0,265,72.7,25,0.17300000000000001,10,-6.95,335,96.2,345,103.1,309,-6.95,331,74.0,77.7,71.0,75.0,73.9,20.8,25.8,25.4,28.0,19.7,12-18-2021,12-18-2021-lamar-texas-am-corpus-christi
louisville,72,,western kentucky,82,,False,False,western kentucky,louisville,10,154,43,ACC,7-3,14.26,103.5,114,89.3,12,70.4,93,-0.016,201,3.07,97,102.4,96,99.3,103,1.63,138,70.7,71.3,86.0,72.5,68.0,32.7,35.0,24.4,31.7,34.2,108,CUSA,7-4,6.61,103.5,116,96.9,91,70.4,92,-0.062,279,-1.52,230,98.6,283,100.1,143,-1.52,219,74.0,74.3,71.0,80.0,66.5,27.9,22.9,29.6,26.3,30.5,12-18-2021,12-18-2021-louisville-western-kentucky
loyola marymount,63,,nevada,68,,False,False,nevada,loyola marymount,5,131,115,WCC,6-4,5.09,104.5,97,99.4,140,68.1,192,0.11,43,0.22,174,101.6,136,101.4,233,0.22,175,68.6,65.0,58.0,71.8,64.5,30.6,33.8,31.0,28.4,33.7,76,MWC,5-4,10.01,108.7,47,98.7,121,71.9,38,-0.024,222,2.9,102,102.9,74,100.0,132,2.9,103,78.3,82.7,79.0,79.3,77.6,30.7,32.7,34.2,25.2,34.0,12-18-2021,12-18-2021-loyola-marymount-nevada
marist,84,,boston university,79,,False,False,marist,boston university,5,163,244,MAAC,4-5,-5.58,97.3,237,102.9,227,65.0,323,-0.077,297,-4.53,308,98.8,277,103.3,317,-5.46,316,70.0,68.0,61.0,70.0,70.0,31.9,32.4,34.4,31.4,32.1,155,Pat,9-3,1.24,102.5,141,101.2,185,64.6,334,0.006,167,-3.01,271,97.3,324,100.3,154,-3.01,265,66.8,68.3,65.0,67.0,66.8,33.1,32.2,36.9,31.3,33.7,12-18-2021,12-18-2021-marist-boston-university
mississippi valley st,73,,nicholls st,104,,False,False,nicholls st,mississippi valley st,31,177,358,SWAC,0-8,-33.1,83.2,358,116.3,358,74.3,6,-0.061,278,3.34,93,101.8,120,98.5,72,3.34,95,60.0,67.0,77.0,78.5,53.8,28.1,20.9,23.4,22.9,30.7,211,Slnd,7-4,-3.55,98.4,217,102.0,201,70.5,84,0.075,75,6.9,32,103.2,62,96.3,21,6.9,34,67.6,75.3,68.0,--,67.6,34.2,31.9,22.1,--,34.2,12-18-2021,12-18-2021-mississippi-valley-state-nicholls-state
morgan st,60,,mount st marys,74,,False,False,mount st marys,morgan st,14,134,312,MEAC,4-6,-12.57,93.0,312,105.6,282,72.6,26,-0.035,238,-1.5,228,99.3,258,100.8,190,-1.5,217,62.4,58.0,55.0,--,62.4,27.5,19.0,32.7,--,27.5,318,NEC,3-8,-13.25,91.7,327,105.0,266,66.0,306,0.044000000000000004,112,3.37,91,103.2,65,99.8,126,3.37,93,60.9,66.0,66.0,59.3,61.6,23.6,25.8,13.6,20.2,25.1,12-18-2021,12-18-2021-morgan-state-mount-st-marys
niagara,66,,albany,58,,False,False,niagara,albany,8,124,210,MAAC,4-6,-3.54,97.7,231,101.2,184,63.9,339,-0.087,308,2.43,114,103.5,51,101.1,214,4.21,69,64.1,59.3,58.0,60.0,65.3,29.6,23.6,25.9,22.5,31.5,307,AE,3-7,-12.09,89.5,343,101.6,194,66.5,286,0.114,40,0.96,149,101.5,145,100.6,180,0.96,151,57.8,57.7,61.0,56.3,58.4,29.1,34.7,39.3,24.9,30.8,12-18-2021,12-18-2021-niagara-albany-ny
unc wilmington,71,,high point,69,,False,False,unc wilmington,high point,2,140,302,CAA,4-5,-11.88,95.7,270,107.5,319,67.5,233,-0.026000000000000002,225,-6.83,333,95.6,349,102.4,278,-6.83,328,61.3,61.0,48.0,67.0,59.0,35.7,34.4,25.0,31.3,37.6,265,BSth,5-5,-7.97,94.8,286,102.7,221,66.7,269,-0.059000000000000004,272,-0.22,189,102.7,79,103.0,305,-0.22,187,68.4,73.0,66.0,69.7,67.5,28.2,27.4,22.7,24.4,31.1,12-18-2021,12-18-2021-north-carolina-wilmington-high-point
north texas,62,,wichita st,52,,False,False,north texas,wichita st,10,114,110,CUSA,6-3,6.39,100.6,181,94.2,59,61.9,354,-0.061,276,3.64,85,104.6,28,101.0,206,3.64,86,62.9,62.7,65.0,65.0,61.3,35.5,28.7,23.1,33.8,36.7,59,Amer,8-2,11.74,103.3,118,91.6,33,67.9,206,0.01,156,0.94,151,99.6,249,98.7,80,0.94,153,67.4,70.7,82.0,66.8,68.3,33.4,25.5,22.0,29.2,39.6,12-18-2021,12-18-2021-north-texas-wichita-state
northern colorado,56,,washington st,82,,False,False,washington st,northern colorado,26,138,184,BSky,6-6,-1.42,103.8,110,105.2,272,69.1,149,0.159,15,4.01,78,103.5,52,99.5,110,7.03,32,72.5,76.0,76.0,76.3,70.9,40.6,36.8,43.4,32.8,44.2,46,P12,7-4,13.66,106.6,75,92.9,48,67.4,237,-0.141,343,-1.49,227,101.1,167,102.6,283,-4.7,303,77.3,76.3,61.0,77.0,78.0,34.2,41.9,49.2,34.6,33.3,12-18-2021,12-18-2021-northern-colorado-washington-state
northern iowa,75,,marshall,60,,False,False,northern iowa,marshall,15,135,130,MVC,3-5,3.67,103.2,121,99.5,146,68.1,195,-0.106,326,4.34,72,101.9,116,97.6,49,4.5,63,67.4,62.3,66.0,58.3,79.7,39.4,33.7,36.4,25.8,52.7,118,CUSA,7-4,4.77,105.6,85,100.8,175,76.1,2,-0.04,247,0.34,171,100.1,217,99.8,125,0.34,172,79.6,72.3,65.0,81.2,77.5,23.9,27.6,41.5,20.0,29.0,12-18-2021,12-18-2021-northern-iowa-marshall
northern kentucky,68,,eastern kentucky,81,,False,False,eastern kentucky,northern kentucky,13,149,176,Horz,4-5,-1.09,101.1,169,102.2,207,66.7,274,-0.066,285,-3.61,283,99.1,265,102.7,287,-5.75,320,66.9,63.3,75.0,71.3,61.0,39.7,41.1,36.0,36.8,44.3,195,ASun,6-6,-1.92,101.7,158,103.7,247,73.1,17,-0.198,355,0.51,165,99.2,260,98.7,79,0.51,166,75.9,72.3,69.0,76.5,75.4,46.6,45.6,21.7,40.2,51.7,12-18-2021,12-18-2021-northern-kentucky-eastern-kentucky
pittsburgh,59,,st johns,57,,False,False,pittsburgh,st johns,2,116,199,ACC,3-7,-2.54,97.4,234,100.0,158,64.6,332,0.002,174,0.02,180,101.2,161,101.2,222,-1.69,226,60.5,59.7,52.0,61.3,57.5,20.3,23.5,11.5,18.4,28.7,64,BE,8-2,10.97,108.3,52,97.3,98,73.6,9,0.065,84,-7.12,338,96.1,346,103.2,312,-7.12,333,85.2,84.3,82.0,86.4,74.0,28.2,24.9,36.6,27.4,36.5,12-18-2021,12-18-2021-pittsburgh-st-johns-ny
portland st,66,,cal st northridge,69,,False,False,cal st northridge,portland st,3,135,268,BSky,3-5,-8.04,92.3,321,100.4,165,72.0,36,-0.055999999999999994,269,-0.55,203,101.7,133,102.2,265,-1.97,232,59.8,63.3,58.0,56.0,61.8,25.9,28.4,25.9,18.8,29.1,292,BW,3-6,-10.82,93.3,308,104.1,254,64.8,328,0.063,86,6.29,37,103.6,47,97.3,41,6.29,39,55.6,48.3,54.0,63.7,50.8,22.9,18.6,22.2,25.1,21.3,12-18-2021,12-18-2021-portland-state-cal-state-northridge
radford,54,,davidson,74,,False,False,davidson,radford,20,128,262,BSth,4-7,-7.73,93.0,313,100.7,171,68.9,159,-0.021,217,5.65,47,102.7,80,97.1,34,5.65,48,58.0,59.7,58.0,77.5,52.4,35.1,43.6,41.4,34.8,35.1,61,A10,7-2,11.53,109.5,33,98.0,113,66.4,291,-0.039,245,-1.3,223,101.1,165,102.4,275,-1.3,214,75.2,74.7,79.0,83.7,71.0,38.1,41.5,49.4,34.7,40.1,12-18-2021,12-18-2021-radford-davidson
st francis pa,48,,illinois,106,,False,False,illinois,st francis pa,58,154,223,NEC,4-5,-4.2,101.8,154,106.0,291,70.3,97,-0.1,322,-1.64,233,100.2,210,101.9,253,-1.64,223,76.0,76.3,81.0,93.0,73.6,21.2,17.0,25.9,38.7,18.1,17,B10,7-3,20.99,112.8,15,91.9,35,69.2,139,-0.017,204,5.99,40,103.4,57,97.4,46,4.2,70,78.0,84.0,79.0,84.0,69.0,36.9,46.4,60.8,36.3,38.0,12-18-2021,12-18-2021-saint-francis-pa-illinois
st josephs,73,,bradley,77,,False,False,bradley,st josephs,4,150,187,A10,6-4,-1.51,99.9,193,101.4,190,70.3,96,0.071,78,-3.25,277,99.0,268,102.2,266,-3.25,271,70.8,66.0,68.0,74.9,61.3,38.1,40.9,35.3,37.8,39.1,180,MVC,4-6,-1.21,97.7,229,98.9,124,68.1,196,-0.204,357,-1.78,237,100.9,172,102.7,290,-1.89,230,67.6,72.0,65.0,71.5,64.4,35.0,37.5,36.9,36.7,33.5,12-18-2021,12-18-2021-saint-josephs-bradley
st peters,63,,stony brook,64,,False,False,stony brook,st peters,1,127,216,MAAC,3-5,-3.83,93.1,311,96.9,92,69.8,109,-0.006999999999999999,182,-0.29,191,99.0,269,99.2,99,4.08,73,63.7,62.3,60.0,60.7,66.0,25.6,19.3,10.0,16.5,31.8,203,AE,6-4,-2.71,100.9,173,103.6,246,69.3,136,0.12300000000000001,36,-2.99,270,101.0,168,104.0,334,-2.99,263,73.0,84.0,87.0,76.0,68.5,39.0,42.9,48.3,39.5,38.3,12-18-2021,12-18-2021-saint-peters-stony-brook
san diego,69,,northern arizona,59,,False,False,san diego,northern arizona,10,128,192,WCC,6-5,-1.66,97.3,238,99.0,125,66.0,303,-0.038,243,-1.22,220,99.1,264,100.3,150,-1.22,210,61.3,49.0,52.0,58.3,63.8,28.3,28.6,51.9,34.8,23.5,316,BSky,4-6,-12.99,95.2,278,108.2,328,67.6,225,0.062,87,-1.13,218,99.7,246,100.8,197,-2.03,237,66.8,62.7,71.0,70.0,65.2,33.9,38.3,46.5,38.6,31.5,12-18-2021,12-18-2021-san-diego-northern-arizona
san francisco,48,,grand canyon,49,,False,False,grand canyon,san francisco,1,97,32,WCC,10-0,17.03,109.1,38,92.1,38,68.0,202,0.08199999999999999,67,-2.06,243,100.1,221,102.2,261,-2.06,238,77.6,72.3,71.0,80.3,67.0,41.0,40.1,33.8,40.2,44.8,124,WAC,9-2,4.02,101.3,164,97.3,96,65.2,320,0.016,149,-8.27,345,96.7,337,105.0,345,-8.27,342,72.8,75.7,62.0,76.0,66.3,35.3,37.0,38.7,38.8,27.1,12-18-2021,12-18-2021-san-francisco-grand-canyon
seattle,56,,washington,64,,False,False,washington,seattle,8,120,197,WAC,8-3,-2.12,100.2,190,102.4,213,69.3,134,0.04,119,-12.74,358,94.4,355,107.2,358,-12.74,358,74.7,70.3,73.0,78.8,58.5,41.8,42.7,32.9,41.0,46.2,143,P12,4-4,1.95,98.9,211,97.0,94,72.8,22,0.026000000000000002,137,-2.58,263,100.8,179,103.4,319,-2.58,255,72.6,74.3,74.0,71.0,75.3,28.4,40.4,44.6,25.4,33.2,12-18-2021,12-18-2021-seattle-washington
south carolina,56,,clemson,70,,False,False,clemson,south carolina,14,126,100,SEC,8-2,7.57,101.0,171,93.4,53,71.4,59,0.157,16,0.7,160,101.3,157,100.6,182,0.7,160,70.3,67.3,66.0,74.8,64.8,27.5,22.3,18.2,27.3,27.8,51,ACC,7-4,13.43,110.9,24,97.5,99,66.8,265,-0.09699999999999999,320,1.84,125,102.2,105,100.3,157,0.58,165,76.5,84.7,89.0,82.6,71.3,36.0,39.0,43.8,37.8,34.3,12-18-2021,12-18-2021-south-carolina-clemson
south florida,55,,florida,66,,False,False,florida,south florida,11,121,240,Amer,4-4,-5.05,91.6,330,96.7,87,63.6,343,-0.002,179,-11.41,357,94.1,357,105.6,351,-11.41,357,56.9,57.7,60.0,58.0,49.0,24.4,17.3,10.0,24.4,24.5,29,SEC,7-3,17.71,108.7,46,91.0,25,68.9,154,-0.061,277,1.35,141,100.8,176,99.5,113,1.35,142,73.5,69.0,68.0,74.8,71.5,31.4,30.4,48.5,33.4,28.3,12-18-2021,12-18-2021-south-florida-florida
southeast missouri st,77,,pepperdine,83,,False,False,pepperdine,southeast missouri st,6,160,303,OVC,5-6,-11.89,97.4,235,109.3,338,71.7,43,0.111,41,-4.86,313,99.7,245,104.6,341,-4.86,307,72.0,65.0,55.0,71.3,72.3,31.0,30.8,43.6,28.0,32.5,224,WCC,4-8,-4.23,98.5,216,102.7,219,69.9,105,-0.006,181,0.32,173,100.6,191,100.3,148,0.32,173,67.2,78.3,79.0,71.3,63.0,31.6,29.4,38.0,28.7,34.9,12-18-2021,12-18-2021-southeast-missouri-state-pepperdine
southern miss,65,,louisiana monroe,74,,False,False,louisiana monroe,southern miss,9,139,285,CUSA,4-6,-10.24,92.1,323,102.3,211,68.7,165,0.106,44,-2.23,250,98.7,279,100.9,205,-2.23,244,58.1,49.0,51.0,59.3,57.5,22.9,30.6,41.2,28.7,20.0,212,SB,6-4,-3.67,99.6,201,103.2,235,70.6,82,0.045,110,9.1,15,105.9,13,96.8,30,9.1,15,72.4,77.7,82.0,90.0,65.4,26.6,33.5,40.2,21.7,29.4,12-18-2021,12-18-2021-southern-mississippi-louisiana-monroe
southern utah,50,,michigan,87,,False,False,michigan,southern utah,37,137,125,BSky,7-3,4.02,103.8,111,99.8,153,69.7,115,0.09699999999999999,55,0.75,157,101.3,159,100.5,176,2.97,100,75.0,76.7,60.0,60.0,77.1,31.0,30.0,25.0,25.0,31.7,19,B10,6-4,20.58,111.4,22,90.9,23,67.0,254,-0.021,215,8.13,23,104.7,27,96.5,24,8.48,22,72.1,79.7,65.0,71.0,73.2,27.5,36.4,13.8,24.5,30.3,12-18-2021,12-18-2021-southern-utah-michigan
tennessee st,88,,south carolina st,90,,False,False,south carolina st,tennessee st,2,178,311,OVC,4-6,-12.53,93.5,304,106.0,290,69.4,132,-0.136,340,-9.92,352,94.0,358,103.9,329,-9.92,351,69.0,73.7,78.0,75.0,67.3,33.3,33.9,42.3,26.0,35.7,345,MEAC,4-8,-19.71,89.9,342,109.6,339,73.1,19,0.044000000000000004,113,-2.21,247,99.3,256,101.5,239,-2.21,242,69.3,64.7,62.0,78.5,67.0,28.6,35.6,19.4,28.7,28.5,12-18-2021,12-18-2021-tennessee-state-south-carolina-state
tennessee tech,63,,wright st,72,,False,False,wright st,tennessee tech,9,135,283,OVC,3-8,-10.06,95.1,282,105.2,270,69.1,145,-0.095,319,1.64,134,102.1,110,100.4,169,1.64,136,66.2,64.0,72.0,75.0,61.8,23.7,23.4,20.8,25.3,22.6,191,Horz,2-7,-1.62,101.7,157,103.4,238,71.5,52,-0.124,336,1.83,127,102.5,88,100.7,186,2.2,119,70.5,69.7,48.0,48.0,73.7,21.8,21.5,18.8,18.8,22.1,12-18-2021,12-18-2021-tennessee-tech-wright-state
texas a&m,83,,oregon st,73,,False,False,texas a&m,oregon st,10,156,66,SEC,7-2,10.92,103.7,112,92.8,46,66.7,275,0.016,150,-3.35,280,98.9,270,102.3,270,-3.35,275,71.2,74.0,64.0,77.8,63.0,30.9,29.7,28.1,31.6,29.8,146,P12,1-9,1.85,102.8,131,100.9,176,66.4,288,-0.111,329,4.5,68,102.1,107,97.7,50,1.27,145,65.0,63.3,64.0,71.8,58.2,22.6,20.5,23.4,22.6,22.7,12-18-2021,12-18-2021-texas-am-oregon-state
tcu,80,,georgetown,73,,False,False,tcu,georgetown,7,153,65,B12,8-1,10.93,105.1,93,94.1,58,66.8,263,0.10400000000000001,47,-4.62,309,98.3,298,102.9,299,-4.62,300,71.7,71.7,68.0,72.4,70.8,22.3,19.5,13.2,24.9,19.1,111,BE,6-4,6.11,105.0,94,98.9,122,72.4,28,-0.023,221,-4.33,301,98.4,290,102.7,292,-4.33,295,77.4,88.0,85.0,82.4,65.7,34.1,35.2,24.7,35.4,30.5,12-18-2021,12-18-2021-texas-christian-georgetown
utah,75,,missouri,83,,False,False,missouri,utah,8,158,72,P12,7-3,10.54,107.4,65,96.9,90,68.3,188,0.01,157,0.32,172,100.0,227,99.7,122,-2.87,260,74.6,74.7,96.0,78.5,68.8,30.2,28.1,31.3,31.2,28.4,153,SEC,5-5,1.4,99.3,206,97.9,112,67.6,224,0.022000000000000002,141,-0.18,186,99.9,231,100.1,142,-0.18,184,63.7,60.7,65.0,65.0,62.0,22.0,16.5,23.1,17.5,27.8,12-18-2021,12-18-2021-utah-missouri
utah st,75,,iowa,94,,False,False,iowa,utah st,19,169,48,MWC,8-3,13.53,109.0,43,95.5,72,68.6,168,-0.064,284,4.11,75,102.6,85,98.5,73,4.11,72,78.5,82.7,95.0,72.3,82.7,37.5,46.0,47.4,37.4,37.5,30,B10,7-3,17.57,115.9,4,98.3,117,71.2,63,-0.057999999999999996,271,-2.73,265,98.3,297,101.0,210,-9.1,348,86.4,68.7,53.0,95.1,66.0,31.3,26.2,28.3,31.5,30.3,12-18-2021,12-18-2021-utah-state-iowa
west virginia,65,,uab,59,,False,False,west virginia,uab,6,124,45,B12,9-1,13.82,106.0,80,92.2,40,66.1,300,0.057999999999999996,92,-1.28,222,100.2,211,101.5,237,-1.28,212,69.8,62.0,63.0,67.7,74.7,25.8,27.4,28.6,26.6,24.1,44,CUSA,9-2,13.89,107.4,67,93.5,56,70.2,99,-0.062,280,-2.55,260,98.7,281,101.2,226,-2.55,252,78.8,75.3,79.0,84.4,71.8,27.5,23.9,26.6,27.0,28.2,12-18-2021,12-18-2021-west-virginia-alabama-birmingham
wofford,76,,presbyterian,49,,False,False,wofford,presbyterian,27,125,112,SC,7-4,5.96,105.8,83,99.9,154,66.1,301,-0.08900000000000001,312,0.72,159,100.3,207,99.6,118,0.72,159,71.8,75.0,59.0,74.8,69.4,35.3,36.0,66.1,35.1,35.4,256,BSth,7-5,-6.91,95.5,276,102.4,215,62.9,350,0.16399999999999998,14,1.63,135,102.4,95,100.8,193,1.63,137,63.3,62.0,76.0,73.5,60.8,28.4,35.5,15.8,30.6,27.8,12-18-2021,12-18-2021-wofford-presbyterian
