Team,Spread,SpreadOdds,Total,TotalOdds,MONEYLINE
South Carolina State,11.5,-105,O 156.5,-110,575
The Citadel,-11.5,-115,U 156.5,-110,-850
Western Carolina,11.5,-110,O 147,-110,450
Georgia,-11.5,-110,U 147,-110,-630
Alcorn,34.5,-105,O 139,-105,2500
Baylor,-34.5,-115,U 139,-115,-8000
UIW,38.5,-110,O 145,-105,2500
Purdue,-38.5,-110,U 145,-115,-8000
Eastern Michigan,8.0,-110,O 138,-115,250
Valparaiso,-8.0,-110,U 138,-105,-320
Stetson,14.5,-115,O 136,-110,850
Miami FL,-14.5,-105,U 136,-110,-1500
UMES,13.0,-115,O 131.5,-110,650
Charlotte,-13.0,-105,U 131.5,-110,-1000
Delaware State,22.5,-110,O 135.5,+100,1300
Wagner,-22.5,-110,U 135.5,-120,-3000
Manhattan,-8.0,-110,O 139.5,-110,-350
Charleston Southern,8.0,-110,U 139.5,-110,270
Western Michigan,21.5,-115,O 139,+100,1000
Notre Dame,-21.5,-105,U 139,-120,-2000
ULM,-4.5,-110,O 135.5,-115,-195
Lamar,4.5,-110,U 135.5,-105,165
Saint Thomas MN,-3.5,-105,O 149,-110,-165
Omaha,3.5,-115,U 149,-110,145
Oral Roberts,-3.5,-105,O 145,-105,-160
South Dakota,3.5,-115,U 145,-115,140
Kansas City,12.5,-110,O 141,-115,550
South Dakota State,-12.5,-110,U 141,-105,-800
Northern Arizona,35.0,-120,O 146,-105,2000
Gonzaga,-35.0,+100,U 146,-115,-5000
