Rk,Team,Conf,W-L,AdjEM,AdjO,AdjO,AdjD,AdjD,AdjT,AdjT,Luck,Luck,AdjEM,AdjEM.1,OppO,OppO.1,OppD,OppD.1,AdjEM,AdjEM.1
1,Baylor,B12,9-0,+29.45,115.5,5,86.0,2,68.3,183,+.016,148,-2.64,264,98.6,291,101.2,206,-2.64,256
2,Gonzaga,WCC,8-2,+29.24,119.7,2,90.4,18,72.8,22,-.072,284,-0.57,204,100.8,189,101.4,219,-0.57,199
3,Kansas,B12,8-1,+27.72,119.0,3,91.3,28,71.6,46,-.064,272,+3.95,79,101.5,156,97.6,43,+3.95,76
4,Purdue,B10,9-1,+27.36,119.8,1,92.4,39,68.9,151,+.034,125,+5.24,62,105.4,17,100.2,137,+2.75,112
5,Houston,Amer,8-2,+26.77,114.8,9,88.0,5,66.8,265,-.094,308,+1.23,146,102.3,113,101.1,197,+1.23,150
6,Villanova,BE,7-3,+24.51,115.3,6,90.8,21,62.6,350,-.040,246,+9.11,13,106.6,12,97.5,42,+9.11,13
7,Arizona,P12,9-0,+24.01,112.9,16,88.9,8,74.6,4,+.058,97,+1.05,150,101.9,132,100.9,185,-0.30,189
8,UCLA,P12,8-1,+23.96,114.0,10,90.0,16,68.6,166,+.062,90,+3.49,90,103.8,52,100.3,141,+3.29,95
9,Duke,ACC,7-1,+23.86,113.8,11,90.0,14,70.5,80,+.002,172,+1.86,127,102.9,89,101.1,196,+1.86,130
10,Tennessee,SEC,7-2,+23.42,109.3,40,85.9,1,70.7,75,-.031,232,+2.34,117,102.2,120,99.9,124,+2.34,121
11,Alabama,SEC,8-1,+23.29,114.8,8,91.5,30,72.8,20,+.041,114,+8.36,17,106.9,8,98.5,68,+8.36,17
12,Auburn,SEC,8-1,+22.60,113.1,15,90.5,19,71.5,50,-.049,256,+4.83,64,103.9,47,99.0,81,+4.83,61
13,LSU,SEC,9-0,+22.29,109.0,42,86.7,3,71.1,64,+.069,81,+1.30,142,101.5,158,100.2,133,+1.30,147
14,Texas Tech,B12,7-1,+21.53,109.7,33,88.2,6,67.3,235,-.014,200,-11.28,355,95.6,346,106.9,355,-11.28,355
15,Ohio St.,B10,8-2,+21.29,114.8,7,93.5,50,68.0,203,+.020,144,+8.97,14,105.5,15,96.6,19,+7.60,25
16,Texas,B12,6-2,+21.28,112.3,19,91.0,22,62.0,354,-.081,292,-6.26,325,99.2,269,105.4,342,-6.26,322
17,USC,P12,10-0,+21.17,111.2,23,90.0,15,67.2,243,+.064,86,-0.90,212,100.2,227,101.1,199,-4.26,290
18,Michigan St.,B10,9-2,+21.08,109.3,39,88.2,7,70.7,74,+.097,56,+10.77,8,106.7,11,96.0,12,+11.03,8
19,Illinois,B10,7-3,+20.82,112.9,17,92.1,36,69.1,143,-.017,205,+5.65,50,103.4,68,97.8,50,+3.74,83
20,Michigan,B10,6-4,+20.52,111.6,21,91.1,25,67.1,250,-.021,214,+8.05,19,104.8,30,96.7,22,+8.32,18
21,Kentucky,SEC,7-2,+19.69,112.1,20,92.4,40,68.2,186,-.103,318,-8.77,345,96.8,337,105.5,344,-8.77,342
22,Connecticut,BE,9-2,+19.47,110.5,27,91.1,24,68.6,160,-.021,213,-4.29,297,97.0,335,101.3,210,-4.29,293
23,Loyola Chicago,MVC,9-2,+18.97,112.4,18,93.5,49,64.9,327,-.007,187,+0.96,156,100.8,190,99.9,121,+2.20,125
24,Xavier,BE,9-1,+18.88,110.6,26,91.7,33,70.8,70,+.093,61,+1.40,137,100.9,185,99.5,100,+1.40,142
25,BYU,WCC,8-2,+18.26,110.5,28,92.2,37,69.2,139,+.032,127,+7.84,21,105.0,24,97.2,30,+7.84,21
26,Seton Hall,BE,9-1,+17.89,108.9,44,91.0,23,71.2,61,+.056,100,+2.95,103,102.8,93,99.8,118,+2.95,107
27,Indiana,B10,8-2,+17.88,108.0,57,90.1,17,69.4,132,-.032,235,-2.33,252,98.4,300,100.7,172,-5.24,311
28,Wisconsin,B10,8-2,+17.67,107.4,68,89.7,13,66.3,290,+.099,54,+9.33,11,105.0,25,95.7,10,+6.28,41
29,Florida,SEC,7-3,+17.63,108.8,46,91.2,26,68.7,158,-.061,267,+1.12,148,101.0,183,99.8,119,+1.12,151
30,Iowa,B10,7-3,+17.57,116.1,4,98.5,115,71.2,60,-.058,263,-2.75,266,98.5,297,101.2,207,-9.13,343
31,North Carolina,ACC,7-2,+17.32,113.3,13,96.0,74,70.2,94,+.020,143,+3.81,83,102.8,92,99.0,78,+2.21,124
32,San Francisco,WCC,10-0,+16.98,109.3,38,92.4,38,68.1,196,+.082,67,-2.22,250,100.1,232,102.3,261,-2.22,244
33,Virginia Tech,ACC,7-4,+16.83,108.8,47,92.0,34,64.1,336,-.111,325,+1.41,136,100.5,205,99.1,83,+0.56,167
34,Arkansas,SEC,9-1,+16.55,110.2,29,93.6,52,73.2,18,+.095,59,-3.67,284,99.5,251,103.2,308,-3.67,278
35,Saint Mary's,WCC,9-2,+16.50,105.6,87,89.1,10,65.3,320,+.061,91,+4.57,69,104.3,38,99.7,107,+4.57,64
36,Oklahoma,B12,8-2,+16.35,107.6,66,91.2,27,67.5,228,-.005,181,+0.91,157,102.0,131,101.0,195,+0.91,158
37,Colorado St.,MWC,10-0,+15.88,113.1,14,97.3,96,69.3,133,+.050,106,-1.77,241,99.9,241,101.7,241,-1.77,234
38,Northwestern,B10,7-2,+15.83,108.7,48,92.9,43,68.0,200,-.076,288,-5.56,320,97.4,327,103.0,295,-8.64,341
39,Memphis,Amer,5-4,+15.76,107.4,69,91.7,32,73.5,13,-.114,326,+3.30,94,101.4,162,98.1,57,+3.30,94
40,Florida St.,ACC,5-4,+15.06,106.7,77,91.6,31,68.6,162,-.032,234,+5.91,48,104.9,28,99.0,80,+5.88,48
41,Washington St.,P12,7-3,+14.87,107.8,61,92.9,44,67.3,238,-.104,319,-1.48,231,101.3,167,102.8,283,-5.10,309
42,UAB,CUSA,8-2,+14.44,108.1,52,93.6,53,69.4,131,-.069,278,+0.28,177,100.6,196,100.4,144,+0.28,176
43,Louisville,ACC,6-3,+14.20,103.8,116,89.6,12,70.0,99,-.006,185,+5.24,61,103.7,56,98.5,66,+3.89,81
44,West Virginia,B12,9-1,+13.92,106.3,80,92.4,41,66.0,308,+.058,96,-1.14,215,100.3,217,101.5,223,-1.14,209
45,San Diego St.,MWC,6-3,+13.83,102.9,133,89.1,9,66.4,285,+.060,92,+4.41,72,102.5,110,98.1,54,+4.41,68
46,Mississippi St.,SEC,6-3,+13.80,109.3,41,95.5,69,65.5,315,-.097,312,-0.32,195,101.2,173,101.5,225,-0.32,192
47,St. Bonaventure,A10,8-2,+13.52,110.0,31,96.5,83,66.4,284,+.071,79,-0.31,194,100.4,211,100.7,173,-0.31,191
48,Clemson,ACC,6-4,+13.48,110.1,30,96.6,85,66.5,277,-.114,327,+2.70,109,102.5,109,99.8,114,+1.32,145
49,Oklahoma St.,B12,7-3,+13.43,104.2,109,90.8,20,70.3,86,-.026,228,-0.23,192,100.3,218,100.6,163,-0.23,188
50,Iowa St.,B12,10-0,+13.23,102.4,146,89.2,11,67.8,213,+.052,101,-3.91,290,98.1,310,102.0,251,-3.91,284
51,Notre Dame,ACC,4-4,+13.12,111.1,24,98.0,110,66.8,261,-.046,253,+7.88,20,103.9,49,96.0,13,+7.66,23
52,Maryland,B10,6-4,+12.82,106.0,84,93.2,47,69.1,140,+.007,164,+4.14,77,102.5,107,98.4,63,+3.23,97
53,Oregon,P12,5-5,+12.48,109.6,35,97.1,95,65.4,317,-.069,279,+6.96,33,103.7,55,96.8,23,+6.56,38
54,Belmont,OVC,8-3,+12.40,109.4,36,97.0,90,70.0,98,+.078,71,+4.29,73,103.4,70,99.1,84,+4.29,69
55,Providence,BE,10-1,+12.29,107.7,63,95.4,68,67.9,205,+.152,23,+1.33,140,100.8,191,99.5,98,+1.33,144
56,UCF,Amer,6-2,+12.27,108.0,56,95.7,71,68.3,181,+.012,156,-2.47,258,99.2,266,101.7,237,-2.47,249
57,Utah St.,MWC,7-3,+12.24,107.4,67,95.2,67,68.2,187,-.075,287,+3.01,101,102.2,122,99.2,87,+3.01,105
58,Wake Forest,ACC,9-1,+12.06,107.6,65,95.5,70,70.7,71,+.040,118,-6.77,332,96.7,338,103.4,317,-9.64,346
59,Creighton,BE,8-2,+11.94,108.1,53,96.1,76,67.8,216,+.068,83,-0.36,197,100.0,237,100.4,148,-0.36,194
60,Virginia,ACC,6-4,+11.93,105.3,94,93.3,48,58.3,358,-.048,254,-0.52,202,100.3,222,100.8,179,+0.55,169
61,Wichita St.,Amer,7-2,+11.90,103.3,122,91.4,29,67.8,210,+.015,152,+3.11,99,101.0,181,97.9,51,+3.11,102
62,Davidson,A10,7-2,+11.48,109.7,34,98.2,114,66.4,281,-.039,244,-1.43,229,101.2,171,102.6,274,-1.43,225
63,Boise St.,MWC,6-4,+11.32,103.3,123,92.0,35,67.2,245,-.119,331,+0.61,165,100.4,215,99.8,113,+0.61,163
64,Texas A&M,SEC,7-2,+10.96,103.9,113,93.0,45,66.8,259,+.016,151,-3.45,280,99.0,272,102.5,269,-3.45,273
65,St. John's,BE,8-2,+10.94,108.4,51,97.4,100,73.5,10,+.065,85,-7.22,334,96.3,342,103.6,323,-7.22,331
66,TCU,B12,8-1,+10.94,105.3,93,94.3,56,66.7,268,+.104,51,-4.68,308,98.4,301,103.1,299,-4.68,301
67,Richmond,A10,6-4,+10.93,108.5,50,97.6,101,68.1,198,-.018,209,+5.44,55,105.2,20,99.7,111,+5.44,54
68,Syracuse,ACC,5-5,+10.80,111.5,22,100.7,166,69.7,117,+.013,154,+8.84,15,105.0,26,96.2,16,+7.40,26
69,Minnesota,B10,8-1,+10.79,105.3,92,94.5,58,66.5,276,+.097,55,+4.20,74,102.9,90,98.7,73,-0.73,203
70,Buffalo,MAC,6-3,+10.67,109.8,32,99.2,128,72.3,27,-.092,306,+7.18,29,104.3,36,97.1,29,+7.18,31
71,Kansas St.,B12,6-3,+10.60,104.3,105,93.7,55,67.3,239,-.091,304,-5.24,318,97.5,325,102.7,279,-5.24,312
72,Utah,P12,7-3,+10.54,107.6,64,97.0,92,68.3,178,+.010,159,+0.24,178,100.1,229,99.9,123,-3.03,264
73,Missouri St.,MVC,6-4,+10.42,109.0,43,98.6,116,67.5,229,-.179,350,-5.08,315,98.4,298,103.5,321,-5.65,315
74,Rhode Island,A10,8-3,+10.33,105.5,90,95.2,66,66.3,289,-.011,195,-0.07,190,101.9,137,102.0,250,-0.07,187
75,Nevada,MWC,4-4,+10.12,108.9,45,98.8,118,71.9,39,-.024,224,+3.03,100,103.2,75,100.2,136,+3.03,104
76,Cincinnati,Amer,7-3,+9.90,103.0,128,93.1,46,67.0,253,-.009,191,+0.96,155,101.1,176,100.2,132,+0.96,157
77,SMU,Amer,8-3,+9.75,109.4,37,99.6,143,69.3,134,+.022,139,-4.89,312,98.1,309,103.0,297,-4.89,306
78,Marquette,BE,8-3,+9.67,104.4,104,94.7,60,74.3,5,+.130,35,+6.22,41,102.3,115,96.1,15,+6.22,42
79,Colorado,P12,8-3,+9.53,105.8,85,96.3,78,66.4,287,+.103,52,-1.41,228,99.5,253,100.9,186,-4.72,303
80,N.C. State,ACC,7-3,+9.51,106.9,73,97.4,99,67.1,249,-.004,180,-2.13,246,100.4,216,102.5,270,-3.84,283
81,Drake,MVC,6-4,+9.26,108.0,55,98.8,117,67.4,232,-.069,280,+1.37,139,103.1,78,101.7,242,+3.03,103
82,Saint Louis,A10,8-3,+9.03,106.9,72,97.9,108,69.6,119,-.019,211,+0.31,175,101.1,179,100.8,175,+0.31,174
83,Stanford,P12,5-3,+8.97,105.3,96,96.3,79,68.3,180,+.129,37,+2.05,121,101.8,144,99.7,110,-2.03,241
84,Penn St.,B10,5-5,+8.94,105.4,91,96.5,84,63.4,343,-.040,248,+3.70,86,104.2,39,100.5,160,-0.82,205
85,Butler,BE,7-3,+8.93,103.5,120,94.6,59,63.0,346,+.058,95,-1.72,237,98.1,311,99.8,112,-1.72,231
86,Louisiana Tech,CUSA,7-2,+8.93,108.6,49,99.6,145,69.4,128,+.134,32,-0.52,201,100.0,239,100.5,159,-0.52,197
87,VCU,A10,6-4,+8.79,96.7,258,87.9,4,68.5,169,+.017,147,+5.60,51,103.9,50,98.3,60,+5.60,49
88,DePaul,BE,8-1,+8.71,104.7,98,96.0,73,72.2,30,+.035,121,-4.50,304,98.5,295,103.0,294,-4.50,298
89,Murray St.,OVC,8-1,+8.63,106.3,81,97.7,102,67.2,241,+.069,80,-0.64,205,101.0,182,101.6,235,-0.64,200
90,South Dakota St.,Sum,9-3,+8.61,113.5,12,104.9,262,72.5,25,+.072,77,+1.82,128,101.9,133,100.1,130,+1.82,131
91,Mississippi,SEC,6-3,+8.33,101.0,178,92.6,42,66.2,295,+.007,163,-6.19,324,96.9,336,103.1,303,-6.19,321
92,Santa Clara,WCC,7-4,+8.27,107.3,70,99.0,122,70.6,76,-.085,298,+0.37,172,100.6,198,100.2,138,+0.37,173
93,Vanderbilt,SEC,5-4,+8.13,104.4,103,96.3,77,66.5,278,-.101,317,-2.55,260,98.7,282,101.3,213,-2.55,252
94,UC Irvine,BW,5-2,+8.09,101.7,162,93.7,54,66.4,280,-.022,219,+7.14,30,104.2,42,97.0,24,+7.14,32
95,Dayton,A10,7-4,+8.08,104.5,102,96.4,81,64.8,330,-.016,203,-2.42,256,100.3,225,102.7,275,-2.42,247
96,Georgia Tech,ACC,5-4,+8.01,104.7,97,96.7,87,68.9,152,-.009,190,-0.83,210,100.4,214,101.2,208,-2.98,262
97,Miami FL,ACC,8-3,+7.79,107.3,71,99.5,135,69.6,118,+.170,15,+2.57,113,102.0,128,99.5,97,+1.80,134
98,Fresno St.,MWC,8-2,+7.64,102.7,135,95.1,65,63.7,340,+.006,167,-2.45,257,98.7,283,101.2,203,-2.45,248
99,South Carolina,SEC,7-2,+7.62,101.2,175,93.6,51,71.5,52,+.157,18,+0.75,160,101.6,152,100.8,182,+0.75,159
100,Rutgers,B10,5-5,+7.53,102.5,142,95.0,63,66.1,300,+.028,135,+4.59,68,103.9,48,99.3,91,-1.27,219
101,Arizona St.,P12,4-6,+7.31,102.3,147,95.0,64,68.5,170,+.014,153,+7.60,24,105.0,27,97.4,32,+5.49,52
102,Vermont,AE,7-4,+7.27,102.2,150,94.9,62,65.7,313,-.017,206,+3.70,85,101.8,142,98.1,56,+3.70,84
103,Iona,MAAC,9-2,+7.19,103.0,130,95.8,72,71.6,47,+.081,68,+2.00,123,102.6,104,100.6,168,+4.49,65
104,Ohio,MAC,7-2,+6.94,104.7,99,97.7,103,67.4,233,+.135,31,+1.81,130,102.4,111,100.6,165,+1.81,133
105,Chattanooga,SC,9-1,+6.93,108.1,54,101.1,180,61.5,356,+.016,150,-2.68,265,99.0,273,101.7,239,-2.68,257
106,Wyoming,MWC,9-1,+6.63,107.9,58,101.3,183,65.1,324,+.129,38,-4.63,307,98.1,308,102.8,282,-4.63,300
107,California,P12,6-5,+6.59,100.9,179,94.4,57,66.0,305,-.025,226,+2.74,107,102.2,123,99.5,96,+1.73,136
108,Western Kentucky,CUSA,6-4,+6.56,103.7,119,97.1,94,70.3,84,-.062,270,-1.56,234,98.7,281,100.3,140,-1.56,228
109,North Texas,CUSA,5-3,+6.47,101.2,171,94.8,61,61.3,357,-.101,314,+6.35,40,106.8,10,100.4,153,+6.35,40
110,Georgetown,BE,5-4,+6.43,105.6,88,99.2,129,71.7,44,-.045,251,-3.36,279,98.7,286,102.0,252,-3.36,271
111,New Mexico St.,WAC,8-2,+6.18,105.5,89,99.4,133,66.9,254,+.217,6,+2.91,104,102.6,105,99.7,106,+2.91,109
112,Weber St.,BSky,9-1,+5.92,104.1,111,98.1,112,70.5,79,+.215,7,-5.05,314,99.6,249,104.6,337,-1.35,223
113,Wofford,SC,7-4,+5.91,106.1,83,100.2,153,66.2,291,-.089,303,+0.58,167,100.3,224,99.7,108,+0.58,165
114,UC Santa Barbara,BW,5-3,+5.43,105.7,86,100.3,157,67.8,209,-.101,315,-8.43,342,94.6,352,103.1,300,-8.43,339
115,Marshall,CUSA,7-3,+5.19,106.5,78,101.4,184,75.4,2,-.042,249,-1.17,218,99.6,248,100.8,180,-1.17,212
116,Loyola Marymount,WCC,6-4,+4.98,104.6,100,99.7,146,68.2,190,+.110,47,-0.02,185,101.7,148,101.7,236,-0.02,183
117,Oakland,Horz,7-3,+4.88,101.4,168,96.5,82,70.0,100,+.106,49,+5.68,49,104.3,37,98.6,69,+9.42,11
118,Toledo,MAC,7-3,+4.87,107.7,62,102.9,218,69.8,113,+.144,24,+2.82,105,102.1,126,99.3,92,+2.82,110
119,Furman,SC,7-3,+4.79,107.8,60,103.1,225,67.1,247,+.032,130,-0.32,196,99.6,247,100.0,127,-0.32,193
120,Miami OH,MAC,5-3,+4.37,106.1,82,101.8,194,66.9,258,-.143,341,+0.29,176,101.4,160,101.1,201,+0.29,175
121,East Tennessee St.,SC,7-3,+4.34,103.9,114,99.6,141,66.2,292,+.155,20,+6.62,38,104.0,44,97.4,34,+6.62,37
122,Georgia St.,SB,5-3,+4.17,106.9,74,102.7,216,70.5,77,+.036,120,+1.59,134,101.4,163,99.8,117,+1.59,140
123,Southern Utah,BSky,7-3,+4.13,104.0,112,99.9,149,69.6,124,+.097,57,+0.91,158,101.6,150,100.7,171,+3.21,98
124,Grand Canyon,WAC,9-2,+4.09,101.4,169,97.3,97,65.2,323,+.016,149,-8.10,340,97.2,331,105.3,340,-8.10,337
125,Navy,Pat,7-3,+4.03,100.3,196,96.3,80,67.2,240,+.051,102,+3.20,96,101.2,170,98.1,53,+3.20,99
126,Liberty,ASun,6-4,+4.00,102.2,151,98.2,113,62.7,348,-.082,294,-6.04,323,96.3,341,102.4,263,-6.04,320
127,Nebraska,B10,5-6,+3.86,102.7,134,98.9,120,72.2,31,-.011,197,+0.35,173,100.7,192,100.4,147,-4.26,291
128,Monmouth,MAAC,8-2,+3.83,100.4,193,96.6,86,69.8,108,-.049,257,+2.01,122,102.6,106,100.5,162,+3.40,90
129,Northern Iowa,MVC,2-5,+3.77,103.1,126,99.3,131,68.8,155,-.106,321,+7.07,31,104.4,35,97.4,33,+7.93,20
130,Boston College,ACC,6-5,+3.67,103.0,129,99.3,132,64.9,328,-.118,329,-3.32,277,99.1,271,102.4,268,-4.84,305
131,Massachusetts,A10,6-5,+3.54,111.0,25,107.4,316,69.1,141,+.008,162,-0.01,184,100.4,207,100.5,155,-0.01,182
132,Oregon St.,P12,1-8,+3.44,104.2,108,100.8,169,66.1,296,-.111,324,+6.02,45,103.1,80,97.1,26,+2.77,111
133,Stephen F. Austin,WAC,8-2,+3.33,101.1,176,97.8,105,70.2,91,+.114,43,+1.39,138,103.6,62,102.2,258,+1.39,143
134,Southern Illinois,MVC,5-4,+3.13,102.6,139,99.5,136,61.9,355,-.071,281,-2.96,271,98.6,292,101.5,227,-3.45,274
135,UNLV,MWC,6-5,+3.07,102.5,143,99.5,134,67.4,234,+.076,73,+5.59,52,103.6,59,98.1,55,+5.59,50
136,Wagner,NEC,3-2,+3.00,102.1,154,99.1,125,67.1,251,+.022,142,+8.51,16,104.0,45,95.5,9,+8.51,15
137,Towson,CAA,7-4,+2.95,105.3,95,102.3,204,66.1,297,-.072,283,-2.00,245,99.3,259,101.3,215,-2.00,240
138,UC Riverside,BW,6-4,+2.84,98.9,214,96.1,75,66.2,293,+.040,117,+7.37,25,102.7,101,95.3,8,+7.37,27
139,Temple,Amer,6-4,+2.70,101.5,164,98.8,119,66.9,257,+.111,46,+0.67,162,101.6,154,100.9,187,+0.67,160
140,Colgate,Pat,4-7,+2.63,106.8,76,104.2,252,68.3,179,-.183,351,+2.74,106,102.7,100,99.9,125,+2.74,113
141,Princeton,Ivy,9-3,+2.54,107.9,59,105.4,271,67.8,214,+.041,113,-2.38,254,100.3,220,102.7,277,-2.38,246
142,Texas St.,SB,7-2,+2.44,102.6,141,100.1,151,65.5,316,+.140,27,-1.99,244,100.9,184,102.9,292,-1.99,239
143,Abilene Christian,WAC,6-2,+2.28,99.1,212,96.8,88,69.7,115,-.080,291,+0.12,182,100.6,197,100.5,157,+0.12,180
144,Hofstra,CAA,6-5,+2.27,106.5,79,104.2,254,68.4,172,-.052,258,+5.45,54,105.0,23,99.6,103,+5.45,53
145,Delaware,CAA,9-3,+2.07,104.6,101,102.5,211,67.8,212,+.074,74,-4.57,305,97.8,319,102.4,266,-4.57,299
146,Yale,Ivy,6-6,+2.02,104.2,107,102.2,201,69.9,104,-.062,269,+1.26,144,101.4,164,100.1,131,+1.26,148
147,Washington,P12,4-4,+2.00,99.1,213,97.1,93,72.5,24,+.026,136,-2.57,263,101.1,175,103.7,326,-2.57,255
148,Morehead St.,OVC,6-4,+1.84,102.4,145,100.6,165,66.0,301,+.051,103,+6.20,42,103.8,51,97.6,44,+6.20,43
149,Jacksonville St.,ASun,4-5,+1.68,102.1,152,100.5,160,66.1,299,-.147,345,-0.90,213,98.1,307,99.0,82,-0.90,208
150,Kent St.,MAC,5-4,+1.68,101.2,174,99.5,139,65.3,321,+.010,157,+3.75,84,103.0,86,99.2,88,+3.75,82
151,George Mason,A10,5-5,+1.59,101.8,161,100.2,154,66.6,272,-.119,332,+0.53,171,101.7,147,101.2,205,+0.53,171
152,Tulsa,Amer,5-5,+1.52,102.0,156,100.5,161,66.4,286,-.022,222,-1.19,219,100.5,201,101.7,240,-1.19,214
153,Cleveland St.,Horz,6-3,+1.50,102.6,140,101.1,179,67.6,221,+.013,155,-0.98,214,100.3,221,101.3,212,+1.66,139
154,Missouri,SEC,5-5,+1.37,99.5,205,98.1,111,67.7,218,+.022,140,-0.30,193,100.1,235,100.4,145,-0.30,190
155,Boston University,Pat,9-3,+1.30,102.7,137,101.4,186,64.7,332,+.006,166,-2.90,269,97.5,323,100.4,154,-2.90,260
156,Campbell,BSth,7-2,+1.03,102.6,138,101.6,191,62.3,352,+.156,19,+3.92,82,102.1,127,98.1,58,+3.92,80
157,Akron,MAC,6-3,+1.00,102.0,155,101.0,175,65.8,312,+.072,76,-2.88,268,98.4,304,101.2,209,-2.88,259
158,UTEP,CUSA,5-4,+0.81,98.1,223,97.3,98,67.8,208,-.002,178,+3.12,98,102.4,112,99.3,90,+3.12,101
159,East Carolina,Amer,8-2,+0.71,102.0,157,101.3,182,68.7,156,+.046,107,-8.39,341,96.0,344,104.4,336,-8.39,338
160,Wright St.,Horz,2-6,+0.67,103.7,117,103.0,223,72.2,33,-.144,342,+2.58,112,103.3,73,100.7,169,+3.38,91
161,Northeastern,CAA,6-5,+0.65,98.5,218,97.9,107,66.0,302,+.086,63,+2.41,116,105.2,19,102.8,286,+2.41,120
162,Montana St.,BSky,7-4,+0.57,100.9,183,100.3,158,68.9,148,-.020,212,-3.13,274,101.9,135,105.0,339,-3.38,272
163,Utah Valley,WAC,7-3,+0.53,100.2,197,99.6,144,66.2,294,+.064,87,+0.57,168,101.6,153,101.0,193,+0.57,166
164,Georgia,SEC,4-5,+0.47,101.9,159,101.4,188,68.6,161,-.024,225,+2.05,119,100.5,202,98.4,65,+2.05,127
165,Western Illinois,Sum,8-2,+0.42,102.7,136,102.3,203,71.8,43,-.021,217,-2.90,270,100.5,206,103.4,312,-2.90,261
166,Winthrop,BSth,6-4,+0.24,103.2,124,102.9,222,72.2,29,+.103,53,+2.70,108,102.7,99,100.0,128,+2.70,114
167,Rice,CUSA,6-4,+0.23,106.9,75,106.6,298,70.2,90,+.060,94,-4.27,296,98.0,317,102.2,257,-4.27,292
168,James Madison,CAA,9-2,+0.19,99.3,209,99.2,127,71.3,56,+.210,8,+0.08,183,100.9,187,100.8,181,+0.08,181
169,Oral Roberts,Sum,5-5,+0.18,104.2,106,104.1,251,69.9,106,-.122,336,+4.18,75,103.7,54,99.6,101,+4.18,70
170,Tulane,Amer,3-6,+0.13,99.7,201,99.5,138,67.6,223,-.154,348,-4.08,294,98.7,287,102.7,280,-4.08,288
171,Brown,Ivy,8-5,+0.03,97.8,230,97.8,104,69.0,145,-.059,265,-0.67,207,100.5,203,101.2,202,-0.67,202
172,Harvard,Ivy,6-4,-0.25,101.0,177,101.2,181,70.3,87,-.121,333,+1.02,152,101.6,151,100.6,164,+1.02,155
173,Appalachian St.,SB,6-5,-0.26,99.5,207,99.7,147,65.0,326,-.084,297,+1.25,145,102.8,94,101.5,226,+1.25,149
174,Bowling Green,MAC,5-4,-0.33,102.9,132,103.2,228,72.2,32,+.050,104,-3.06,272,99.3,257,102.4,262,-3.06,265
175,North Dakota St.,Sum,7-4,-0.64,100.4,192,101.1,178,66.0,303,+.173,14,-0.46,200,100.4,213,100.9,184,-0.46,196
176,Fairfield,MAAC,7-3,-0.69,102.9,131,103.6,239,65.5,314,-.040,247,-5.09,316,98.6,290,103.7,325,-5.95,318
177,South Alabama,SB,8-2,-0.83,99.4,208,100.2,155,70.0,96,+.002,171,+4.94,63,102.3,114,97.4,36,+4.94,60
178,Drexel,CAA,4-5,-0.87,102.2,148,103.1,227,68.3,184,-.092,307,+1.73,131,103.3,71,101.6,232,+1.73,135
179,Northern Kentucky,Horz,4-5,-1.12,101.2,172,102.3,207,66.6,273,-.066,274,-3.73,286,99.2,267,102.9,289,-5.99,319
180,Montana,BSky,8-4,-1.12,100.7,186,101.8,196,66.5,275,+.077,72,-5.74,321,98.5,294,104.3,333,-7.14,330
181,Bradley,MVC,4-6,-1.17,97.9,226,99.1,124,68.0,201,-.204,356,-1.73,240,101.2,172,102.9,290,-1.85,236
182,Saint Joseph's,A10,6-4,-1.30,100.1,198,101.4,185,70.4,83,+.071,78,-3.10,273,99.4,256,102.5,271,-3.10,266
183,Indiana St.,MVC,4-6,-1.32,102.4,144,103.7,242,71.5,54,-.053,259,+6.83,35,105.6,14,98.7,74,+4.64,62
184,Charleston,CAA,7-3,-1.37,100.9,181,102.2,202,77.5,1,+.135,30,-0.55,203,101.0,180,101.6,234,-0.55,198
185,Longwood,BSth,6-4,-1.41,99.6,203,101.0,174,67.0,252,-.145,343,-7.62,336,98.2,306,105.8,348,-7.62,333
186,Northern Colorado,BSky,6-5,-1.52,103.7,118,105.2,269,68.6,164,+.153,22,+1.29,143,102.3,118,101.0,190,+3.55,88
187,Louisiana,SB,5-4,-1.54,97.5,241,99.1,123,73.5,11,-.039,245,-1.59,235,98.8,279,100.4,146,-1.59,229
188,Old Dominion,CUSA,5-6,-1.56,98.1,224,99.6,142,63.9,339,-.035,238,-1.43,230,99.6,250,101.0,192,-1.43,226
189,Florida Gulf Coast,ASun,9-3,-1.57,100.8,184,102.3,206,71.5,53,+.125,40,-4.35,300,98.6,289,103.0,293,-4.35,296
190,Cal St. Fullerton,BW,5-5,-1.64,102.2,149,103.8,245,65.9,310,-.083,295,-1.15,216,99.8,246,100.9,188,-1.15,210
191,San Diego,WCC,6-5,-1.65,97.5,243,99.1,126,66.1,298,-.038,242,-1.23,220,99.2,262,100.5,158,-1.23,216
192,Mercer,SC,7-4,-1.82,104.1,110,105.9,282,65.8,311,+.141,26,+1.07,149,101.8,138,100.8,177,+1.07,153
193,Eastern Kentucky,ASun,5-6,-1.84,101.9,158,103.8,244,73.2,17,-.198,354,+0.60,166,99.5,252,98.9,76,+0.60,164
194,Seattle,WAC,8-3,-2.00,100.5,190,102.5,210,69.4,129,+.040,116,-12.70,358,94.7,351,107.4,358,-12.70,358
195,UNC Greensboro,SC,7-3,-2.04,97.7,237,99.7,148,62.4,351,+.219,5,-4.00,292,98.8,277,102.8,285,-4.00,286
196,Pacific,WCC,4-6,-2.11,97.4,245,99.5,140,67.4,231,-.223,358,-6.75,331,97.3,330,104.1,330,-6.75,327
197,Florida Atlantic,CUSA,6-4,-2.21,101.8,160,104.0,249,66.8,263,-.184,352,-10.69,352,96.5,340,107.2,357,-10.69,351
198,Texas Southern,SWAC,1-7,-2.27,98.3,222,100.6,164,68.1,194,-.104,320,+14.80,4,108.0,4,93.2,4,+14.80,4
199,Pittsburgh,ACC,3-7,-2.55,97.6,239,100.2,152,64.6,333,+.002,173,-0.07,189,101.4,165,101.4,220,-1.78,235
200,Bellarmine,ASun,5-6,-2.60,103.5,121,106.1,290,66.4,283,+.018,146,+20.48,1,112.5,1,92.0,2,+20.48,1
201,Eastern Washington,BSky,5-5,-2.64,100.9,180,103.5,235,72.2,28,-.021,215,+1.89,125,102.3,116,100.4,150,+2.27,123
202,Fordham,A10,7-5,-2.71,95.1,284,97.8,106,68.9,150,-.068,277,-7.64,338,98.4,302,106.0,353,-7.64,335
203,Coastal Carolina,SB,5-3,-2.75,97.7,233,100.5,159,67.6,220,+.022,141,-1.90,242,101.3,168,103.2,306,-1.90,237
204,Stony Brook,AE,5-4,-2.92,100.7,187,103.6,237,68.7,157,+.124,41,-0.65,206,102.7,98,103.4,313,-0.65,201
205,New Hampshire,AE,5-4,-2.94,99.9,199,102.9,220,62.6,349,-.129,337,-2.49,259,100.1,233,102.6,272,-2.49,250
206,Gardner Webb,BSth,4-6,-3.03,97.7,235,100.7,167,69.4,130,-.185,353,+3.31,93,103.5,67,100.2,135,+3.31,93
207,Detroit Mercy,Horz,3-7,-3.29,103.1,125,106.4,293,66.8,260,-.084,296,+4.77,65,103.8,53,99.0,79,+8.41,16
208,UC Davis,BW,4-3,-3.31,97.5,244,100.8,168,71.1,62,+.095,58,-2.57,262,99.2,264,101.8,246,-2.57,254
209,Middle Tennessee,CUSA,8-2,-3.39,97.5,240,100.9,172,71.0,65,-.001,177,-7.64,337,97.9,318,105.6,347,-7.64,334
210,Tarleton St.,WAC,3-7,-3.42,95.9,271,99.3,130,62.1,353,-.094,309,+17.59,2,110.1,2,92.6,3,+17.59,2
211,Hawaii,BW,4-3,-3.60,99.8,200,103.4,233,68.1,193,-.121,335,-2.13,247,100.3,223,102.4,264,-2.13,242
212,Niagara,MAAC,4-6,-3.72,97.7,236,101.4,187,63.9,337,-.087,300,+2.05,120,103.6,63,101.5,230,+4.11,73
213,UMBC,AE,5-5,-3.72,100.5,189,104.2,255,72.0,38,-.056,261,-0.79,209,102.7,97,103.5,322,-0.79,204
214,Cal Baptist,WAC,8-2,-3.80,102.1,153,105.9,283,68.0,199,+.165,16,-11.12,353,94.4,355,105.6,345,-11.12,353
215,Penn,Ivy,3-10,-3.82,103.8,115,107.6,318,67.2,242,-.081,293,+6.68,36,104.7,31,98.0,52,+6.68,35
216,Saint Peter's,MAAC,3-5,-3.83,93.2,309,97.0,91,69.8,112,-.007,186,-0.36,198,99.3,260,99.6,105,+3.93,79
217,The Citadel,SC,5-3,-3.84,101.3,170,105.1,266,69.8,109,-.009,192,-3.71,285,98.0,315,101.7,238,-3.71,279
218,Georgia Southern,SB,5-4,-3.95,96.3,264,100.2,156,66.0,304,-.088,302,+1.04,151,101.4,161,100.4,149,+1.04,154
219,Valparaiso,MVC,5-6,-4.12,97.9,227,102.0,200,67.2,244,-.094,310,-0.68,208,101.7,149,102.3,260,-2.50,251
220,Duquesne,A10,4-7,-4.21,99.3,210,103.6,236,66.8,262,-.015,201,-1.27,222,100.7,195,101.9,249,-1.27,218
221,Cal St. Bakersfield,BW,4-2,-4.30,96.5,261,100.8,170,65.2,322,+.182,12,+3.69,87,103.0,85,99.3,93,+3.69,85
222,Pepperdine,WCC,4-8,-4.47,98.6,217,103.0,224,69.9,103,-.006,184,-0.06,188,100.5,204,100.5,161,-0.06,186
223,Charlotte,CUSA,5-4,-4.51,101.4,166,105.9,286,66.0,309,+.205,9,+0.54,170,101.3,166,100.8,176,+0.54,170
224,La Salle,A10,5-4,-4.60,97.4,246,102.0,198,69.6,123,+.045,109,-7.93,339,98.0,313,105.9,351,-7.93,336
225,New Mexico,MWC,6-5,-4.64,100.9,182,105.5,275,74.7,3,-.029,230,-0.85,211,100.5,199,101.4,218,-0.85,207
226,Sam Houston St.,WAC,3-6,-4.66,97.3,247,101.9,197,68.2,191,-.116,328,+4.61,67,104.5,34,99.9,122,+4.61,63
227,Cornell,Ivy,8-2,-4.71,101.2,173,105.9,285,74.0,7,+.201,10,-3.60,282,99.8,245,103.4,314,-3.60,276
228,UMKC,Sum,5-5,-4.73,96.3,263,101.0,176,66.3,288,-.034,236,+1.92,124,102.3,117,100.4,143,+1.92,128
229,Arkansas St.,SB,7-2,-4.80,100.5,191,105.3,270,68.5,167,+.236,3,-11.74,357,95.3,349,107.0,356,-11.74,357
230,Nicholls St.,Slnd,7-3,-4.84,97.7,232,102.6,213,70.5,78,+.142,25,+3.58,89,101.8,141,98.2,59,+3.58,87
231,Youngstown St.,Horz,6-3,-4.86,101.4,167,106.3,292,67.5,230,-.000,176,-9.32,346,97.2,332,106.6,354,-10.83,352
232,UMass Lowell,AE,7-4,-4.97,96.7,259,101.6,192,70.3,88,+.034,123,+1.88,126,101.1,177,99.2,89,+1.88,129
233,Bryant,NEC,4-7,-4.98,99.5,204,104.5,259,71.2,58,-.046,252,+2.42,115,101.9,134,99.5,99,+2.42,119
234,Evansville,MVC,4-8,-5.16,97.3,249,102.4,209,63.9,338,-.109,323,-1.34,226,100.0,236,101.4,216,-1.19,215
235,South Florida,Amer,3-4,-5.19,92.7,320,97.9,109,63.3,344,-.034,237,-11.19,354,94.2,358,105.4,341,-11.19,354
236,VMI,SC,7-4,-5.38,101.6,163,107.0,305,68.5,171,-.039,243,-5.85,322,97.6,322,103.5,319,-5.85,316
237,Illinois St.,MVC,5-5,-5.44,100.6,188,106.0,287,70.0,97,+.046,108,-4.40,302,98.7,285,103.1,302,-5.90,317
238,Jacksonville,ASun,5-3,-5.45,93.6,303,99.0,121,66.8,266,-.066,275,-1.23,221,99.9,242,101.1,200,-1.23,217
239,Milwaukee,Horz,2-8,-5.47,97.0,253,102.5,212,67.2,246,-.072,282,-2.77,267,100.5,200,103.3,309,+0.37,172
240,Marist,MAAC,4-5,-5.58,97.5,242,103.1,226,65.0,325,-.077,289,-4.57,306,98.9,275,103.5,320,-5.53,314
241,UC San Diego,BW,5-3,-5.65,98.4,221,104.0,250,68.2,188,-.006,182,-3.53,281,97.4,328,100.9,189,-3.53,275
242,St. Francis PA,NEC,3-5,-5.69,101.5,165,107.2,311,70.0,102,-.141,340,-1.36,227,100.4,212,101.8,245,-1.36,224
243,Louisiana Monroe,SB,5-4,-5.77,97.7,231,103.5,234,70.9,68,-.007,188,+9.87,9,107.0,6,97.1,28,+9.87,9
244,South Dakota,Sum,6-4,-5.79,97.8,228,103.6,238,67.9,207,+.113,45,-5.32,319,98.2,305,103.6,324,-5.32,313
245,Army,Pat,6-4,-5.87,95.6,276,101.4,189,71.3,55,+.023,138,-4.69,309,97.1,333,101.8,244,-4.69,302
246,FIU,CUSA,8-2,-5.89,94.7,292,100.5,163,67.6,222,-.006,183,-8.50,343,97.4,329,105.9,350,-8.50,340
247,Howard,MEAC,5-4,-5.96,100.8,185,106.7,299,71.2,57,-.132,338,-6.36,327,97.1,334,103.4,316,-6.36,324
248,Quinnipiac,MAAC,6-4,-6.09,98.4,220,104.5,260,71.0,67,+.005,168,-8.71,344,94.7,350,103.4,315,-9.94,348
249,Samford,SC,8-2,-6.12,96.2,265,102.3,205,72.0,37,+.276,1,-3.78,288,97.5,324,101.3,214,-3.78,281
250,Stetson,ASun,3-6,-6.21,97.8,229,104.0,248,66.8,264,+.025,137,+2.31,118,102.7,96,100.4,151,+2.31,122
251,Troy,SB,6-4,-6.46,95.1,286,101.6,190,69.5,125,+.106,48,-4.07,293,99.2,265,103.3,310,-4.07,287
252,George Washington,A10,4-8,-6.47,94.3,296,100.8,171,69.6,120,-.017,204,-1.98,243,100.4,209,102.4,265,-1.98,238
253,Prairie View A&M,SWAC,0-9,-6.68,98.7,216,105.4,272,73.5,14,-.037,241,+17.07,3,109.0,3,91.9,1,+17.07,3
254,Lipscomb,ASun,5-6,-6.68,100.4,194,107.0,307,70.7,73,-.014,199,-0.44,199,101.1,178,101.5,228,-0.44,195
255,Presbyterian,BSth,6-5,-6.97,95.6,275,102.6,215,62.8,347,+.164,17,+1.50,135,102.5,108,101.0,194,+1.50,141
256,UT Arlington,SB,3-5,-6.98,92.5,322,99.5,137,69.0,144,+.030,133,+9.16,12,104.0,43,94.9,6,+9.16,12
257,North Carolina A&T,BSth,3-8,-7.10,95.5,277,102.6,214,70.1,95,-.062,271,+3.94,80,101.4,159,97.5,40,+3.94,77
258,Ball St.,MAC,4-5,-7.32,99.7,202,107.0,303,71.6,45,+.034,124,+0.63,164,102.2,125,101.5,229,+0.63,162
259,Jackson St.,SWAC,2-7,-7.69,89.3,344,97.0,89,66.0,307,+.037,119,+11.92,6,107.1,5,95.2,7,+11.92,6
260,Portland St.,BSky,3-5,-7.73,92.8,318,100.5,162,72.1,34,-.056,262,+0.33,174,101.9,136,101.6,231,-0.83,206
261,Dartmouth,Ivy,3-5,-7.79,95.0,287,102.8,217,65.4,318,+.004,170,+3.00,102,102.8,91,99.8,115,+3.00,106
262,Radford,BSth,4-7,-7.83,93.1,310,101.0,173,68.8,153,-.021,216,+5.37,57,102.8,95,97.4,37,+5.37,56
263,Air Force,MWC,7-2,-7.87,94.5,294,102.4,208,64.8,331,+.139,28,-10.50,351,95.3,348,105.8,349,-10.50,350
264,High Point,BSth,5-5,-7.90,95.0,288,102.9,219,66.6,274,-.059,264,-0.06,186,103.1,82,103.1,304,-0.06,184
265,Merrimack,NEC,4-8,-7.95,92.1,327,100.1,150,63.1,345,+.005,169,+3.36,92,101.8,145,98.4,62,+3.36,92
266,Hartford,AE,1-8,-7.96,99.3,211,107.3,313,69.1,142,-.098,313,+0.20,180,100.4,210,100.2,139,+0.20,178
267,UNC Asheville,BSth,6-4,-7.98,97.2,250,105.1,267,68.9,149,+.153,21,+0.56,169,102.7,103,102.1,254,+0.56,168
268,Manhattan,MAAC,6-3,-8.00,95.7,273,103.7,241,68.6,165,+.228,4,-4.49,303,97.7,321,102.2,256,-3.02,263
269,Norfolk St.,MEAC,9-3,-8.01,95.4,279,103.4,232,70.5,81,+.175,13,-6.38,328,96.0,343,102.4,267,-6.38,325
270,Eastern Michigan,MAC,5-5,-8.04,95.3,281,103.3,231,71.8,42,+.137,29,+2.67,110,101.8,140,99.1,85,+2.67,115
271,Illinois Chicago,Horz,3-6,-8.17,96.7,256,104.9,263,68.1,195,+.057,99,+0.97,154,101.8,139,100.8,183,+2.92,108
272,Elon,CAA,2-8,-8.32,98.5,219,106.8,301,71.6,49,-.000,175,+7.27,27,103.6,60,96.4,17,+7.27,29
273,Purdue Fort Wayne,Horz,5-5,-8.61,99.5,206,108.1,325,68.1,192,+.050,105,-6.55,330,98.5,296,105.0,338,-7.10,329
274,LIU,NEC,2-7,-8.62,94.7,291,103.3,230,72.4,26,-.158,349,+7.25,28,103.6,61,96.4,18,+7.25,30
275,Sacred Heart,NEC,4-7,-8.75,100.4,195,109.1,336,67.5,227,+.008,161,-1.33,225,99.8,243,101.2,204,-1.33,222
276,UTSA,CUSA,6-4,-8.81,97.7,234,106.5,294,70.3,85,+.183,11,-9.72,349,94.6,353,104.3,334,-9.72,347
277,Southern Miss,CUSA,4-5,-8.84,92.9,312,101.7,193,69.2,136,+.133,33,-1.16,217,100.1,230,101.3,211,-1.16,211
278,Loyola MD,Pat,6-5,-9.00,94.7,289,103.7,243,68.1,197,+.045,110,-6.43,329,97.8,320,104.2,332,-6.43,326
279,Kennesaw St.,ASun,4-6,-9.04,95.9,270,104.9,264,69.6,122,-.199,355,+7.37,26,105.1,22,97.7,47,+7.37,28
280,Long Beach St.,BW,3-7,-9.18,96.8,255,106.0,288,71.5,51,+.019,145,+8.12,18,105.5,16,97.4,35,+8.12,19
281,NJIT,AE,5-5,-9.29,91.8,331,101.1,177,67.5,225,+.058,98,-3.61,283,99.0,274,102.6,273,-3.61,277
282,San Jose St.,MWC,5-4,-9.54,96.3,262,105.9,280,68.0,204,+.083,66,-2.20,249,100.9,188,103.1,301,-2.20,243
283,Austin Peay,OVC,4-4,-9.95,97.6,238,107.6,317,68.2,185,+.088,62,+4.13,78,104.2,40,100.1,129,+4.13,72
284,Tennessee Tech,OVC,2-8,-9.96,95.4,278,105.4,273,69.2,137,-.095,311,+1.82,129,102.2,121,100.4,152,+1.82,132
285,Siena,MAAC,4-6,-10.04,94.2,298,104.3,256,65.3,319,+.084,65,-2.17,248,100.1,231,102.3,259,-1.19,213
286,North Florida,ASun,3-9,-10.13,98.9,215,109.0,334,70.2,89,+.032,128,+13.27,5,106.9,7,93.7,5,+13.27,5
287,Rider,MAAC,3-8,-10.39,94.2,297,104.6,261,69.9,107,+.006,165,-2.41,255,99.2,268,101.6,233,-3.26,268
288,Southern,SWAC,5-6,-10.49,92.8,319,103.3,229,71.9,40,+.120,42,+4.48,70,103.1,77,98.6,70,+4.48,66
289,SIU Edwardsville,OVC,5-6,-10.65,93.5,304,104.2,253,69.8,111,+.010,160,-3.98,291,99.5,254,103.5,318,-3.98,285
290,Western Carolina,SC,6-5,-10.74,97.3,248,108.0,324,69.0,147,+.130,34,-3.78,287,99.3,261,103.0,298,-3.78,280
291,Lamar,WAC,2-8,-10.75,97.1,252,107.8,322,67.1,248,-.108,322,+5.33,59,103.0,87,97.6,45,+5.33,58
292,St. Thomas,Sum,4-6,-10.78,103.1,127,113.8,356,66.7,269,-.133,339,-3.19,275,98.7,284,101.9,248,-3.19,267
293,Southeast Missouri St.,OVC,5-5,-10.85,97.9,225,108.8,331,71.6,48,+.130,36,-6.32,326,99.2,263,105.6,346,-6.32,323
294,Portland,WCC,8-3,-10.87,95.9,268,106.8,300,70.2,92,+.072,75,-11.43,356,94.5,354,106.0,352,-11.43,356
295,Cal Poly,BW,3-7,-10.92,93.0,311,103.9,246,63.7,341,-.101,316,-4.14,295,98.7,280,102.9,288,-4.14,289
296,Cal St. Northridge,BW,3-6,-10.94,93.4,306,104.3,257,64.9,329,+.063,88,+5.92,46,103.7,58,97.8,48,+5.92,46
297,Florida A&M,SWAC,2-6,-10.96,91.0,335,102.0,199,68.4,173,-.022,220,+6.92,34,103.6,65,96.7,20,+6.92,34
298,UT Rio Grande Valley,WAC,4-6,-11.06,96.6,260,107.6,319,73.3,16,-.011,196,+1.66,133,102.0,130,100.3,142,+1.66,138
299,North Alabama,ASun,6-3,-11.12,91.8,332,102.9,221,68.4,177,+.034,122,-9.48,348,94.3,357,103.7,327,-9.48,345
300,Dixie St.,WAC,5-5,-11.26,97.1,251,108.3,328,73.6,9,-.008,189,+3.93,81,103.3,72,99.4,94,+3.93,78
301,Canisius,MAAC,2-9,-11.48,95.1,285,106.6,297,69.8,110,+.041,115,+1.23,147,102.7,102,101.4,221,+2.52,117
302,Lafayette,Pat,2-8,-11.53,95.7,274,107.2,312,67.6,219,-.074,285,+0.22,179,103.1,79,102.9,287,+0.22,177
303,New Orleans,Slnd,3-7,-11.86,96.0,266,107.9,323,72.0,36,-.092,305,+2.62,111,102.2,124,99.6,102,+2.62,116
304,UNC Wilmington,CAA,3-5,-11.89,95.8,272,107.7,320,67.3,237,-.026,227,-6.86,333,95.8,345,102.7,276,-6.86,328
305,Idaho St.,BSky,1-8,-11.96,93.8,302,105.7,278,64.2,335,-.060,266,-2.33,253,98.4,303,100.7,170,+2.08,126
306,Albany,AE,3-7,-12.07,89.7,342,101.8,195,66.4,279,+.114,44,+0.99,153,101.7,146,100.7,174,+0.99,156
307,Sacramento St.,BSky,3-5,-12.38,93.5,305,105.9,281,68.7,159,+.032,129,+0.74,161,100.9,186,100.2,134,+3.98,75
308,Robert Morris,Horz,1-8,-12.46,96.7,257,109.2,337,69.6,121,-.087,301,+4.74,66,103.7,57,99.0,77,+8.76,14
309,Southeastern Louisiana,Slnd,4-6,-12.47,94.1,299,106.6,296,70.0,101,-.031,233,-1.32,224,100.7,193,102.1,253,-1.32,221
310,Morgan St.,MEAC,4-6,-12.49,93.4,307,105.9,279,72.6,23,-.035,239,-1.28,223,99.3,258,100.6,167,-1.28,220
311,Little Rock,SB,5-6,-12.50,94.0,300,106.5,295,70.5,82,+.104,50,+5.56,53,104.2,41,98.6,71,+5.56,51
312,Tennessee St.,OVC,3-6,-12.73,92.8,317,105.6,276,69.9,105,-.208,357,-9.43,347,94.4,356,103.9,329,-9.43,344
313,Lehigh,Pat,1-8,-12.91,93.9,301,106.9,302,70.8,69,-.015,202,-3.36,278,98.0,312,101.4,217,-3.36,270
314,Texas A&M Corpus Chris,Slnd,9-1,-13.09,92.3,324,105.4,274,71.9,41,+.240,2,-10.03,350,95.5,347,105.5,343,-10.03,349
315,Bucknell,Pat,2-8,-13.11,96.0,267,109.1,335,71.2,59,-.022,221,-2.56,261,101.8,143,104.3,335,-2.56,253
316,Mount St. Mary's,NEC,3-8,-13.19,91.9,329,105.1,265,66.0,306,+.044,111,+3.44,91,103.4,69,99.9,126,+3.44,89
317,Northern Arizona,BSky,4-6,-13.19,95.2,283,108.4,329,67.8,217,+.062,89,-1.54,232,99.9,240,101.5,224,-2.73,258
318,Alcorn St.,SWAC,1-7,-13.25,91.1,334,104.4,258,68.0,202,-.036,240,+11.08,7,106.8,9,95.7,11,+11.08,7
319,Coppin St.,MEAC,1-13,-13.38,92.8,316,106.2,291,72.1,35,-.150,347,+5.27,60,103.6,64,98.3,61,+5.27,59
320,American,Pat,4-7,-13.63,95.2,282,108.8,332,68.2,189,+.093,60,-3.30,276,99.8,244,103.1,305,-3.30,269
321,Green Bay,Horz,2-8,-13.67,94.7,290,108.4,330,64.3,334,-.121,334,-0.13,191,100.3,219,100.5,156,+4.01,74
322,Binghamton,AE,3-6,-14.15,92.9,313,107.0,306,67.5,226,-.075,286,-1.66,236,101.3,169,102.9,291,-1.66,230
323,Western Michigan,MAC,3-6,-14.22,96.9,254,111.1,343,66.9,256,+.080,70,+2.43,114,103.6,66,101.1,198,+2.43,118
324,Northern Illinois,MAC,3-6,-14.44,89.2,345,103.6,240,67.5,224,+.069,82,+1.71,132,100.1,228,98.4,64,+1.71,137
325,St. Francis NY,NEC,2-8,-14.46,92.6,321,107.1,309,68.5,168,-.053,260,-2.31,251,99.1,270,101.5,222,-2.31,245
326,McNeese St.,Slnd,3-7,-15.22,90.0,339,105.2,268,73.8,8,-.019,210,+6.51,39,104.0,46,97.5,39,+6.51,39
327,Central Michigan,MAC,1-9,-15.51,95.9,269,111.4,345,68.6,163,-.010,193,+5.92,47,104.6,32,98.7,72,+5.92,47
328,Fairleigh Dickinson,NEC,0-8,-16.38,95.3,280,111.7,347,69.8,114,-.065,273,+7.63,23,104.9,29,97.3,31,+7.63,24
329,Alabama A&M,SWAC,1-6,-16.54,87.5,352,104.0,247,67.8,215,-.012,198,+4.16,76,101.6,155,97.4,38,+4.16,71
330,Grambling St.,SWAC,3-7,-16.58,89.1,346,105.7,277,69.5,126,-.018,208,+4.47,71,102.3,119,97.8,49,+4.47,67
331,Denver,Sum,3-9,-16.84,92.0,328,108.9,333,66.4,282,-.119,330,-4.82,310,98.5,293,103.4,311,-4.82,304
332,USC Upstate,BSth,2-7,-16.97,91.3,333,108.3,327,69.2,138,+.000,174,-1.72,238,100.4,208,102.2,255,-1.72,232
333,Hampton,BSth,4-7,-17.02,88.9,349,105.9,284,66.7,267,+.126,39,-4.31,299,97.4,326,101.7,243,-4.31,295
334,Northwestern St.,Slnd,2-8,-17.43,93.3,308,110.7,341,71.0,66,-.080,290,+7.79,22,105.3,18,97.5,41,+7.79,22
335,William & Mary,CAA,1-11,-17.51,89.5,343,107.0,304,69.2,135,-.018,207,-1.72,239,100.1,234,101.8,247,-1.72,233
336,Idaho,BSky,2-8,-17.71,94.3,295,112.0,349,71.1,63,-.145,344,+0.90,159,101.5,157,100.6,166,+1.09,152
337,Nebraska Omaha,Sum,1-9,-17.99,92.9,314,110.8,342,68.8,154,-.149,346,+3.24,95,102.9,88,99.7,109,+3.24,96
338,Alabama St.,SWAC,2-9,-18.16,87.9,351,106.0,289,73.5,12,-.021,218,+5.40,56,103.1,83,97.7,46,+5.40,55
339,Maryland Eastern Shore,MEAC,5-5,-18.38,89.0,347,107.4,315,66.7,270,+.060,93,+6.15,43,103.2,76,97.1,25,+6.15,44
340,Central Arkansas,ASun,1-8,-18.41,92.8,315,111.3,344,72.9,19,+.033,126,+5.33,58,104.5,33,99.2,86,+5.33,57
341,Charleston Southern,BSth,3-6,-18.42,89.7,341,108.2,326,73.4,15,+.081,69,+7.07,32,103.1,84,96.0,14,+7.07,33
342,North Carolina Central,MEAC,4-7,-18.44,88.9,348,107.4,314,70.2,93,+.031,131,+3.64,88,103.1,81,99.4,95,+3.64,86
343,North Dakota,Sum,3-8,-18.73,94.6,293,113.3,355,68.4,174,+.066,84,-3.83,289,98.9,276,102.7,281,-3.83,282
344,Tennessee Martin,OVC,3-7,-19.16,92.5,323,111.7,346,69.7,116,+.031,132,+1.31,141,101.2,174,99.9,120,+1.31,146
345,South Carolina St.,MEAC,3-7,-19.68,89.9,340,109.6,338,72.8,21,+.086,64,-4.31,298,98.4,299,102.7,278,-4.31,294
346,Central Connecticut,NEC,2-8,-19.73,90.8,337,110.5,340,67.3,236,+.010,158,+0.20,181,100.0,238,99.8,116,+0.20,179
347,Columbia,Ivy,3-9,-20.40,92.3,325,112.7,350,69.0,146,-.027,229,-7.52,335,96.6,339,104.1,331,-7.52,332
348,Eastern Illinois,OVC,2-9,-20.78,86.4,355,107.2,310,68.3,182,-.086,299,+0.63,163,100.3,226,99.6,104,+0.63,161
349,Holy Cross,Pat,2-9,-20.98,92.2,326,113.2,354,67.8,211,-.011,194,-4.35,301,98.6,288,103.0,296,-4.35,297
350,Bethune Cookman,SWAC,1-8,-21.93,90.0,338,111.9,348,66.9,255,+.029,134,+6.11,44,103.2,74,97.1,27,+6.11,45
351,Houston Baptist,Slnd,3-6,-22.26,90.8,336,113.1,352,69.4,127,-.043,250,+6.67,37,105.1,21,98.5,67,+6.67,36
352,Maine,AE,2-6,-22.66,84.4,357,107.1,308,66.6,271,-.029,231,-0.06,187,100.7,194,100.8,178,-0.06,185
353,Incarnate Word,Slnd,2-8,-22.74,91.8,330,114.6,357,68.4,176,-.004,179,-1.55,233,99.4,255,101.0,191,-1.55,227
354,IUPUI,Horz,1-8,-23.02,84.8,356,107.8,321,63.5,342,-.049,255,-4.85,311,98.0,316,102.8,284,-5.07,308
355,Chicago St.,WAC,3-7,-23.95,86.6,354,110.5,339,68.4,175,+.043,112,-4.98,313,98.8,278,103.8,328,-4.98,307
356,Delaware St.,MEAC,2-8,-25.13,88.0,350,113.2,353,67.9,206,-.066,276,-5.19,317,98.0,314,103.2,307,-5.19,310
357,Arkansas Pine Bluff,SWAC,1-10,-25.97,87.1,353,113.0,351,70.7,72,-.024,223,+9.80,10,106.5,13,96.7,21,+9.80,10
358,Mississippi Valley St.,SWAC,0-8,-33.17,83.3,358,116.5,358,74.2,6,-.061,268,+3.14,97,102.0,129,98.9,75,+3.14,100
